WeightClassKg,Event,Equipment,Tested,Sex,Name,CyrillicName,Team,BirthDate,Division,BodyweightKg,Squat1Kg,Squat2Kg,Squat3Kg,Squat4Kg,Best3SquatKg,Bench1Kg,Bench2Kg,Bench3Kg,Bench4Kg,Best3BenchKg,Deadlift1Kg,Deadlift2Kg,Deadlift3Kg,Deadlift4Kg,Best3DeadliftKg,TotalKg,Place
48,SBD,Wraps,Yes,F,Mariya Yadryshnikova,Мария Ядрышникова,Новоспорт,2000-02-25,Amateur Teen 17-19,47.3,60,67.5,72.5,,72.5,35,40,42.5,,42.5,75,85,-110,,85,200,1
48,D,Raw,Yes,F,Tatyana Fedorova,Татьяна Федорова,Kachetebrothers,1987-04-04,Amateur Open,47.2,,,,,,,,,,,85,95,-110,,95,95,1
52,SBD,Wraps,Yes,F,Varvara Lychko,Варвара Лычко,Новоспорт,2000-11-03,Amateur Teen 17-19,50.65,75,85,90,,90,52.5,57.5,-60,,57.5,95,107.5,-115,,107.5,255,1
52,SBD,Wraps,Yes,F,Yuliya Dezhina,Юлия Дежина,Новоспорт,1997-06-14,Amateur Juniors 20-23,52,70,85,-90,,85,35,40,42.5,,42.5,90,-112.5,-112.5,,90,217.5,1
52,D,Raw,Yes,F,Tatyana Khalipa,Татьяна Халипа,,1996-03-13,Amateur Juniors 20-23,51.8,,,,,,,,,,,95,102.5,107.5,,107.5,107.5,1
52,SBD,Wraps,Yes,F,Ekaterina Lobova,Екатерина Лобова,Новоспорт,1990-04-18,Amateur Open,51.5,80,87.5,-92.5,,87.5,35,40,-45,,40,80,87.5,92.5,,92.5,220,1
56,SBD,Wraps,Yes,F,Ekaterina Petrova,Екатерина Петрова,СС,1999-01-21,Amateur Teen 17-19,56,-85,85,90,,90,35,40,-42.5,,40,110,120,125,,125,255,1
56,SBD,Wraps,Yes,F,Valeriya Nesvetaylo,Валерия Несветайло,СС,1986-12-20,Amateur Open,54.85,92.5,-102.5,-112.5,,92.5,45,50,-55,,50,115,125,-130,,125,267.5,1
56,SBD,Wraps,Yes,F,Ekaterina Petrova,Екатерина Петрова,СС,1999-01-21,Amateur Open,56,-85,85,90,,90,35,40,-42.5,,40,110,120,125,,125,255,2
56,SBD,Wraps,Yes,F,Ekaterina Kovalchuk,Екатерина Ковальчук,Новоспорт,1993-03-01,Amateur Open,55.5,65,-75,77.5,,77.5,35,40,-45,,40,82.5,90,95,,95,212.5,3
56,D,Raw,Yes,F,Irina Monoshkina,Ирина Моношкина,Автовокзал,1975-05-21,Amateur Masters 40-49,55.2,,,,,,,,,,,115,125,-130,,125,125,1
60,SBD,Wraps,Yes,F,Anastasiya Loginova,Анастасия Логинова,СС,1998-09-07,Amateur Open,60,120,125,132.5,,132.5,55,60,-65,,60,150,160,170,,170,362.5,1
60,SBD,Wraps,Yes,F,Tatyana Klimchuk,Татьяна Климчук,Славяне,1983-04-14,Amateur Open,58.74,105,-110,112.5,,112.5,55,-60,-60,,55,115,125,132.5,,132.5,300,2
60,SBD,Wraps,Yes,F,Tatyana Selyunina,Татьяна Селюнина,Новоспорт,1985-05-03,Amateur Open,57.38,-65,65,75,,75,37.5,42.5,45,,45,75,80,87.5,,87.5,207.5,3
60,SBD,Wraps,Yes,F,Darya Bednyakova,Дарья Беднякова,Новоспорт,1988-08-19,Amateur Open,59.25,40,50,-55,,50,25,30,35,,35,50,60,-70,,60,145,4
60,D,Raw,Yes,F,Tatyana Fradkina,Татьяна Фрадкина,Стальной Медведь,1982-11-15,Amateur Open,59.15,,,,,,,,,,,120,130,-135,,130,130,1
60,D,Raw,Yes,F,Irina Babintseva,Ирина Бабинцева,сектор силы,1988-06-10,Amateur Open,59.3,,,,,,,,,,,80,85,90,,90,90,3
67.5,SBD,Wraps,Yes,F,Irina Marunchenko,Ирина Марунченко,Галкин team,1986-05-20,Amateur Open,65.9,117.5,125,-130,,125,-67.5,67.5,-72.5,,67.5,120,130,137.5,,137.5,330,2
67.5,SBD,Wraps,Yes,F,Viktoriya Povnaya,Виктория Повная,Гоухард тим,1990-08-21,Amateur Open,63.3,92.5,112.5,117.5,,117.5,52.5,57.5,62.5,,62.5,112.5,120,127.5,,127.5,307.5,3
67.5,SBD,Wraps,Yes,F,Irina Batsileva,Ирина Бацилева,фк джамп,1993-04-16,Amateur Open,64.2,90,95,100,,100,57.5,60,62.5,,62.5,110,120,125,,125,287.5,4
67.5,SBD,Wraps,Yes,F,Ekaterina Krashkovets,Екатерина Крашковец,Новоспорт,1992-10-08,Amateur Open,61,27.5,-32.5,32.5,,32.5,25,30,-35,,30,65,75,-80,,75,137.5,5
56,SBD,Wraps,Yes,M,Aleksandr Mikheev,Александр Михеев,Барабинск,2001-02-19,Amateur Teen 17-19,55.15,130,140,142.5,,142.5,90,95,-97.5,,95,165,180,187.5,,187.5,425,1
60,SBD,Wraps,Yes,M,Aleksey Sommer,Алексей Соммер,СС,2007-03-20,Amateur Teen 13,59.35,60,-70,70,,70,-30,30,35,,35,70,80,-85,,80,185,1
60,SBD,Wraps,Yes,M,Petr Yuzzhalin,Петр Юзжалин,Кольцовские богатыри,2004-06-17,Amateur Teen 14-16,58.85,-85,85,-87.5,,85,47.5,52.5,55,,55,105,110,115,,115,255,2
60,SBD,Wraps,Yes,M,Rizvan Alimov,Ризван Алимов,Барабинск,2003-07-17,Amateur Teen 14-16,57.4,115,125,130,,130,80,87.5,90,,90,135,150,155,,155,375,1
67.5,SBD,Wraps,Yes,M,Ilya Spektoruk,Илья Спекторук,СС,2003-07-10,Amateur Teen 14-16,67.15,135,145,-150,,145,80,-90,-90,,80,185,-195,-195,,185,410,1
67.5,SBD,Wraps,Yes,M,Vladislav Lyumakin,Владислав Люмакин,Кольцовские богатыри,2003-11-11,Amateur Teen 14-16,66.65,125,130,135,,135,75,80,-82.5,,80,167.5,175,-180,,175,390,2
67.5,SBD,Wraps,Yes,M,Pavel Volchkov,Павел Волчков,Олимпия,2004-07-31,Amateur Teen 14-16,62.4,115,125,132.5,,132.5,70,77.5,-82.5,,77.5,125,137.5,145,,145,355,3
67.5,SBD,Wraps,Yes,M,Danila Shchukin,Данила Щукин,фоц кольцово,2003-07-05,Amateur Teen 14-16,66.55,107.5,112.5,115,,115,65,-70,70,,70,135,145,150,,150,335,4
67.5,SBD,Wraps,Yes,M,Lavrentiy Bogulskiy,Лаврентий Богульский,Новоспорт,2002-10-01,Amateur Teen 14-16,67.05,100,110,-120,,110,65,70,-72.5,,70,110,125,135,,135,315,6
67.5,SBD,Wraps,Yes,M,Evgeniy Odintsov,Евгений Одинцов,Новоспорт,1994-03-08,Amateur Open,65.2,130,140,145,,145,100,-105,,,100,220,230,,,230,475,1
67.5,SBD,Wraps,Yes,M,Vladimir Sviderskiy,Владимир Свидерский,Молодость,1951-05-07,Amateur Masters 60-69,66.85,110,117.5,122.5,,122.5,85,90,92.5,,92.5,125,130,135,,135,350,1
75,D,Raw,Yes,M,Aleksandr Korshikov,Александр Коршиков,СС,2002-09-02,Amateur Teen 14-16,72.3,,,,,,,,,,,170,180,,,180,180,1
75,D,Raw,Yes,M,Aleksandr Korshikov,Александр Коршиков,СС,2002-09-02,Amateur Teen 14-16,72.3,,,,,,,,,,,170,,,,170,170,3
75,SBD,Wraps,Yes,M,Danil Yakovlev,Данил Яковлев,Kachetebrothers,1999-11-01,Amateur Teen 17-19,74.8,160,165,170,,170,-120,-125,125,,125,160,165,170,,170,465,1
75,SBD,Wraps,Yes,M,Nikita Nikitin,Никита Никитин,Атлант,2001-04-25,Amateur Teen 17-19,73.05,140,150,-160,,150,110,120,-127.5,,120,160,175,-190,,175,445,2
75,SBD,Wraps,Yes,M,Grigoriy Erofeev,Григорий Ерофеев,фоц кольцово,2000-12-07,Amateur Teen 17-19,72.6,127.5,135,-140,,135,55,60,65,,65,165,-175,-182.5,,165,365,3
75,SBD,Wraps,Yes,M,Evgeniy Tolmachev,Евгений Толмачев,Колыванец,1998-04-19,Amateur Juniors 20-23,72.15,-180,180,195,,195,120,125,-130,,125,200,210,,,210,530,1
75,SBD,Wraps,Yes,M,Roman Yakovlev,Роман Яковлев,Новоспорт,1989-02-24,Amateur Open,72.65,140,150,-155,,150,105,-115,-115,,105,200,-210,-210,,200,455,2
75,D,Raw,Yes,M,Maksim Zhidkov,Максим Жидков,Стальной Медведь,1989-12-13,Amateur Open,72.8,,,,,,,,,,,205,215,-225,,215,215,3
75,SBD,Wraps,Yes,M,Ramil Samigullin,Рамиль Самигуллин,Молодость,1961-02-24,Amateur Masters 50-59,74.35,170,-180,180,,180,107.5,112.5,115,,115,170,182.5,-192.5,,182.5,477.5,1
75,SBD,Wraps,Yes,M,Nikolay Zakharov,Николай Захаров,Новоспорт,1951-12-21,Amateur Masters 60-69,71.5,120,-130,-130,,120,60,65,70,,70,140,145,150,,150,340,1
75,D,Raw,Yes,M,Gennadiy Chuldenko,Геннадий Чулденко,Молодость,1948-07-04,Amateur Masters 70-79,73.15,,,,,,,,,,,175,190,-200,,190,190,1
82.5,SBD,Wraps,Yes,M,Aleksandr Nikitin,Александр Никитин,СС,2002-10-13,Amateur Teen 14-16,80.5,155,162.5,170,,170,110,115,-120,,115,180,190,-195,,190,475,1
82.5,SBD,Wraps,Yes,M,Daniil Druzhinin,Даниил Дружинин,Новоспорт,2003-10-03,Amateur Teen 14-16,78.15,125,135,145,,145,77.5,85,-90,,85,145,160,170,,170,400,2
82.5,D,Raw,Yes,M,Danil Andronov,Данил Андронов,,2002-09-12,Amateur Teen 14-16,77.85,,,,,,,,,,,-190,190,195,,195,195,1
82.5,D,Raw,Yes,M,Danil Andronov,Данил Андронов,,2002-09-12,Amateur Teen 14-16,77.85,,,,,,,,,,,-190,,,,,,DQ
82.5,SBD,Wraps,Yes,M,Evgeniy Shulikov,Евгений Шуликов,Новоспорт,2001-10-17,Amateur Teen 17-19,79.85,110,125,130,,130,100,-105,-110,,100,175,187.5,-195,,187.5,417.5,1
82.5,SBD,Wraps,Yes,M,Aleksey Sukachyov,Алексей Сукачёв,Профлига,1998-01-25,Amateur Juniors 20-23,80.75,185,-200,-200,,185,120,125,-130,,125,225,242.5,-262.5,,242.5,552.5,4
82.5,SBD,Wraps,Yes,M,Vladislav Berezov,Владислав Березов,Новоспорт,1997-06-24,Amateur Juniors 20-23,78.25,165,185,-190,,185,105,-112.5,-112.5,,105,200,220,-230,,220,510,5
82.5,SBD,Wraps,Yes,M,Igor Makushev,Игорь Макушев,Новоспорт,1997-02-21,Amateur Juniors 20-23,78.45,-155,155,-165,,155,105,115,120,,120,180,195,-210,,195,470,6
82.5,SBD,Wraps,Yes,M,Kirill Malikov,Кирилл Маликов,,1998-03-02,Amateur Juniors 20-23,79.55,120,130,,,130,112.5,,,,112.5,160,,,,160,402.5,7
82.5,D,Raw,Yes,M,Andrey Zinov,Андрей Зинов,,1995-07-03,Amateur Juniors 20-23,80.25,,,,,,,,,,,-187.5,187.5,192.5,,192.5,192.5,3
82.5,D,Raw,Yes,M,Vladislav Bliznyuk,Владислав Близнюк,НВИ ВВ МВД,1998-03-03,Amateur Juniors 20-23,80.75,,,,,,,,,,,210,225,-235,,225,225,1
82.5,SBD,Wraps,Yes,M,Aleksey Sukachyov,Алексей Сукачёв,Профлига,1998-01-25,Amateur Open,80.75,185,-200,-200,,185,120,125,-130,,125,225,242.5,-262.5,,242.5,552.5,1
82.5,SBD,Wraps,Yes,M,Evgeniy Samoylov,Евгений Самойлов,ск Атлет,1989-07-13,Amateur Open,80.55,100,115,-125,,115,102.5,105,-107.5,,105,-187.5,-187.5,187.5,,187.5,407.5,2
82.5,SBD,Wraps,Yes,M,Vladimir Maksimenko,Владимир Максименко,Новоспорт,1989-10-20,Amateur Open,78.25,85,95,105,,105,80,87.5,92.5,,92.5,115,125,130,,130,327.5,3
82.5,SBD,Wraps,Yes,M,Artyom Dyakov,Артём Дъяков,Новоспорт,1992-04-04,Amateur Open,78.9,,,,,,-140,,,,,,,,,,,DQ
82.5,D,Raw,Yes,M,Konstantin Stukan,Константин Стукан,,1981-10-15,Amateur Open,81.4,,,,,,,,,,,207.5,217.5,-225,,217.5,217.5,3
82.5,SBD,Wraps,Yes,M,Evgeniy Kuzminykh,Евгений Кузьминых,СС,1983-11-16,Amateur Open,81.95,180,-190,-190,,180,-145,-145,-145,,,,,,,,,DQ
82.5,D,Raw,Yes,M,Igor Pushkarev,Игорь Пушкарев,,1989-05-20,Amateur Open,82.25,,,,,,,,,,,212.5,-217.5,-217.5,,212.5,212.5,5
82.5,D,Raw,Yes,M,Sergey Polosin,Сергей Полосин,СС,1983-09-27,Amateur Open,82.4,,,,,,,,,,,240,-250,-250,,240,240,1
82.5,SBD,Wraps,Yes,M,Aleksandr Kyubbar,Александр Кюббар,фоц кольцово,1960-05-23,Amateur Masters 50-59,81.3,140,-145,145,,145,102.5,-110,-110,,102.5,185,195,-205,,195,442.5,1
82.5,D,Raw,Yes,M,Yuriy Isagulov,Юрий Исагулов,Ермак,1944-01-02,Amateur Masters 70-79,81.9,,,,,,,,,,,160,-170,,,160,160,1
90,SBD,Wraps,Yes,M,Sergey Melnikov,Сергей Мельников,СС,2001-11-22,Amateur Teen 17-19,88.6,160,175,185,,185,92.5,100,110,,110,210,225,-230,,225,520,1
90,SBD,Wraps,Yes,M,Ivan Petrenko #2,Иван Петренко,Новоспорт,1995-12-09,Amateur Juniors 20-23,87.35,135,145,150,,150,105,115,120,,120,150,165,-180,,165,435,1
90,SBD,Wraps,Yes,M,Nikta Vlasov,Никта Власов,,1997-05-06,Amateur Juniors 20-23,86.65,140,150,,,150,90,95,100,,100,172.5,182.5,,,182.5,432.5,2
90,D,Raw,Yes,M,Evgeniy Raspopin,Евгений Распопин,СС,1998-02-17,Amateur Juniors 20-23,89.1,,,,,,,,,,,230,-245,-245,,230,230,1
90,SBD,Wraps,Yes,M,Dmitriy Kolomov,Дмитрий Коломов,Рельеф,1996-07-02,Amateur Open,89.95,235,242.5,247.5,,247.5,145,152.5,155,,155,280,290,-302.5,,290,692.5,2
90,SBD,Wraps,Yes,M,Danil Sergeev,Данил Сергеев,,1990-10-27,Amateur Open,88,160,170,180,,180,145,155,-160,,155,210,220,230,,230,565,4
90,SBD,Wraps,Yes,M,Dmitriy Koptsev,Дмитрий Копцев,,1986-11-22,Amateur Open,86.9,180,-185,185,,185,120,122.5,-125,,122.5,220,235,-245,,235,542.5,5
90,SBD,Wraps,Yes,M,Aleksandr Gayer,Александр Гайер,,1984-12-14,Amateur Open,87.4,190,-205,-205,,190,115,120,-125,,120,220,230,-245,,230,540,6
90,SBD,Wraps,Yes,M,Maksim Nazarov,Максим Назаров,Славяне,1984-09-23,Amateur Open,89.4,-155,160,-165,,160,122.5,127.5,-135,,127.5,190,200,215,,215,502.5,7
90,SBD,Wraps,Yes,M,Igor Kulakovskiy,Игорь Кулаковский,Томская Сила,1990-04-14,Amateur Open,85.7,140,-150,150,,150,115,120,-122.5,,120,180,190,200,,200,470,8
90,D,Raw,Yes,M,Maksim Povarenko,Максим Поваренко,сектор силы,1994-12-24,Amateur Open,86.3,,,,,,,,,,,-190,190,-197.5,,190,190,5
90,D,Raw,Yes,M,Roman Teryokhin,Роман Терёхин,,1978-11-25,Amateur Masters 40-49,89.75,,,,,,,,,,,190,200,,,200,200,1
90,D,Raw,Yes,M,Nikolay Efanov,Николай Ефанов,Стальной Медведь,1958-07-10,Amateur Masters 60-69,85.2,,,,,,,,,,,205,210,-215,,210,210,1
90,SBD,Wraps,Yes,M,Valeriy Nugumanov,Валерий Нугуманов,Молодость,1939-06-26,Amateur Masters 70-79,86.15,-140,140,,,140,85,-90,,,85,130,145,155,,155,380,1
100,SBD,Wraps,Yes,M,Aleksey Kovalchuk,Алексей Ковальчук,Новоспорт,2003-07-16,Amateur Teen 14-16,94.2,107.5,117.5,130,,130,50,57.5,-62.5,,57.5,120,132.5,-140,,132.5,320,1
100,SBD,Wraps,Yes,M,Denis Pocherin,Денис Почерин,Кольцовские богатыри,1998-10-16,Amateur Juniors 20-23,98,165,172.5,180,,180,110,117.5,122.5,,122.5,180,190,205,,205,507.5,1
100,SBD,Wraps,Yes,M,Vladimir Sukachyov,Владимир Сукачёв,Профлига,1974-03-19,Amateur Open,97.5,210,-225,-225,,210,155,165,-175,,165,200,215,225,,225,600,4
100,SBD,Wraps,Yes,M,Evgeniy Ashcherbagin,Евгений Ащербагин,,1994-06-12,Amateur Open,93.05,-160,160,170,,170,110,117.5,-122.5,,117.5,170,180,-185,,180,467.5,7
100,D,Raw,Yes,M,Aleksandr Chernov,Александр Чернов,,1989-08-15,Amateur Open,95.75,,,,,,,,,,,230,260,275,,275,275,3
100,SBD,Wraps,Yes,M,Vasiliy Mandzyuk,Василий Мандзюк,Автовокзал,1971-08-08,Amateur Masters 40-49,98.15,-190,190,205,,205,132.5,140,145,,145,210,225,235,,235,585,2
110,SBD,Wraps,Yes,M,Andrey Bocharnikov,Андрей Бочарников,Гоухард тим,1984-01-04,Amateur Open,105.95,170,180,200,,200,135,145,152.5,,152.5,240,255,280,,280,632.5,3
110,SBD,Wraps,Yes,M,Dmitriy Kem,Дмитрий Кем,Арена-300,1971-12-08,Amateur Open,103.75,180,200,220,,220,120,130,135,,135,220,-242.5,-242.5,,220,575,4
110,SBD,Wraps,Yes,M,Aleksey Krechetov,Алексей Кречетов,Титан,1987-01-17,Amateur Open,106.6,-160,160,-170,,160,125,130,-132.5,,130,190,210,220,,220,510,5
110,D,Raw,Yes,M,Artur Kobets,Артур Кобец,Здоровье,1967-06-10,Amateur Masters 50-59,107.6,,,,,,,,,,,200,220,242.5,,242.5,242.5,1
110,D,Raw,Yes,M,Sergey Laryagin,Сергей Ларягин,КПД,1962-03-14,Amateur Masters 50-59,108.85,,,,,,,,,,,215,225,232.5,,232.5,232.5,3
125,D,Raw,Yes,M,Sergey Gladkov,Сергей Гладков,Стальной Медведь,1981-08-06,Amateur Open,119,,,,,,,,,,,250,260,270,,270,270,3
140,D,Raw,Yes,M,Andrey Galin,Андрей Галин,Автовокзал,1967-03-29,Amateur Masters 50-59,133.95,,,,,,,,,,,240,-265,-265,,240,240,1
75,D,Raw,Yes,M,Aleksandr Korshikov,Александр Коршиков,СС,2002-09-02,Amateur Teen 14-16,72.3,,,,,,,,,,,170,180,,,180,180,2
75,D,Raw,Yes,M,Aleksandr Korshikov,Александр Коршиков,СС,2002-09-02,Amateur Teen 14-16,72.3,,,,,,,,,,,170,,,,170,170,4
75,D,Raw,Yes,M,Maksim Zhidkov,Максим Жидков,Стальной Медведь,1989-12-13,Amateur Open,72.8,,,,,,,,,,,205,215,-225,,215,215,4
75,D,Raw,Yes,M,Gennadiy Chuldenko,Геннадий Чулденко,Молодость,1948-07-04,Amateur Masters 70-79,73.15,,,,,,,,,,,175,190,-200,,190,190,2
82.5,D,Raw,Yes,M,Danil Andronov,Данил Андронов,,2002-09-12,Amateur Teen 14-16,77.85,,,,,,,,,,,-190,190,195,,195,195,2
82.5,D,Raw,Yes,M,Danil Andronov,Данил Андронов,,2002-09-12,Amateur Teen 14-16,77.85,,,,,,,,,,,-190,,,,,,DQ
82.5,D,Raw,Yes,M,Vladislav Bliznyuk,Владислав Близнюк,НВИ ВВ МВД,1998-03-03,Amateur Juniors 20-23,80.75,,,,,,,,,,,210,225,-235,,225,225,2
82.5,D,Raw,Yes,M,Andrey Zinov,Андрей Зинов,,1995-07-03,Amateur Juniors 20-23,80.25,,,,,,,,,,,-187.5,187.5,192.5,,192.5,192.5,4
82.5,D,Raw,Yes,M,Sergey Polosin,Сергей Полосин,СС,1983-09-27,Amateur Open,82.4,,,,,,,,,,,240,-250,-250,,240,240,2
82.5,D,Raw,Yes,M,Konstantin Stukan,Константин Стукан,,1981-10-15,Amateur Open,81.4,,,,,,,,,,,207.5,217.5,-225,,217.5,217.5,4
82.5,D,Raw,Yes,M,Igor Pushkarev,Игорь Пушкарев,,1989-05-20,Amateur Open,82.25,,,,,,,,,,,212.5,-217.5,-217.5,,212.5,212.5,6
82.5,D,Raw,Yes,M,Yuriy Isagulov,Юрий Исагулов,Ермак,1944-01-02,Amateur Masters 70-79,81.9,,,,,,,,,,,160,-170,,,160,160,2
90,D,Raw,Yes,M,Evgeniy Raspopin,Евгений Распопин,СС,1998-02-17,Amateur Juniors 20-23,89.1,,,,,,,,,,,230,-245,-245,,230,230,2
90,D,Raw,Yes,M,Maksim Povarenko,Максим Поваренко,сектор силы,1994-12-24,Amateur Open,86.3,,,,,,,,,,,-190,190,-197.5,,190,190,6
90,D,Raw,Yes,M,Roman Teryokhin,Роман Терёхин,,1978-11-25,Amateur Masters 40-49,89.75,,,,,,,,,,,190,200,,,200,200,2
90,D,Raw,Yes,M,Nikolay Efanov,Николай Ефанов,Стальной Медведь,1958-07-10,Amateur Masters 60-69,85.2,,,,,,,,,,,205,210,-215,,210,210,2
100,D,Raw,Yes,M,Aleksandr Chernov,Александр Чернов,,1989-08-15,Amateur Open,95.75,,,,,,,,,,,230,260,275,,275,275,4
110,D,Raw,Yes,M,Artur Kobets,Артур Кобец,Здоровье,1967-06-10,Amateur Masters 50-59,107.6,,,,,,,,,,,200,220,242.5,,242.5,242.5,2
110,D,Raw,Yes,M,Sergey Laryagin,Сергей Ларягин,КПД,1962-03-14,Amateur Masters 50-59,108.85,,,,,,,,,,,215,225,232.5,,232.5,232.5,4
125,D,Raw,Yes,M,Sergey Gladkov,Сергей Гладков,Стальной Медведь,1981-08-06,Amateur Open,119,,,,,,,,,,,250,260,270,,270,270,4
140,D,Raw,Yes,M,Andrey Galin,Андрей Галин,Автовокзал,1967-03-29,Amateur Masters 50-59,133.95,,,,,,,,,,,240,-265,-265,,240,240,2
48,D,Raw,Yes,F,Tatyana Fedorova,Татьяна Федорова,Kachetebrothers,1987-04-04,Amateur Open,47.2,,,,,,,,,,,85,95,-110,,95,95,2
52,D,Raw,Yes,F,Tatyana Khalipa,Татьяна Халипа,,1996-03-13,Amateur Juniors 20-23,51.8,,,,,,,,,,,95,102.5,107.5,,107.5,107.5,2
56,D,Raw,Yes,F,Irina Monoshkina,Ирина Моношкина,Автовокзал,1975-05-21,Amateur Masters 40-49,55.2,,,,,,,,,,,115,125,-130,,125,125,2
60,D,Raw,Yes,F,Tatyana Fradkina,Татьяна Фрадкина,Стальной Медведь,1982-11-15,Amateur Open,59.15,,,,,,,,,,,120,130,-135,,130,130,2
60,D,Raw,Yes,F,Irina Babintseva,Ирина Бабинцева,сектор силы,1988-06-10,Amateur Open,59.3,,,,,,,,,,,80,85,90,,90,90,4
52,SBD,Multi-ply,Yes,F,Elena Brayko,Елена Брайко,,1990-09-03,Amateur Open,50.6,-85,-85,85,,85,50,-55,-55,,50,90,100,-115,,100,235,1
60,SBD,Multi-ply,Yes,F,Aleksandra Tarkova,Александра Таркова,СС,1989-08-11,Amateur Open,59.05,115,125,132.5,,132.5,95,102.5,107.5,,107.5,130,142.5,-147.5,,142.5,382.5,1
67.5,SBD,Multi-ply,Yes,F,Irina Shamina,Ирина Шамина,СС,1987-04-17,Amateur Open,66.75,100,107.5,112.5,,112.5,70,75,-80,,75,110,120,127.5,,127.5,315,1
67.5,SBD,Multi-ply,Yes,F,Anna Alyunova,Анна Алюнова,Новоспорт,1992-05-26,Amateur Open,61.05,70,,,,70,-70,-70,-75,,,85,100,-105,,100,,DQ
67.5,SBD,Multi-ply,Yes,M,Nikita Sabelfeld,Никита Сабельфельд,СС,2002-07-17,Amateur Teen 14-16,67.25,130,145,-152.5,,145,80,90,100,,100,167.5,180,-190,,180,425,1
75,SBD,Multi-ply,Yes,M,Dmitriy Timoshenko,Дмитрий Тимошенко,СС,1975-04-02,Amateur Masters 40-49,74.1,150,160,-170,,160,130,145,-152.5,,145,160,175,-185,,175,480,1
82.5,SBD,Multi-ply,Yes,M,Dmitriy Butyrskikh,Дмитрий Бутырских,СС,1996-04-16,Amateur Open,81.6,185,195,200,,200,160,175,-185,,175,175,180,-190,,180,555,1
90,SBD,Multi-ply,Yes,M,Sergey Bogachuk,Сергей Богачук,СС,1989-05-30,Amateur Open,89.95,-190,190,-205,,190,160,-170,170,,170,220,-235,-235,,220,580,1
100,S,Multi-ply,Yes,M,Oleg Ovcharenko,Олег Овчаренко,Стальной Медведь,1991-08-29,Amateur Open,96.5,-232.5,232.5,-242.5,,232.5,,,,,,,,,,,232.5,1
60,S,Multi-ply,Yes,F,Valentina Plotnikova,Валентина Плотникова,,2000-06-17,Amateur Teen 17-19,59.26,100,107.5,-112.5,,107.5,,,,,,,,,,,107.5,1
44,B,Raw,Yes,M,Mikhail Plotnikov,Михаил Плотников,ск атлет,2005-10-07,Amateur Teen 13,37.9,,,,,,32.5,-35,-35,,32.5,,,,,,32.5,1
52,B,Raw,Yes,M,Kirill Kontsevoy,Кирилл Концевой,СС,2012-06-13,Amateur Teen 13,,,,,,,15,20,-25,,20,,,,,,20,2
52,B,Raw,Yes,M,Maksim Andreev #1,Максим Андреев,ск атлет,2004-01-16,Amateur Teen 14-16,49.14,,,,,,50,-55,55,,55,,,,,,55,1
56,B,Raw,Yes,M,Yakovkov Mishin,Яковков Мишин,Профлига,2001-12-11,Amateur Teen 17-19,53.96,,,,,,-72.5,-72.5,72.5,,72.5,,,,,,72.5,1
60,B,Raw,Yes,M,Nikita Pomeshchikov,Никита Помещиков,ск атлет,2003-05-12,Amateur Teen 14-16,58.2,,,,,,95,-97.5,97.5,,97.5,,,,,,97.5,1
60,B,Raw,Yes,M,Roman Lubnin,Роман Лубнин,Кварц,2002-03-04,Amateur Teen 14-16,58.9,,,,,,80,85,-87.5,,85,,,,,,85,2
60,B,Raw,Yes,M,Anton Butorin,Антон Буторин,ск атлет,1999-04-05,Amateur Teen 17-19,59.3,,,,,,-65,65,-72.5,,65,,,,,,65,2
67.5,B,Raw,Yes,M,Nikolay Vizner,Николай Визнер,Кварц,2003-06-20,Amateur Teen 14-16,65.15,,,,,,80,85,-90,,85,,,,,,85,1
67.5,B,Raw,Yes,M,Anatoliy Frolov,Анатолий Фролов,солерна,2003-01-04,Amateur Teen 14-16,66.05,,,,,,-77.5,-80,80,,80,,,,,,80,2
67.5,B,Raw,Yes,M,Nikita Pozolotin,Никита Позолотин,Новоспорт,2004-08-06,Amateur Teen 14-16,66.1,,,,,,-60,70,-75,,70,,,,,,70,3
67.5,B,Raw,Yes,M,Kirill Shveyko,Кирилл Швейко,Алтайский край,2001-12-05,Amateur Teen 17-19,66.4,,,,,,120,-127.5,127.5,,127.5,,,,,,127.5,1
67.5,B,Raw,Yes,M,Aleksandr Udovenko,Александр Удовенко,Новоспорт,1998-12-10,Amateur Juniors 20-23,63.15,,,,,,85,95,-102.5,,95,,,,,,95,1
67.5,B,Raw,Yes,M,Yuriy Zhmaev,Юрий Жмаев,,1979-08-27,Amateur Open,66.45,,,,,,-135,135,,,135,,,,,,135,1
67.5,B,Raw,Yes,M,Roman Eliseev,Роман Елисеев,,1989-10-20,Amateur Open,65.2,,,,,,-105,-110,110,,110,,,,,,110,2
75,B,Raw,Yes,M,Gleb Tuzov,Глеб Тузов,Профлига,2006-01-10,Amateur Teen 13,69.2,,,,,,50,60,-62.5,,60,,,,,,60,1
75,B,Raw,Yes,M,Danila Marinin,Данила Маринин,А-Спорт,2005-04-19,Amateur Teen 13,73.85,,,,,,-55,,,,,,,,,,,DQ
75,B,Raw,Yes,M,Danila Marinin,Данила Маринин,А-Спорт,2005-04-19,Amateur Teen 13,73.85,,,,,,-55,,,,,,,,,,,DQ
75,B,Raw,Yes,M,Mikhail Galimon,Михаил Галимон,Новоспорт,1999-07-21,Amateur Teen 17-19,73.5,,,,,,127.5,137.5,140,,140,,,,,,140,1
75,B,Raw,Yes,M,Danil Yakovlev,Данил Яковлев,Kachetebrothers,1999-11-01,Amateur Teen 17-19,74.8,,,,,,-120,-125,125,,125,,,,,,125,2
75,B,Raw,Yes,M,Vladislav Chesnokov,Владислав Чесноков,Кварц,2001-07-28,Amateur Teen 17-19,74.2,,,,,,97.5,-107.5,-107.5,,97.5,,,,,,97.5,3
75,B,Raw,Yes,M,Mikhail Galimon,Михаил Галимон,Новоспорт,1999-07-21,Amateur Open,73.5,,,,,,127.5,137.5,140,,140,,,,,,140,2
75,B,Raw,Yes,M,Dmitriy Artyomov,Дмитрий Артёмов,,1975-10-14,Amateur Open,74.7,,,,,,-127.5,127.5,-132.5,,127.5,,,,,,127.5,3
75,B,Raw,Yes,M,Igor Gil,Игорь Гиль,Новоспорт,1990-01-21,Amateur Open,74.45,,,,,,75,85,-95,,85,,,,,,85,4
75,B,Raw,Yes,M,Dmitriy Artyomov,Дмитрий Артёмов,,1975-10-14,Amateur Masters 40-49,74.7,,,,,,-127.5,127.5,-132.5,,127.5,,,,,,127.5,1
75,B,Raw,Yes,M,Aleksandr Atamanov,Александр Атаманов,,1975-10-03,Amateur Masters 40-49,74.1,,,,,,115,120,-125,,120,,,,,,120,3
75,B,Raw,Yes,M,Aleksandr Yarygin,Александр Ярыгин,Силуэт,1951-07-30,Amateur Masters 60-69,74.55,,,,,,90,100,-102.5,,100,,,,,,100,1
82.5,B,Raw,Yes,M,Aleksandr Nikitin,Александр Никитин,СС,2002-10-13,Amateur Teen 14-16,80.5,,,,,,110,115,-120,,115,,,,,,115,1
82.5,B,Raw,Yes,M,Ilya Pelenev,Илья Пеленев,ск атлет,2002-06-02,Amateur Teen 14-16,78.2,,,,,,105,107.5,-112.5,,107.5,,,,,,107.5,2
82.5,B,Raw,Yes,M,Ravil Sadykov,Равиль Садыков,ск атлет,1991-01-30,Amateur Open,81.8,,,,,,170,-172.5,-172.5,,170,,,,,,170,1
82.5,B,Raw,Yes,M,Artyom Dyakov,Артём Дъяков,Новоспорт,1992-04-04,Amateur Open,78.9,,,,,,140,150,160,,160,,,,,,160,3
82.5,B,Raw,Yes,M,Dmitriy Kolotvinov,Дмитрий Колотвинов,,1991-09-27,Amateur Open,75.65,,,,,,155,-165,-170,,155,,,,,,155,4
82.5,B,Raw,Yes,M,Aleksandr Frolov,Александр Фролов,Братск,1976-05-07,Amateur Open,79.75,,,,,,145,150,-155,,150,,,,,,150,5
82.5,B,Raw,Yes,M,Yakhyokhozhi Egamberdiev,Яхёхожи Эгамбердиев,Новоспорт,1994-06-17,Amateur Open,81.6,,,,,,135,150,-157.5,,150,,,,,,150,6
82.5,B,Raw,Yes,M,Ivan Matvienko,Иван Матвиенко,СС,1988-10-03,Amateur Open,79.8,,,,,,140,147.5,,,147.5,,,,,,147.5,7
82.5,B,Raw,Yes,M,Roman Stolyar,Роман Столяр,Новоспорт,1994-08-17,Amateur Open,79.2,,,,,,125,130,137.5,,137.5,,,,,,137.5,8
82.5,B,Raw,Yes,M,Oleg Antonov,Олег Антонов,Стронг-фитнесс,1984-04-09,Amateur Open,82.5,,,,,,137.5,-147.5,-147.5,,137.5,,,,,,137.5,10
82.5,B,Raw,Yes,M,Yuriy Furman,Юрий Фурман,Гоухард тим,1993-08-20,Amateur Open,78.8,,,,,,130,-142.5,-147.5,,130,,,,,,130,11
82.5,B,Raw,Yes,M,Aleksandr Chagin,Александр Чагин,Стронг-фитнесс,1984-09-05,Amateur Open,81.6,,,,,,-137.5,-137.5,-137.5,,,,,,,,,DQ
82.5,B,Raw,Yes,M,Evgeniy Kuzminykh,Евгений Кузьминых,СС,1983-11-16,Amateur Open,81.95,,,,,,-145,-145,-145,,,,,,,,,DQ
82.5,B,Raw,Yes,M,Aleksandr Frolov,Александр Фролов,Братск,1976-05-07,Amateur Masters 40-49,79.75,,,,,,145,150,-155,,150,,,,,,150,1
82.5,B,Raw,Yes,M,Aleksey Korobov,Алексей Коробов,Томская Сила,1959-03-21,Amateur Masters 50-59,78.7,,,,,,100,,,,100,,,,,,100,1
90,B,Raw,Yes,M,Artem Bobrov,Артем Бобров,Кварц,2002-01-03,Amateur Teen 14-16,83.9,,,,,,85,90,95,,95,,,,,,95,1
90,B,Raw,Yes,M,Dmitriy Uzdemir,Дмитрий Уздемир,,2004-04-13,Amateur Teen 14-16,85.95,,,,,,80,-90,-92.5,,80,,,,,,80,2
90,B,Raw,Yes,M,Evgeniy Kutlin,Евгений Кутлин,Новоспорт,2000-02-24,Amateur Teen 17-19,84.3,,,,,,-90,90,100,,100,,,,,,100,1
90,B,Raw,Yes,M,Igor Kirillov,Игорь Кириллов,Кольцово,1998-08-20,Amateur Juniors 20-23,84.7,,,,,,125,132.5,-140,,132.5,,,,,,132.5,1
90,B,Raw,Yes,M,Aleksandr Leonenko,Александр Леоненко,Стронг-фитнесс,1992-02-25,Amateur Open,88,,,,,,167.5,172.5,-177.5,,172.5,,,,,,172.5,3
90,B,Raw,Yes,M,Aleksey Limarev,Алексей Лимарев,Стальной Медведь,1986-09-05,Amateur Open,87.25,,,,,,150,160,165,,165,,,,,,165,5
90,B,Raw,Yes,M,Aleksey Pugachev,Алексей Пугачев,Стронг-фитнесс,1979-05-23,Amateur Open,89.5,,,,,,162.5,-170,-170,,162.5,,,,,,162.5,6
90,B,Raw,Yes,M,Maksim Pogoreltsev,Максим Погорельцев,СС,1985-09-25,Amateur Open,87.55,,,,,,140,150,-155,,150,,,,,,150,7
90,B,Raw,Yes,M,Dmitriy Shevtsov,Дмитрий Шевцов,солерна,1992-07-24,Amateur Open,89.95,,,,,,-142.5,147.5,-155,,147.5,,,,,,147.5,9
90,B,Raw,Yes,M,Evgeniy Myshkin,Евгений Мышкин,Новоспорт,1985-05-15,Amateur Open,87,,,,,,145,-155,-155,,145,,,,,,145,10
90,B,Raw,Yes,M,Maksim Nazarov,Максим Назаров,Славяне,1984-09-23,Amateur Open,89.4,,,,,,122.5,127.5,-135,,127.5,,,,,,127.5,11
90,B,Raw,Yes,M,Yuriy Mikhaylov,Юрий Михайлов,СС,1987-07-22,Amateur Open,86.65,,,,,,,,,,,,,,,,,DQ
90,B,Raw,Yes,M,Igor Mukhametzhanov,Игорь Мухаметжанов,Усть-каменогорск,1972-10-27,Amateur Masters 40-49,88.95,,,,,,145,-155,155,,155,,,,,,155,2
90,B,Raw,Yes,M,Igor Mukhametzhanov,Игорь Мухаметжанов,Усть-каменогорск,1972-10-27,Amateur Masters 40-49,88.95,,,,,,145,-155,155,,155,,,,,,155,3
90,B,Raw,Yes,M,Vladimir Voytsitskiy,Владимир Войцицкий,Кольцовские богатыри,1976-10-12,Amateur Masters 40-49,89.1,,,,,,125,132.5,140,,140,,,,,,140,4
90,B,Raw,Yes,M,Maksim Pazhoga,Максим Пажога,,1977-11-02,Amateur Masters 40-49,86.65,,,,,,105,-120,-120,,105,,,,,,105,5
90,B,Raw,Yes,M,Aleksandr Razmakhnin,Александр Размахнин,Новоспорт,1951-08-08,Amateur Masters 60-69,88.9,,,,,,110,122.5,-127.5,,122.5,,,,,,122.5,1
100,B,Raw,Yes,M,Viktor Tikhonov,Виктор Тихонов,СС,2001-04-21,Amateur Teen 17-19,96.8,,,,,,135,-142.5,142.5,,142.5,,,,,,142.5,1
100,B,Raw,Yes,M,Artem Gomolko,Артем Гомолко,Профлига,1987-12-24,Amateur Open,96.85,,,,,,180,190,-195,,190,,,,,,190,1
100,B,Raw,Yes,M,Andrey Gerasimenko,Андрей Герасименко,Обь,1990-09-06,Amateur Open,97.15,,,,,,180,187.5,-192.5,,187.5,,,,,,187.5,2
100,B,Raw,Yes,M,Andrey Fradkin,Андрей Фрадкин,Стальной Медведь,1982-02-02,Amateur Open,99.55,,,,,,162.5,170,175,,175,,,,,,175,3
100,B,Raw,Yes,M,Aleksey Ivanov,Алексей Иванов,,1984-10-07,Amateur Open,98.2,,,,,,155,165,170,,170,,,,,,170,4
100,B,Raw,Yes,M,Aleksandr Chernov,Александр Чернов,,1989-08-15,Amateur Open,95.2,,,,,,150,167.5,-172.5,,167.5,,,,,,167.5,5
100,B,Raw,Yes,M,Yakov Zuban,Яков Зубан,,1990-04-24,Amateur Open,97.4,,,,,,160,-165,-165,,160,,,,,,160,6
100,B,Raw,Yes,M,Andrey Rovenskiy,Андрей Ровенский,СС,1992-09-12,Amateur Open,97.4,,,,,,150,157.5,-162.5,,157.5,,,,,,157.5,7
100,B,Raw,Yes,M,Vladimir Stepanchenko,Владимир Степаньченко,,1990-06-27,Amateur Open,99.05,,,,,,155,-162.5,-162.5,,155,,,,,,155,8
100,B,Raw,Yes,M,Aleksey Pokhlebin,Алексей Похлебин,Стронг-фитнесс,1980-08-08,Amateur Open,95.75,,,,,,142.5,147.5,-152.5,,147.5,,,,,,147.5,9
100,B,Raw,Yes,M,Aleksandr Tarakanovskiy,Александр Таракановский,Стальной Медведь,1985-04-18,Amateur Open,98,,,,,,132.5,-142.5,142.5,,142.5,,,,,,142.5,10
100,B,Raw,Yes,M,Aleksandr Gavrilov,Александр Гаврилов,Новоспорт,1990-01-24,Amateur Open,92.3,,,,,,125,-135,-135,,125,,,,,,125,11
100,B,Raw,Yes,M,Stanislav Osipov,Станислав Осипов,Новоспорт,1988-07-12,Amateur Open,94.25,,,,,,110,-120,-125,,110,,,,,,110,12
100,B,Raw,Yes,M,Dmitriy Mironov,Дмитрий Миронов,,1980-08-02,Amateur Open,98.6,,,,,,-142.5,-145,-145,,,,,,,,,DQ
100,B,Raw,Yes,M,Anuar Kalymbetov,Ануар Калымбетов,,1987-09-15,Amateur Open,99.95,,,,,,-125,,,,,,,,,,,DQ
100,B,Raw,Yes,M,Igor Alimov,Игорь Алимов,,1978-06-15,Amateur Masters 40-49,97.7,,,,,,170,175,180,,180,,,,,,180,1
100,B,Raw,Yes,M,Vladimir Sukachyov,Владимир Сукачёв,Профлига,1974-03-19,Amateur Masters 40-49,97.5,,,,,,155,165,-170,,165,,,,,,165,2
100,B,Raw,Yes,M,Aleksandr Votchal,Александр Вотчал,,1976-05-14,Amateur Masters 40-49,99.85,,,,,,145,155,157.5,,157.5,,,,,,157.5,3
100,B,Raw,Yes,M,Dmitriy Gaydukov,Дмитрий Гайдуков,,1976-01-10,Amateur Masters 40-49,97.75,,,,,,147.5,155,-162.5,,155,,,,,,155,4
100,B,Raw,Yes,M,Vitaliy Ryabov,Виталий Рябов,Здоровье,1972-08-02,Amateur Masters 40-49,96.75,,,,,,150,-162.5,-162.5,,150,,,,,,150,5
100,B,Raw,Yes,M,Vasiliy Sklyarov,Василий Скляров,СС,1974-12-29,Amateur Masters 40-49,97.85,,,,,,137.5,145,-155,,145,,,,,,145,6
100,B,Raw,Yes,M,Aleksandr Gorpinych,Александр Горпиныч,Усть-каменогорск,1968-09-22,Amateur Masters 50-59,95.05,,,,,,160,170,175,,175,,,,,,175,1
100,B,Raw,Yes,M,Vyacheslav Nikolaev,Вячеслав Николаев,Стальной Медведь,1956-07-10,Amateur Masters 60-69,95.55,,,,,,140,150,-155,,150,,,,,,150,1
110,B,Raw,Yes,M,Ivan Beygel,Иван Бейгель,Профлига,2004-07-26,Amateur Teen 14-16,109.4,,,,,,60,-70,-70,,60,,,,,,60,1
110,B,Raw,Yes,M,Pavel Tumanov,Павел Туманов,Новоспорт,1992-09-02,Amateur Open,109.65,,,,,,175,185,195,,195,,,,,,195,3
110,B,Raw,Yes,M,Artem Antonov,Артем Антонов,,1979-01-09,Amateur Open,107.55,,,,,,-187.5,-187.5,187.5,,187.5,,,,,,187.5,4
110,B,Raw,Yes,M,Evgeniy Antukh,Евгений Антух,Томская Сила,1972-10-13,Amateur Open,107.3,,,,,,170,177.5,182.5,,182.5,,,,,,182.5,5
110,B,Raw,Yes,M,Aleksey Bokarev,Алексей Бокарев,,1991-09-10,Amateur Open,108.45,,,,,,160,-170,-170,,160,,,,,,160,8
110,B,Raw,Yes,M,Aleksandr Shapovalenko,Александр Шаповаленко,Питбуль,1981-11-22,Amateur Open,108.4,,,,,,140,-150,-150,,140,,,,,,140,9
110,B,Raw,Yes,M,Evgeniy Berdus,Евгений Бердус,Кольцовские богатыри,1983-07-19,Amateur Open,106.35,,,,,,125,130,-135,,130,,,,,,130,10
110,B,Raw,Yes,M,Evgeniy Antukh,Евгений Антух,Томская Сила,1972-10-13,Amateur Masters 40-49,107.3,,,,,,170,177.5,182.5,,182.5,,,,,,182.5,1
110,B,Raw,Yes,M,Vyacheslav Churakov,Вячеслав Чураков,,1977-05-16,Amateur Masters 40-49,102,,,,,,155,-160,-160,,155,,,,,,155,3
110,B,Raw,Yes,M,Artur Kobets,Артур Кобец,Здоровье,1967-06-10,Amateur Masters 50-59,108.25,,,,,,130,140,-147.5,,140,,,,,,140,1
110,B,Raw,Yes,M,Sergey Grinkov,Сергей Гриньков,,1957-05-03,Amateur Masters 60-69,104.35,,,,,,100,-110,110,,110,,,,,,110,1
125,B,Raw,Yes,M,Sergey Grebenkin,Сергей Гребенкин,Профлига,1973-12-04,Amateur Open,113.85,,,,,,205,-212.5,212.5,,212.5,,,,,,212.5,3
125,B,Raw,Yes,M,Aleksey Dovbnya,Алексей Довбня,Профлига,1983-06-12,Amateur Open,117.15,,,,,,205,212.5,-217.5,,212.5,,,,,,212.5,4
125,B,Raw,Yes,M,Andrey Kislyak,Андрей Кисляк,,1977-03-19,Amateur Open,123.15,,,,,,195,202.5,-210,,202.5,,,,,,202.5,5
125,B,Raw,Yes,M,Roman Nikishin,Роман Никишин,Профлига,1982-01-19,Amateur Open,124.9,,,,,,185,-202.5,-202.5,,185,,,,,,185,6
125,B,Raw,Yes,M,Aleksandr Bakhman,Александр Бахман,Новоспорт,1989-07-29,Amateur Open,116.3,,,,,,165,175,-177.5,,175,,,,,,175,7
125,B,Raw,Yes,M,Kirill Kriskovich,Кирилл Крискович,Томская Сила,1988-04-10,Amateur Open,113.5,,,,,,157.5,165,-175,,165,,,,,,165,8
125,B,Raw,Yes,M,Sergey Grebenkin,Сергей Гребенкин,Профлига,1973-12-04,Amateur Masters 40-49,113.85,,,,,,205,-212.5,212.5,,212.5,,,,,,212.5,2
125,B,Raw,Yes,M,Sergey Gerber,Сергей Гербер,Новоспорт,1977-07-15,Amateur Masters 40-49,118.4,,,,,,200,205,-210,,205,,,,,,205,4
125,B,Raw,Yes,M,Andrey Kislyak,Андрей Кисляк,,1977-03-19,Amateur Masters 40-49,123.15,,,,,,195,202.5,-210,,202.5,,,,,,202.5,5
125,B,Raw,Yes,M,Andrey Mazepa,Андрей Мазепа,,1964-04-09,Amateur Masters 50-59,113.7,,,,,,125,130,135,,135,,,,,,135,1
140,B,Raw,Yes,M,Ilya Bekkerman,Илья Беккерман,,1974-08-16,Amateur Open,134.9,,,,,,-175,-175,-175,,,,,,,,,DQ
140,B,Raw,Yes,M,Ilya Bekkerman,Илья Беккерман,,1974-08-16,Amateur Masters 40-49,134.9,,,,,,-175,-175,-175,,,,,,,,,DQ
48,B,Raw,Yes,F,Anna Saveleva,Анна Савельева,Новоспорт,1991-10-29,Amateur Open,47.3,,,,,,37.5,42.5,45,,45,,,,,,45,1
52,B,Raw,Yes,F,Marina Volotsenko,Марина Волоценко,Стальной Медведь,1984-04-20,Amateur Open,52,,,,,,45,47.5,-50,,47.5,,,,,,47.5,1
56,B,Raw,Yes,F,Natalya Romanchuk,Наталья Романчук,ск атлет,1981-10-13,Amateur Open,54.65,,,,,,37.5,40,42.5,,42.5,,,,,,42.5,1
60,B,Raw,Yes,F,Anastasiya Sledenko,Анастасия Следенко,СС,1999-11-08,Amateur Teen 17-19,57.8,,,,,,60,65,-70,,65,,,,,,65,1
60,B,Raw,Yes,F,Guzaliya Andarzhonova,Гузалия Андаржонова,,1996-06-09,Amateur Juniors 20-23,59.2,,,,,,35,42.5,-45,,42.5,,,,,,42.5,1
60,B,Raw,Yes,F,Anzhelika Gorkh,Анжелика Горх,,1991-07-28,Amateur Open,57.1,,,,,,60,-65,65,,65,,,,,,65,2
60,B,Raw,Yes,F,Tatyana Klimchuk,Татьяна Климчук,Славяне,1983-04-14,Amateur Open,58.74,,,,,,55,-60,-60,,55,,,,,,55,3
60,B,Raw,Yes,F,Tatyana Selyunina,Татьяна Селюнина,Новоспорт,1985-05-03,Amateur Open,57.38,,,,,,37.5,42.5,45,,45,,,,,,45,5
67.5,B,Raw,Yes,F,Anastasiya Fradkina,Анастасия Фрадкина,Стальной Медведь,2003-10-07,Amateur Teen 14-16,67.4,,,,,,55,65,-72.5,,65,,,,,,65,1
67.5,B,Raw,Yes,F,Anna Lumpova,Анна Лумпова,Рельеф,1982-05-12,Amateur Open,67.15,,,,,,72.5,77.5,-80,,77.5,,,,,,77.5,1
67.5,B,Raw,Yes,F,Anastasiya Tsibulina,Анастасия Цибулина,Томская Сила,1986-09-15,Amateur Open,65.05,,,,,,57.5,-62.5,-65,,57.5,,,,,,57.5,2
82.5,B,Raw,Yes,F,Olga Marshalok,Ольга Маршалок,,1985-11-25,Amateur Open,76.2,,,,,,-77.5,-77.5,-80,,,,,,,,,DQ
82.5,B,Raw,Yes,F,Mariya Rusakova,Мария Русакова,ачинск,1995-01-30,Amateur Open,81.5,,,,,,-90,-95,-95,,,,,,,,,DQ
90+,B,Raw,Yes,F,Viktoriya Shemetova,Виктория Шеметова,ск атлет,1973-05-29,Amateur Open,102.5,,,,,,75,80,-85,,80,,,,,,80,1
90+,B,Raw,Yes,F,Viktoriya Shemetova,Виктория Шеметова,ск атлет,1973-05-29,Amateur Masters 45-49,102.5,,,,,,75,80,-85,,80,,,,,,80,1
60,B,Multi-ply,Yes,M,Aleksandr Ignatov,Александр Игнатов,СС,1996-06-14,Amateur Open,59.88,,,,,,-140,147.5,-167.5,,147.5,,,,,,147.5,1
67.5,B,Multi-ply,Yes,M,Evgeniy Odintsov,Евгений Одинцов,Новоспорт,1994-03-08,Amateur Open,66.4,,,,,,160,167.5,-170,,167.5,,,,,,167.5,2
67.5,B,Multi-ply,Yes,M,Nikolay Aleksandrov,Николай Александров,СС,1991-09-23,Amateur Open,66.45,,,,,,155,167.5,-172.5,,167.5,,,,,,167.5,3
67.5,B,Multi-ply,Yes,M,Evgeniy Kuklin,Евгений Куклин,Новоспорт,1981-12-16,Amateur Open,67.5,,,,,,145,-167.5,-167.5,,145,,,,,,145,4
67.5,B,Multi-ply,Yes,M,Maksim Konovalov,Максим Коновалов,СС,1984-05-25,Amateur Open,66.35,,,,,,-155,-155,-167.5,,,,,,,,,DQ
75,B,Multi-ply,Yes,M,Denis Kuklin,Денис Куклин,Новоспорт,1989-09-06,Amateur Open,72.95,,,,,,170,185,190,,190,,,,,,190,3
75,B,Multi-ply,Yes,M,Konstantin Protskiy,Константин Процкий,совкомбанк,1992-12-09,Amateur Open,74.05,,,,,,180,190,-200,,190,,,,,,190,4
75,B,Multi-ply,Yes,M,Evgeniy Aralov,Евгений Аралов,СС,1982-03-04,Amateur Open,73.9,,,,,,170,185,-202.5,,185,,,,,,185,5
75,B,Multi-ply,Yes,M,Vladimir Vesnin,Владимир Веснин,СС,1988-04-11,Amateur Open,73.6,,,,,,170,-185,-185,,170,,,,,,170,6
75,B,Multi-ply,Yes,M,Anton Maletin,Антон Малетин,СС,1991-12-14,Amateur Open,72.15,,,,,,130,140,150,,150,,,,,,150,7
75,B,Multi-ply,Yes,M,Vyacheslav Dementev,Вячеслав Дементьев,Стальной Медведь,1983-02-17,Amateur Open,74.85,,,,,,125,-140,-140,,125,,,,,,125,8
75,B,Multi-ply,Yes,M,Pavel Shashkin,Павел Шашкин,Новоспорт,1985-06-06,Amateur Open,73.45,,,,,,120,-140,-140,,120,,,,,,120,9
75,B,Multi-ply,Yes,M,Aleksandr Baev,Александр Баев,Новоспорт,1980-09-04,Amateur Open,73.4,,,,,,-120,-130,-140,,,,,,,,,DQ
82.5,B,Multi-ply,Yes,M,Robert Vays,Роберт Вайс,Новоспорт,1997-01-28,Amateur Juniors 20-23,82.15,,,,,,-152.5,-152.5,-175,,,,,,,,,DQ
82.5,B,Multi-ply,Yes,M,Artyom Dyakov,Артём Дъяков,Новоспорт,1992-04-04,Amateur Open,78.9,,,,,,220,230,237.5,,237.5,,,,,,237.5,2
82.5,B,Multi-ply,Yes,M,Pavel Kostyurin,Павел Костюрин,,1989-12-29,Amateur Open,81.45,,,,,,210,-230,-230,,210,,,,,,210,6
82.5,B,Multi-ply,Yes,M,Dmitriy Butyrskikh,Дмитрий Бутырских,СС,1996-04-16,Amateur Open,81.6,,,,,,160,175,-185,,175,,,,,,175,8
82.5,B,Multi-ply,Yes,M,Vasily Schastlivyy,Василй Счастливый,Рельеф,1989-04-20,Amateur Open,82.5,,,,,,-220,-237.5,-237.5,,,,,,,,,DQ
90,B,Multi-ply,Yes,M,Yuriy Balaban,Юрий Балабан,Кварц,2003-02-15,Amateur Teen 14-16,88.75,,,,,,95,105,-115,,105,,,,,,105,1
90,B,Multi-ply,Yes,M,Vladimir Doroshev,Владимир Дорошев,Рубцовск,1980-10-05,Amateur Open,88.4,,,,,,-260,260,-282.5,,260,,,,,,260,3
90,B,Multi-ply,Yes,M,Yuriy Mikhaylov,Юрий Михайлов,СС,1987-07-22,Amateur Open,86.65,,,,,,220,-235,-235,,220,,,,,,220,5
90,B,Multi-ply,Yes,M,Pavel Aliferov,Павел Алиферов,Клуб сафари,1988-04-20,Amateur Open,89,,,,,,-220,-220,220,,220,,,,,,220,6
90,B,Multi-ply,Yes,M,Denis Plugatyr,Денис Плугатырь,СС,1978-05-26,Amateur Masters 40-49,89.4,,,,,,190,200,-210,,200,,,,,,200,1
90,B,Multi-ply,Yes,M,Sergey Boldin,Сергей Болдин,Барабинск,1971-05-31,Amateur Masters 40-49,89.9,,,,,,180,-192.5,-202.5,,180,,,,,,180,2
90,B,Multi-ply,Yes,M,Anatoliy Pavlenko,Анатолий Павленко,,1951-05-26,Amateur Masters 60-69,89.35,,,,,,-140,145,152.5,,152.5,,,,,,152.5,2
100,B,Multi-ply,Yes,M,Nikita Zhirov,Никита Жиров,,1997-07-01,Amateur Juniors 20-23,98.85,,,,,,-245,-260,-260,,,,,,,,,DQ
100,B,Multi-ply,Yes,M,Leonid Glinin,Леонид Глинин,Алтайский край,1988-01-29,Amateur Open,96.85,,,,,,-280,280,290,,290,,,,,,290,1
100,B,Multi-ply,Yes,M,Roman Muravev,Роман Муравьев,,1978-08-20,Amateur Open,98.9,,,,,,245,255,262.5,,262.5,,,,,,262.5,2
100,B,Multi-ply,Yes,M,Roman Muravev,Роман Муравьев,,1978-08-20,Amateur Masters 40-49,98.9,,,,,,245,255,262.5,,262.5,,,,,,262.5,1
100,B,Multi-ply,Yes,M,Aleksandr Vorobev,Александр Воробьев,СС,1972-03-28,Amateur Masters 40-49,98.1,,,,,,195,205,220,,220,,,,,,220,2
100,B,Multi-ply,Yes,M,Aleksandr Votchal,Александр Вотчал,,1976-05-14,Amateur Masters 40-49,99.85,,,,,,180,190,202.5,,202.5,,,,,,202.5,3
110,B,Multi-ply,Yes,M,Andrey Sotnikov,Андрей Сотников,Новоспорт,1989-12-04,Amateur Open,107.9,,,,,,215,230,-240,,230,,,,,,230,2
110,B,Multi-ply,Yes,M,Andrey Bocharnikov,Андрей Бочарников,Гоухард тим,1984-01-04,Amateur Open,106.4,,,,,,165,177.5,-187.5,,177.5,,,,,,177.5,3
110,B,Multi-ply,Yes,M,Mikhail Ishchechkin,Михаил Ищечкин,Силуэт,1962-01-22,Amateur Masters 50-59,107.35,,,,,,200,210,212.5,,212.5,,,,,,212.5,1
110,B,Multi-ply,Yes,M,Igor Karapuzov,Игорь Карапузов,Кварц,1962-07-29,Amateur Masters 50-59,102.4,,,,,,190,200,210,,210,,,,,,210,2
125,B,Multi-ply,Yes,M,Andrey Kislyak,Андрей Кисляк,,1977-03-19,Amateur Open,123.15,,,,,,265,280,290,,290,,,,,,290,3
125,B,Multi-ply,Yes,M,Andrey Kislyak,Андрей Кисляк,,1977-03-19,Amateur Masters 40-49,123.15,,,,,,265,280,290,,290,,,,,,290,1
52,B,Multi-ply,Yes,F,Varvara Lychko,Варвара Лычко,Новоспорт,2000-11-03,Amateur Open,50.65,,,,,,80,85,90,,90,,,,,,90,2
56,B,Multi-ply,Yes,F,Alesya Golubeva,Алеся Голубева,Рельеф,1990-11-06,Amateur Open,54.15,,,,,,77.5,-85,-85,,77.5,,,,,,77.5,1
60,B,Multi-ply,Yes,F,Aleksandra Tarkova,Александра Таркова,СС,1989-08-11,Amateur Open,59.05,,,,,,95,102.5,107.5,,107.5,,,,,,107.5,1
60,B,Multi-ply,Yes,F,Margarita Koroleva,Маргарита Королева,СС,1994-01-28,Amateur Open,59.7,,,,,,80,-85,-85,,80,,,,,,80,2
67.5,B,Multi-ply,Yes,F,Irina Kochina,Ирина Кочина,СС,1999-05-12,Amateur Teen 17-19,65.15,,,,,,90,-100,-100,,90,,,,,,90,1
67.5,B,Multi-ply,Yes,F,Irina Shamina,Ирина Шамина,СС,1987-04-17,Amateur Open,66.75,,,,,,70,75,-80,,75,,,,,,75,1
67.5,B,Multi-ply,Yes,F,Anna Alyunova,Анна Алюнова,Новоспорт,1992-05-26,Amateur Open,61.05,,,,,,-70,-70,-75,,,,,,,,,DQ
82.5,B,Multi-ply,Yes,F,Valentina Polynskaya,Валентина Полынская,СС,1983-03-29,Amateur Open,81.9,,,,,,-120,-125,125,,125,,,,,,125,1
82.5,B,Multi-ply,Yes,F,Natalya Krasotka,Наталья Красотка,Новоспорт,1978-09-27,Amateur Masters 40-49,75.85,,,,,,115,-122.5,-125,-127.5,115,,,,,,115,1
60,B,Raw,Yes,M,Kirill Larionov,Кирилл Ларионов,Здоровье,2000-08-07,Amateur Teen 17-19,59.35,,,,,,102.5,107.5,110,,110,,,,,,110,1
67.5,B,Raw,Yes,M,Konstantin Karpov,Константин Карпов,Обь,1988-04-26,Amateur Open,64.25,,,,,,50,-55,57.5,,57.5,,,,,,57.5,3
67.5,B,Raw,Yes,M,Rustam Baytulov,Рустам Байтулов,Обь,1983-08-20,Amateur Open,63.85,,,,,,-90,,,,,,,,,,,DQ
82.5,B,Raw,Yes,M,Nikolay Vishnyakov,Николай Вишняков,фоц кольцово,1988-04-24,Amateur Open,82.1,,,,,,155,162.5,-170,,162.5,,,,,,162.5,2
82.5,B,Raw,Yes,M,Andrey Tolkachev,Андрей Толкачев,,1993-08-05,Amateur Open,80.6,,,,,,,,,,,,,,,,,DQ
100,B,Raw,Yes,M,Dmitriy Golyshev,Дмитрий Голышев,Атлант,1979-04-13,Amateur Open,91.2,,,,,,100,105,-107.5,,105,,,,,,105,13
125,B,Raw,Yes,M,Denis Gayduchenya,Денис Гайдученя,СС,1980-01-19,Amateur Open,121,,,,,,140,-150,-150,,140,,,,,,140,10
60,B,Raw,Yes,F,Anzhelika Sviridova,Анжелика Свиридова,СС,1968-12-09,Amateur Open,60,,,,,,50,52.5,-55,,52.5,,,,,,52.5,4
67.5,B,Multi-ply,No,M,Evgeniy Sinko,Евгений Синько,фит,1981-10-07,Pro Open,66.25,,,,,,180,200,-212.5,215,200,,,,,,200,1
75,B,Multi-ply,No,M,Denis Lubyagin,Денис Лубягин,Рельеф,1994-03-29,Pro Open,75,,,,,,-260,260,272.5,,272.5,,,,,,272.5,1
75,B,Multi-ply,No,M,Mekhrodzh Madolimov,Мехродж Мадолимов,Рельеф,1991-09-04,Pro Open,74.95,,,,,,-260,260,270,-282.5,270,,,,,,270,2
82.5,B,Multi-ply,No,M,Daniil Lamanov,Даниил Ламанов,Новоспорт,1987-08-17,Pro Open,79.45,,,,,,-300,315,-330,,315,,,,,,315,1
82.5,B,Multi-ply,No,M,Andrey Berkovich,Андрей Беркович,СС,1972-10-07,Pro Open,80.85,,,,,,225,237.5,-250,,237.5,,,,,,237.5,3
82.5,B,Multi-ply,No,M,Dmitriy Savchenko,Дмитрий Савченко,Стальной Медведь,1981-08-03,Pro Open,81,,,,,,190,210,217.5,,217.5,,,,,,217.5,4
82.5,B,Multi-ply,No,M,Sergey Fedoseev,Сергей Федосеев,Стальной Медведь,1982-01-18,Pro Open,81.7,,,,,,190,210,215,,215,,,,,,215,5
82.5,B,Multi-ply,No,M,Gleb Baranskiy,Глеб Баранский,,1984-09-06,Pro Open,78.85,,,,,,-190,-190,190,,190,,,,,,190,7
82.5,B,Multi-ply,No,M,Aleksandr Betin,Александр Бетин,Олимпия,1986-09-13,Pro Open,80.1,,,,,,160,170,-180,,170,,,,,,170,9
82.5,B,Multi-ply,No,M,Andrey Berkovich,Андрей Беркович,СС,1972-10-07,Pro Masters 40-49,80.85,,,,,,225,237.5,-250,,237.5,,,,,,237.5,1
82.5,B,Multi-ply,No,M,Aleksey Usmanov,Алексей Усманов,СС,1973-02-27,Pro Masters 40-49,81.6,,,,,,180,-200,200,,200,,,,,,200,2
90,B,Multi-ply,No,M,Artem Bykhovets,Артем Быховец,Стальной Медведь,1983-07-19,Pro Open,89.7,,,,,,302.5,-322.5,322.5,-333.5,322.5,,,,,,322.5,1
90,B,Multi-ply,No,M,Dmitriy Khovanskiy,Дмитрий Хованский,Стальной Медведь,1986-05-26,Pro Open,84.75,,,,,,-300,300,-317.5,,300,,,,,,300,2
90,B,Multi-ply,No,M,Aleksandr Yakovlev,Александр Яковлев,Олимпия,1983-06-21,Pro Open,89.5,,,,,,240,250,257.5,,257.5,,,,,,257.5,4
90,B,Multi-ply,No,M,Aleksandr Belov,Александр Белов,Новоспорт,1992-09-20,Pro Open,89.2,,,,,,205,-220,-220,,205,,,,,,205,7
90,B,Multi-ply,No,M,Sergey Kashtanov,Сергей Каштанов,Силуэт,1958-06-27,Pro Masters 60-69,85.05,,,,,,180,200,-205,,200,,,,,,200,1
100,B,Multi-ply,No,M,Anton Masharin,Антон Машарин,Рубцовск,1986-09-24,Pro Open,99.5,,,,,,-240,-252.5,252.5,,252.5,,,,,,252.5,3
110,B,Multi-ply,No,M,Vladimir Samoylov,Владимир Самойлов,Стил Хертс,1991-05-09,Pro Open,108.8,,,,,,330,-367.5,-367.5,,330,,,,,,330,1
110,B,Multi-ply,No,M,Viktor Shterger,Виктор Штергер,СС,1981-02-16,Pro Open,103.5,,,,,,-200,-200,,,,,,,,,,DQ
110,B,Multi-ply,No,M,Sergey Kachusov,Сергей Качусов,СС,1978-12-15,Pro Open,101.5,,,,,,190,200,210,,210,,,,,,210,1
110,B,Multi-ply,No,M,Sergey Fefler,Сергей Фефлер,СС,1977-09-12,Pro Masters 40-49,109.4,,,,,,-200,-200,-200,,,,,,,,,DQ
125,B,Multi-ply,No,M,Egor Shilov,Егор Шилов,СС,1996-12-23,Pro Juniors 20-23,116.2,,,,,,200,-215,-220,,200,,,,,,200,1
125,B,Multi-ply,No,M,Maksim Medvedev,Максим Медведев,Алтайский край,1981-05-16,Pro Open,116.15,,,,,,380,-390,390,,390,,,,,,390,1
125,B,Multi-ply,No,M,Konstantin Elshin,Константин Ельшин,Олимпия,1986-07-19,Pro Open,120.05,,,,,,-385,390,-400,,390,,,,,,390,2
125,B,Multi-ply,No,M,Sergey Pismennyy,Сергей Письменный,,1976-10-05,Pro Masters 40-49,115.8,,,,,,270,280,-300,,280,,,,,,280,2
125,B,Multi-ply,No,M,Andrey Terekhin,Андрей Терехин,,1973-10-22,Pro Masters 40-49,117.9,,,,,,225,-245,245,,245,,,,,,245,3
140,B,Multi-ply,No,M,Aleksandr Skudarnov,Александр Скударнов,,1986-05-05,Pro Open,138.75,,,,,,342.5,-355,-355,,342.5,,,,,,342.5,1
52,B,Multi-ply,No,F,Mariya Kazhushka,Мария Кажушка,,1985-03-30,Pro Open,51.25,,,,,,85,95,-100,,95,,,,,,95,1
67.5,B,Multi-ply,No,F,Marianna Efremova-Otchenash,Марианна Ефремова-Отченаш,СС,1977-04-09,Pro Masters 40-49,67.5,,,,,,-90,90,-105,,90,,,,,,90,1
82.5,SBD,Multi-ply,No,M,Anton Abidarov,Антон Абидаров,СС,1993-04-12,Pro Open,82.15,130,140,-150,,140,100,110,117.5,,117.5,170,180,190,,190,447.5,2
90,SBD,Multi-ply,No,M,Dmitriy Ekimov,Дмитрий Екимов,СС,1969-12-30,Pro Masters 40-49,88.2,190,-197.5,197.5,,197.5,-185,185,-192.5,,185,-170,170,180,,180,562.5,1
100,SBD,Multi-ply,No,M,Aleksandr Taynikov,Александр Тайников,СС,1979-04-10,Pro Open,97.5,220,-235,-235,,220,240,255,265,,265,240,250,260,,260,745,1
100,SBD,Multi-ply,No,M,Aleksandr Makarov,Александр Макаров,,1979-08-25,Pro Open,99.4,240,-255,255,,255,210,-220,220,,220,240,250,260,,260,735,2
100,SBD,Multi-ply,No,M,Dmitriy Podchasov,Дмитрий Подчасов,СС,1994-03-03,Pro Open,99,210,225,-240,,225,160,170,180,,180,215,227.5,237.5,,237.5,642.5,3
110,SBD,Multi-ply,No,M,Sergey Fefler,Сергей Фефлер,СС,1977-09-12,Pro Masters 40-49,109.7,170,185,200,,200,180,195,-210,,195,190,205,-242.5,,205,600,1
48,B,Raw,No,M,Aleksey Dobrynin,Алексей Добрынин,Новоспорт,2005-02-03,Pro Teen 13,45.96,,,,,,25,30,35,,35,,,,,,35,1
67.5,B,Raw,No,M,Danila Timofeev,Данила Тимофеев,Новоспорт,2004-02-10,Pro Teen 14-16,64.45,,,,,,40,45,50,,50,,,,,,50,4
75,B,Raw,No,M,Evgeniy Verkhotin,Евгений Верхотин,,1995-06-25,Pro Open,74.8,,,,,,-165,165,170,,170,,,,,,170,1
75,B,Raw,No,M,Dmitriy Redykin,Дмитрий Редыкин,Новоспорт,1975-12-08,Pro Masters 40-49,73.75,,,,,,115,-125,125,,125,,,,,,125,2
82.5,B,Raw,No,M,Stanislav Matytsin,Станислав Матыцин,Новоспорт,2003-12-10,Pro Teen 14-16,82.5,,,,,,45,55,60,,60,,,,,,60,3
82.5,B,Raw,No,M,Anatoliy Nuraev,Анатолий Нураев,,1994-06-22,Pro Open,80.6,,,,,,-130,130,137.5,,137.5,,,,,,137.5,9
82.5,B,Raw,No,M,Denis Kochmarev,Денис Кочмарев,,1981-08-27,Pro Open,82.35,,,,,,-130,130,-137.5,,130,,,,,,130,12
82.5,B,Raw,No,M,Dmitriy Gilev,Дмитрий Гилев,Новоспорт,1976-08-29,Pro Masters 40-49,82.1,,,,,,-142.5,142.5,-150,,142.5,,,,,,142.5,2
90,B,Raw,No,M,Aleksandr Ivanov,Александр Иванов,Новоспорт,1987-01-18,Pro Open,87.3,,,,,,150,-165,175,,175,,,,,,175,1
90,B,Raw,No,M,Aleksey Zavorin,Алексей Заворин,Новоспорт,1975-04-30,Pro Open,88.35,,,,,,160,170,175,,175,,,,,,175,2
90,B,Raw,No,M,Artyom Tarasov,Артём Тарасов,,1994-06-01,Pro Open,89.55,,,,,,-170,-170,170,,170,,,,,,170,4
90,B,Raw,No,M,Aleksandr Grushkovskiy,Александр Грушковский,Новоспорт,1987-10-20,Pro Open,88.3,,,,,,135,145,150,,150,,,,,,150,8
90,B,Raw,No,M,Aleksey Zavorin,Алексей Заворин,Новоспорт,1975-04-30,Pro Masters 40-49,88.35,,,,,,160,170,175,,175,,,,,,175,1
100,B,Raw,No,M,Ivan Titovets,Иван Титовец,,1991-12-11,Pro Open,96.5,,,,,,-192.5,-192.5,-192.5,,,,,,,,,DQ
100,B,Raw,No,M,Mikhail Gerasimovich,Михаил Герасимович,Новоспорт,1960-01-01,Pro Masters 50-59,98.9,,,,,,140,152.5,162.5,,162.5,,,,,,162.5,2
110,B,Raw,No,M,Vladimir Samoylov,Владимир Самойлов,Стил Хертс,1991-05-09,Pro Open,108.8,,,,,,190,197.5,202.5,,202.5,,,,,,202.5,1
110,B,Raw,No,M,Roman Kuryanov,Роман Курьянов,,1993-07-20,Pro Open,108.75,,,,,,175,185,195,,195,,,,,,195,2
110,B,Raw,No,M,Anton Katsyuk,Антон Кацюк,Новоспорт,1989-04-20,Pro Open,104.55,,,,,,155,165,170,,170,,,,,,170,6
110,B,Raw,No,M,Sergey Kachusov,Сергей Качусов,СС,1978-12-15,Pro Open,101.5,,,,,,150,160,167.5,,167.5,,,,,,167.5,7
110,B,Raw,No,M,Sergey Kachusov,Сергей Качусов,СС,1978-12-15,Pro Open,101.5,,,,,,150,160,167.5,,167.5,,,,,,167.5,2
125,B,Raw,No,M,Grigoriy Kobrin,Григорий Кобрин,СС,1969-10-19,Pro Open,112.4,,,,,,-225,225,235,,235,,,,,,235,1
125,B,Raw,No,M,Maksim Medvedev,Максим Медведев,Алтайский край,1981-05-16,Pro Open,116.15,,,,,,225,235,-240,,235,,,,,,235,2
125,B,Raw,No,M,Oleg Klimenok,Олег Клименок,Олимп,1987-09-25,Pro Open,118.1,,,,,,140,147.5,155,,155,,,,,,155,9
125,B,Raw,No,M,Grigoriy Kobrin,Григорий Кобрин,СС,1969-10-19,Pro Masters 40-49,112.4,,,,,,-225,225,235,,235,,,,,,235,1
125,B,Raw,No,M,Sergey Pismennyy,Сергей Письменный,,1976-10-05,Pro Masters 40-49,115.8,,,,,,190,205,210,,210,,,,,,210,3
140,B,Raw,No,M,Aleksandr Skudarnov,Александр Скударнов,,1986-05-05,Pro Open,138.75,,,,,,190,200,207.5,,207.5,,,,,,207.5,1
60,B,Raw,No,F,Anna Shlemanova,Анна Шлеманова,,1984-08-13,Pro Open,58.36,,,,,,82.5,85,-87.5,,85,,,,,,85,1
52,SBD,Wraps,No,F,Kseniya Titova,Ксения Титова,СС,1991-01-22,Pro Open,50.28,60,-67.5,67.5,,67.5,-37.5,37.5,40,,40,75,80,85,,85,192.5,2
56,SBD,Wraps,No,F,Natalya Chibukova,Наталья Чибукова,СС,1981-06-18,Pro Open,54.9,67.5,70,75,,75,35,37.5,40,,40,80,90,92.5,,92.5,207.5,4
56,SBD,Wraps,No,F,Natalya Boldorovich,Наталья Болдорович,СС,1993-04-01,Pro Open,55.05,-60,60,-65,,60,27.5,-30,-30,,27.5,80,90,-97.5,,90,177.5,5
60,SBD,Wraps,No,F,Vera Volobueva,Вера Волобуева,Рельеф,1957-03-23,Pro Masters 60-69,59.5,100,-105,-105,,100,60,65,67.5,,67.5,120,130,135,,135,302.5,1
67.5,SBD,Wraps,No,F,Anastasiya Dorokhova,Анастасия Дорохова,Колыванец,2002-02-18,Pro Open,66.8,-160,-160,160,,160,100,-105,-105,,100,185,-195,-195,,185,445,1
67.5,SBD,Wraps,No,F,Yuliya Korovina,Юлия Коровина,Рельеф,1976-07-12,Pro Masters 40-49,67.45,-90,90,100,,100,60,-65,-65,,60,140,150,-160,,150,310,1
75,SBD,Wraps,No,F,Irina Zotova,Ирина Зотова,Рельеф,1973-11-29,Pro Masters 40-49,74.6,-130,130,135,,135,77.5,80,82.5,,82.5,130,142.5,150,,150,367.5,1
90,SBD,Wraps,No,F,Anna Chubarova,Анна Чубарова,Рельеф,1988-02-03,Pro Open,86.6,170,180,-190,,180,100,105,107.5,,107.5,180,190,195,,195,482.5,1
60,SBD,Wraps,No,M,Semyon Bodyukov,Семён Бодюков,Рельеф,2002-12-25,Pro Teen 14-16,59.74,120,125,130,,130,72.5,75,77.5,,77.5,115,122.5,127.5,,127.5,335,1
67.5,SBD,Wraps,No,M,Timofey Sukhov,Тимофей Сухов,СС,2004-08-19,Pro Teen 14-16,62.2,110,115,120,,120,65,-67.5,-67.5,,65,120,125,130,,130,315,5
75,SBD,Wraps,No,M,Aleksandr Tanzinchan,Александр Танзинчан,Новоспорт,1987-03-17,Pro Open,74.7,210,230,-250,,230,140,150,160,,160,245,265,-285,,265,655,1
75,D,Raw,No,M,Evgeniy Gansh,Евгений Ганш,Рельеф,1992-04-10,Pro Open,74.65,,,,,,,,,,,240,252.5,-262.5,,252.5,252.5,1
82.5,SBD,Wraps,No,M,Vladislav Burtik,Владислав Буртик,СГУПС,1995-06-18,Pro Juniors 20-23,82,-190,195,205,,205,145,-152.5,-152.5,,145,235,250,260,,260,610,1
82.5,SBD,Wraps,No,M,Roman Ponomorev,Роман Пономорев,Рельеф,1997-12-10,Pro Juniors 20-23,81.75,180,195,205,,205,150,-160,162.5,,162.5,220,240,-267.5,,240,607.5,2
82.5,SBD,Wraps,No,M,Vladislav Dolgopolov,Владислав Долгополов,Новоспорт,1995-07-04,Pro Juniors 20-23,81.65,190,200,-202.5,,200,145,155,-160,,155,-230,230,-240,,230,585,3
90,SBD,Wraps,No,M,Denis Osintsev,Денис Осинцев,Рельеф,1996-09-11,Pro Open,89.3,275,-290,-290,,275,180,190,195,,195,310,330,-340,,330,800,1
90,SBD,Wraps,No,M,Aleksey Kolesnikov,Алексей Колесников,,1986-08-29,Pro Open,83.6,180,200,-215,,200,140,150,-160,,150,235,245,255,,255,605,3
90,SBD,Wraps,No,M,Aleksey Kolesnikov,Алексей Колесников,,1986-08-29,Pro Open,83.35,-190,,,,,-140,,,,,-320,,,,,,DQ
90,D,Raw,No,M,Oleg Lagunov,Олег Лагунов,,1967-03-05,Pro Open,89.6,,,,,,,,,,,-260,260,280,,280,280,1
90,D,Raw,No,M,Vitaliy Shkodin,Виталий Шкодин,,1993-04-14,Pro Open,90,,,,,,,,,,,240,250,262.5,,262.5,262.5,3
90,SBD,Wraps,No,M,Oleg Lagunov,Олег Лагунов,,1967-03-05,Pro Masters 50-59,89.6,-200,-200,200,,200,-120,120,,,120,-260,260,280,,280,600,1
100,SBD,Wraps,No,M,Arseniy Aliev,Арсений Алиев,Колыванец,1993-06-05,Pro Open,99.5,240,250,-255,,250,165,170,-172.5,,170,255,265,270,,270,690,1
100,SBD,Wraps,No,M,Mikhail Pisarev,Михаил Писарев,СС,1990-10-14,Pro Open,99,240,-250,-250,,240,170,175,177.5,,177.5,260,267.5,-272.5,,267.5,685,2
100,SBD,Wraps,No,M,Evgeniy Shcherbik,Евгений Щербик,,1988-05-07,Pro Open,99.3,230,240,245,,245,160,170,175,,175,250,265,-277.5,,265,685,3
100,SBD,Wraps,No,M,Dmitriy Khnykin,Дмитрий Хныкин,,1979-09-14,Pro Open,97.65,-190,-190,190,,190,152.5,162.5,-167.5,,162.5,195,-200,,,195,547.5,5
100,SBD,Wraps,No,M,Kirill Kovalenko,Кирилл Коваленко,Новоспорт,1990-05-03,Pro Open,97.3,185,195,-205,,195,115,125,130,,130,185,200,220,,220,545,6
100,SBD,Wraps,No,M,Vitaliy Efremenko,Виталий Ефременко,,1985-02-12,Pro Open,98.4,-270,-270,-270,,,,,,,,250,270,290,,290,,DQ
100,D,Raw,No,M,Vitaliy Efremenko,Виталий Ефременко,,1985-02-12,Pro Open,98.4,,,,,,,,,,,250,270,290,,290,290,1
100,SBD,Wraps,No,M,Igor Krugov,Игорь Кругов,Рельеф,1971-02-15,Pro Masters 40-49,98.85,190,-200,205,,205,152.5,162.5,170,,170,220,235,250,,250,625,1
100,SBD,Wraps,No,M,Oleg Bidnyuk,Олег Биднюк,Томская Сила,1970-04-27,Pro Masters 40-49,99.55,,,,,,,,,,,,,,,,,DQ
110,SBD,Wraps,No,M,Dmitriy Lavrentev,Дмитрий Лаврентьев,СС,2001-04-07,Pro Teen 17-19,106.8,180,195,-202.5,,195,105,112.5,117.5,,117.5,-210,210,225,,225,537.5,1
110,SBD,Wraps,No,M,Vitaliy Shilin,Виталий Шилин,Гоухард тим,1993-02-11,Pro Open,107.35,260,275,280,,280,170,182.5,192.5,,192.5,280,300,-310,,300,772.5,1
110,SBD,Wraps,No,M,Anton Epikhin,Антон Епихин,Томская Сила,1988-10-11,Pro Open,106.2,200,210,-217.5,,210,192.5,-202.5,-202.5,,192.5,255,272.5,-280,,272.5,675,2
110,SBD,Wraps,No,M,Sergey Yurkin,Сергей Юркин,Рельеф,1969-02-03,Pro Masters 40-49,106.65,175,-190,-195,,175,132.5,140,142.5,,142.5,200,220,-227.5,,220,537.5,1
110,SBD,Wraps,No,M,Nikolay Ivanov,Николай Иванов,Новоспорт,1959-08-05,Pro Masters 50-59,107.9,180,190,-205,,190,107.5,117.5,127.5,,127.5,210,230,250,,250,567.5,1
125,SBD,Wraps,No,M,Yuriy Komarov,Юрий Комаров,Новоспорт,2002-06-11,Pro Teen 14-16,119.25,-120,120,135,,135,75,85,92.5,,92.5,120,135,150,,150,377.5,1
125,D,Raw,No,M,Nikita Zelenin,Никита Зеленин,Профлига,1996-06-26,Pro Juniors 20-23,123.45,,,,,,,,,,,310,330,-350,,330,330,1
125,SBD,Wraps,No,M,Ivan Pichkulyan,Иван Пичкулян,,1988-09-12,Pro Open,121.5,270,290,305,,305,165,175,-185,,175,265,275,285,,285,765,1
125,SBD,Wraps,No,M,Pavel Pakhomov,Павел Пахомов,Рельеф,1986-04-02,Pro Open,117.15,210,215,225,,225,150,-157.5,-157.5,,150,240,255,260,,260,635,2
125,SBD,Wraps,No,M,Pavel Pakhtanov,Павел Пахтанов,Колыванец,1993-07-25,Pro Open,113.1,190,197.5,-202.5,,197.5,165,-172.5,-172.5,,165,210,220,-230,,220,582.5,3
125,D,Raw,No,M,Nikita Zelenin,Никита Зеленин,Профлига,1996-06-26,Pro Open,123.45,,,,,,,,,,,310,330,-350,,330,330,1
75,D,Raw,No,M,Evgeniy Gansh,Евгений Ганш,Рельеф,1992-04-10,Pro Open,74.65,,,,,,,,,,,240,252.5,-262.5,,252.5,252.5,2
90,D,Raw,No,M,Oleg Lagunov,Олег Лагунов,,1967-03-05,Pro Open,89.6,,,,,,,,,,,-260,260,280,,280,280,2
90,D,Raw,No,M,Vitaliy Shkodin,Виталий Шкодин,,1993-04-14,Pro Open,90,,,,,,,,,,,240,250,262.5,,262.5,262.5,4
90,D,Raw,No,M,Oleg Lagunov,Олег Лагунов,,1967-03-05,Pro Masters 50-59,89.6,,,,,,,,,,,-260,260,280,,280,280,1
100,D,Raw,No,M,Vitaliy Efremenko,Виталий Ефременко,,1985-02-12,Pro Open,98.4,,,,,,,,,,,250,270,290,,290,290,2
100,D,Raw,No,M,Oleg Bidnyuk,Олег Биднюк,Томская Сила,1970-04-27,Pro Masters 40-49,99.55,,,,,,,,,,,100,,,,100,100,1
125,D,Raw,No,M,Nikita Zelenin,Никита Зеленин,Профлига,1996-06-26,Pro Juniors 20-23,123.45,,,,,,,,,,,310,330,-350,,330,330,2
125,D,Raw,No,M,Nikita Zelenin,Никита Зеленин,Профлига,1996-06-26,Pro Open,123.45,,,,,,,,,,,310,330,-350,,330,330,2
