Place,Sex,Name,CyrillicName,BodyweightKg,Squat1Kg,Squat2Kg,Squat3Kg,Best3SquatKg,Squat4Kg,Bench1Kg,Bench2Kg,Bench3Kg,Best3BenchKg,Bench4Kg,Deadlift1Kg,Deadlift2Kg,Deadlift3Kg,Best3DeadliftKg,Deadlift4Kg,TotalKg,WeightClassKg,Event,Equipment,Tested,Division,Age,BirthDate
1,F,Olesya Mashchenko,Олеся Мащенко,50.8,70,72.5,75,75,,-45,-45,45,45,,95,102.5,-110,102.5,,222.5,52,SBD,Wraps,Yes,Amateur Open,28,1990-06-03
1,F,Alisa Fryantseva,Алиса Фрянцева,54.2,75,82.5,90,90,,40,-45,-45,40,,85,90,-95,90,,220,56,SBD,Wraps,Yes,Amateur Open,24,1993-12-19
1,F,Yuliya Pashkova,Юлия Пашкова,55.3,-60,60,-67.5,60,,35,40,-42.5,40,,80,85,90,90,,190,56,SBD,Wraps,Yes,Amateur Masters 50-59,52,1966-09-09
1,F,Aleksandra Guseva,Александра Гусева,59.2,72.5,77.5,80,80,,50,55,-57.5,55,,90,95,100,100,,235,60,SBD,Wraps,Yes,Amateur Open,26,1992-04-21
1,F,Marina Kutepova,Марина Кутепова,65.9,85,-92.5,-95,85,,60,-62.5,-62.5,60,,110,120,-130,120,,265,67.5,SBD,Wraps,Yes,Amateur Open,39,1979-01-12
2,F,Elena Rezvanova,Елена Резванова,66.1,-75,75,77.5,77.5,,60,62.5,-65,62.5,,75,80,-90,80,,220,67.5,SBD,Wraps,Yes,Amateur Open,36,1982-01-26
1,F,Tatyana Kolesnikova,Татьяна Колесникова,65.1,70,77.5,-80,77.5,,40,45,47.5,47.5,,90,95,100,100,,225,67.5,SBD,Wraps,Yes,Amateur Masters 40-49,40,1978-03-17
DQ,F,Irina Kutishcheva,Ирина Кутищева,66.1,-72.5,-75,-75,,,,,,,,,,,,,,67.5,SBD,Wraps,Yes,Amateur Masters 40-49,46,1972-04-17
1,F,Alina Kuzminova,Алина Кузьминова,85.9,120,-130,142.5,142.5,,70,77.5,82.5,82.5,,135,150,155,155,,380,90,SBD,Wraps,Yes,Amateur Open,27,1991-10-15
1,M,Artem Pavlovskiy,Артем Павловский,66.5,-170,180,-190,180,,120,125,-130,125,,190,200,210,210,,515,67.5,SBD,Wraps,Yes,Amateur Open,27,1991-12-03
1,M,Igor Pashkov,Игорь Пашков,79.8,185,190,,190,,140,-145,-145,140,,230,240,250,250,,580,82.5,SBD,Wraps,Yes,Amateur Open,32,1986-06-10
1,M,Pavel Bondarev,Павел Бондарев,88.9,230,-240,-240,230,,-165,165,-175,165,,255,262.5,-270,262.5,,657.5,90,SBD,Wraps,Yes,Amateur Open,30,1988-06-10
2,M,Mikhail Kupriyanov,Михаил Куприянов,88.6,185,195,202.5,202.5,,130,-140,-140,130,,205,215,-225,215,,547.5,90,SBD,Wraps,Yes,Amateur Open,33,1985-11-20
1,M,Kirill Nikitin,Кирилл Никитин,100.4,150,160,165,165,,115,120,122.5,122.5,,200,210,-212.5,210,,497.5,110,SBD,Wraps,Yes,Amateur Open,26,1992-05-30
1,F,Yuliya Shutova,Юлия Шутова,69.1,140,150,-160,150,,70,75,-80,75,,140,155,-170,155,,380,75,SBD,Wraps,No,Pro Open,32,1986-10-13
1,M,Evgeniy Aksenov,Евгений Аксенов,88.8,190,200,210,210,,127.5,132.5,-137.5,132.5,,195,210,-220,210,,552.5,90,SBD,Wraps,No,Pro Juniors 20-23,21,1997-04-24
1,M,Sergey Surkov,Сергей Сурков,89.7,230,240,-245,240,,185,195,202.5,202.5,,275,285,-290,285,,727.5,90,SBD,Wraps,No,Pro Open,33,1985-10-14
2,M,Sergey Izyumskiy,Сергей Изюмский,89.2,210,-220,-225,210,,170,180,,180,,-230,230,-257.5,230,,620,90,SBD,Wraps,No,Pro Open,45,1973-03-27
3,M,Maksim Dudorov,Максим Дудоров,88.7,190,205,215,215,,120,130,135,135,,205,215,232.5,232.5,,582.5,90,SBD,Wraps,No,Pro Open,24,1994-04-19
1,M,Roman Denisov,Роман Денисов,99.5,222.5,230,-235,230,,185,-192.5,-192.5,185,,270,285,-292.5,285,,700,100,SBD,Wraps,No,Pro Open,30,1988-04-13
2,M,Artyom Klopov,Артём Клопов,98.9,230,240,250,250,,170,-180,180,180,,220,-240,252.5,252.5,,682.5,100,SBD,Wraps,No,Pro Open,28,1990-10-11
3,M,Dmitriy Makarov,Дмитрий Макаров,98.3,232.5,-240,-242.5,232.5,,142.5,147.5,-152.5,147.5,,275,285,292.5,292.5,,672.5,100,SBD,Wraps,No,Pro Open,34,1984-05-25
1,M,Zhanis Zarinsh,Жанис Зариньш,132.8,202.5,217.5,222.5,222.5,,155,162.5,167.5,167.5,,212.5,227.5,-242.5,227.5,,617.5,140,SBD,Wraps,No,Pro Sub-Juniors 17-19,19,1999-11-15
1,F,Ekaterina Kovalskaya,Екатерина Ковальская,43.8,85,90,-95,90,,35,37.5,-40,37.5,,65,70,72.5,72.5,,200,44,SBD,Wraps,Yes,Amateur Open,37,1981-06-21
1,F,Anna Ogorodnikova,Анна Огородникова,55.3,85,90,95,95,,50,-55,-55,50,,95,102.5,110,110,,255,56,SBD,Wraps,Yes,Amateur Open,37,1981-06-09
1,M,Igor Pashkov,Игорь Пашков,79.8,210,220,,220,,140,-145,-145,140,,230,240,250,250,,610,82.5,SBD,Wraps,Yes,Amateur Open,32,1986-06-10
1,M,Andrey Mikhaylov,Андрей Михайлов,93.1,-180,180,-200,180,,-140,145,-155,145,,190,210,-215,210,,535,100,SBD,Wraps,Yes,Amateur Open,35,1983-07-18
1,M,Yuriy Kovalskiy,Юрий Ковальский,98.3,140,150,-160,150,,100,105,-110,105,,170,180,190,190,,445,100,SBD,Wraps,Yes,Amateur Masters 40-49,40,1978-01-27
1,M,Pavel Moiseev,Павел Моисеев,81.9,-230,-230,230,230,,145,150,-152.5,150,,215,-225,-225,215,,595,82.5,SBD,Wraps,No,Pro Open,30,1988-09-11
1,M,Artem Belov,Артем Белов,89.6,-220,-220,220,220,,160,-175,-175,160,,210,-230,242.5,242.5,,622.5,90,SBD,Wraps,No,Pro Open,29,1989-11-07
1,M,Ruslan Shestopyorstov,Руслан Шестопёрстов,95.5,250,262.5,275,275,,145,152.5,160,160,,245,252.5,260,260,,695,100,SBD,Wraps,No,Pro Open,29,1989-03-21
DQ,M,Sergey Varfolomeev,Сергей Варфоломеев,99,-220,-220,-220,,,,,,,,,,,,,,100,SBD,Wraps,No,Pro Open,37,1981-02-17
DQ,M,Vladimir Mavrin,Владимир Маврин,99.9,-230,-230,230,230,,-180,-180,-185,,,,,,,,,100,SBD,Wraps,No,Pro Open,26,1992-08-20
DQ,M,Dmitriy Kasatkin,Дмитрий Касаткин,120.6,-275,-275,-275,,,,,,,,,,,,,,125,SBD,Wraps,No,Pro Open,37,1981-10-11
1,M,Dmitriy Surkov,Дмитрий Сурков,59.6,,,,,,105,-112.5,-112.5,105,,,,,,,105,60,B,Raw,Yes,Amateur Open,29,1989-02-24
1,M,Ivan Agafonov,Иван Агафонов,67.2,,,,,,-115,125,132.5,132.5,,,,,,,132.5,67.5,B,Raw,Yes,Amateur Open,30,1988-08-25
2,M,Aleksey Maslov,Алексей Маслов,65.3,,,,,,105,107.5,110,110,,,,,,,110,67.5,B,Raw,Yes,Amateur Open,26,1991-12-29
1,M,Vyacheslav Chilikov,Вячеслав Чиликов,72.5,,,,,,-130,135,137.5,137.5,,,,,,,137.5,75,B,Raw,Yes,Amateur Open,27,1991-01-04
DQ,M,Aleksandr Fetisov,Александр Фетисов,74.9,,,,,,-150,-150,-150,,,,,,,,,75,B,Raw,Yes,Amateur Open,31,1987-04-30
DQ,M,Vladimir Popov,Владимир Попов,75,,,,,,-135,-135,-135,,,,,,,,,75,B,Raw,Yes,Amateur Open,32,1986-05-08
1,M,Oleg Dosyagov,Олег Досягов,71.7,,,,,,-100,-100,100,100,,,,,,,100,75,B,Raw,Yes,Amateur Masters 40-49,46,1972-09-03
1,M,Maksim Tulikov,Максим Туликов,82.3,,,,,,130,135,-140,135,,,,,,,135,82.5,B,Raw,Yes,Amateur Masters 40-49,41,1977-06-26
1,M,Andrey Danilov,Андрей Данилов,80.5,,,,,,105,-110,-115,105,,,,,,,105,82.5,B,Raw,Yes,Amateur Masters 50-59,55,1963-03-02
DQ,M,Artem Bogdanov,Артем Богданов,88.4,,,,,,-127.5,-132.5,-132.5,,,,,,,,,90,B,Raw,Yes,Amateur Juniors 20-23,23,1995-01-17
1,M,Dmitriy Vasilev,Дмитрий Васильев,88.9,,,,,,165,170,-175,170,,,,,,,170,90,B,Raw,Yes,Amateur Open,34,1984-02-21
2,M,Pavel Bondarev,Павел Бондарев,88.9,,,,,,-165,165,-175,165,,,,,,,165,90,B,Raw,Yes,Amateur Open,30,1988-06-10
3,M,Vyacheslav Sumin,Вячеслав Сумин,86.2,,,,,,-127.5,132.5,-137.5,132.5,,,,,,,132.5,90,B,Raw,Yes,Amateur Open,36,1982-08-15
1,M,Roman Starostenko,Роман Старостенко,89.5,,,,,,160,-167.5,-167.5,160,,,,,,,160,90,B,Raw,Yes,Amateur Masters 40-49,45,1973-07-06
1,M,Vladislav Naumov,Владислав Наумов,91,,,,,,-110,110,-115,110,,,,,,,110,100,B,Raw,Yes,Amateur Sub-Juniors 17-19,17,2001-10-01
1,M,Gennadiy Dunaev,Геннадий Дунаев,98.3,,,,,,155,-162.5,,155,,,,,,,155,100,B,Raw,Yes,Amateur Open,25,1993-07-22
2,M,Sergey Ermolaev,Сергей Ермолаев,97.1,,,,,,140,150,-160,150,,,,,,,150,100,B,Raw,Yes,Amateur Open,35,1983-01-26
3,M,Aleksandr Gigolaev,Александр Гиголаев,97.2,,,,,,135,140,-145,140,,,,,,,140,100,B,Raw,Yes,Amateur Open,24,1993-12-27
1,M,Igor Stasyuk,Игорь Стасюк,106,,,,,,187.5,195,-202.5,195,,,,,,,195,110,B,Raw,Yes,Amateur Open,35,1983-01-09
2,M,Aleksey Prudnikov,Алексей Прудников,106.2,,,,,,160,-167.5,167.5,167.5,,,,,,,167.5,110,B,Raw,Yes,Amateur Open,35,1982-12-24
1,M,Evgeniy Sroslov,Евгений Срослов,118.8,,,,,,135,142.5,150,150,,,,,,,150,125,B,Raw,Yes,Amateur Masters 40-49,42,1976-07-10
DQ,F,Anna Korolyova,Анна Королёва,35.3,,,,,,-37.5,-37.5,-37.5,,,,,,,,,44,B,Raw,No,Pro Juniors 20-23,21,1997-07-28
1,F,Natalya Marinina,Наталья Маринина,79.2,,,,,,-55,55,-60,55,,,,,,,55,82.5,B,Raw,No,Pro Masters 40-49,43,1975-09-24
1,M,Vladislav Mashistov,Владислав Машистов,74,,,,,,145,-155,-155,145,,,,,,,145,75,B,Raw,No,Pro Open,31,1987-08-02
2,M,Aleksey Kulikov,Алексей Куликов,73.2,,,,,,110,115,-120,115,,,,,,,115,75,B,Raw,No,Pro Open,25,1993-02-17
1,M,Dmitriy Zabulika,Дмитрий Забулика,80.8,,,,,,135,-140,-140,135,,,,,,,135,82.5,B,Raw,No,Pro Open,26,1992-01-29
DQ,M,Roman Lavrinenko,Роман Лавриненко,81.8,,,,,,-155,-155,-155,,,,,,,,,82.5,B,Raw,No,Pro Open,26,1992-09-25
1,M,Sergey Surkov,Сергей Сурков,89.7,,,,,,185,195,202.5,202.5,,,,,,,202.5,90,B,Raw,No,Pro Open,33,1985-10-14
2,M,Vladimir Talyanov,Владимир Тальянов,88.3,,,,,,-155,160,-165,160,,,,,,,160,90,B,Raw,No,Pro Open,31,1987-07-06
3,M,Artem Belov,Артем Белов,89.6,,,,,,160,-175,-175,160,,,,,,,160,90,B,Raw,No,Pro Open,29,1989-11-07
1,M,Aleksey Kosyanov,Алексей Косьянов,97.4,,,,,,150,160,-170,160,,,,,,,160,100,B,Raw,No,Pro Juniors 20-23,20,1998-02-10
1,M,Artyom Klopov,Артём Клопов,98.9,,,,,,170,-180,180,180,,,,,,,180,100,B,Raw,No,Pro Open,28,1990-10-11
2,M,Aleksandr Muchler,Александр Мучлер,91.7,,,,,,160,-165,165,165,,,,,,,165,100,B,Raw,No,Pro Open,39,1979-08-06
1,M,Aleksey Solovyev #1,Алексей Соловьев,104.3,,,,,,225,235,-242.5,235,,,,,,,235,110,B,Raw,No,Pro Open,28,1990-07-01
2,M,Evgeniy Ryazantsev,Евгений Рязанцев,106.1,,,,,,180,187.5,192.5,192.5,,,,,,,192.5,110,B,Raw,No,Pro Open,32,1986-02-17
1,M,Evgeniy Avdulov,Евгений Авдулов,117.7,,,,,,200,-210,-210,200,,,,,,,200,125,B,Raw,No,Pro Open,35,1983-11-04
1,M,Sergey Konev,Сергей Конев,136.7,,,,,,155,165,-170,165,,,,,,,165,140,B,Raw,No,Pro Open,29,1989-01-18
1,M,Arif Makhmudov,Ариф Махмудов,132.8,,,,,,190,195,-200,195,,,,,,,195,140,B,Raw,No,Pro Masters 50-59,56,1962-07-31
1,M,Sergey Surkov,Сергей Сурков,89.7,,,,,,235,-252.5,,235,,,,,,,235,90,B,Multi-ply,No,Pro Open,33,1985-10-14
2,M,Sergey Izyumskiy,Сергей Изюмский,89.2,,,,,,230,-252.5,-252.5,230,,,,,,,230,90,B,Multi-ply,No,Pro Open,45,1973-03-27
3,M,Vyacheslav Ermolaev,Вячеслав Ермолаев,89,,,,,,200,-210,210,210,,,,,,,210,90,B,Multi-ply,No,Pro Open,38,1980-09-21
1,M,Sergey Rychagov,Сергей Рычагов,109.9,,,,,,-250,250,260,260,,,,,,,260,110,B,Multi-ply,No,Pro Open,38,1980-05-20
1,M,Nikolay Emelyanov #1,Николай Емельянов,118.8,,,,,,340,355,,355,,,,,,,355,125,B,Multi-ply,No,Pro Open,39,1979-08-30
1,M,Arif Makhmudov,Ариф Махмудов,132.8,,,,,,325,-335,-335,325,,,,,,,325,140,B,Multi-ply,No,Pro Open,56,1962-07-31
1,F,Margarita Talitsyna,Маргарита Талицына,50.4,,,,,,50,52.5,-55,52.5,,,,,,,52.5,52,B,Raw,No,Pro Masters 50-59,50,1968-10-13
1,F,Taisya Zaytseva,Таисья Зайцева,78,,,,,,45,50,-52.5,50,,,,,,,50,82.5,B,Raw,No,Pro Masters 70-79,71,1947-08-30
1,F,Marina Pugacheva,Марина Пугачева,88.2,,,,,,60,-62.5,-62.5,60,,,,,,,60,90,B,Raw,No,Pro Masters 50-59,54,1964-02-22
2,F,Elena Lebedeva,Елена Лебедева,83,,,,,,-35,35,-40,35,,,,,,,35,90,B,Raw,No,Pro Masters 50-59,55,1963-06-29
1,F,Tatyana Maeva,Татьяна Маева,88.8,,,,,,72.5,-75,75,75,,,,,,,75,90,B,Raw,No,Pro Masters 60-69,60,1958-07-05
2,F,Valentina Semenyuk,Валентина Семенюк,82.9,,,,,,30,32.5,35,35,,,,,,,35,90,B,Raw,No,Pro Masters 60-69,66,1952-05-20
1,M,Evgeniy Kornilov,Евгений Корнилов,33.1,,,,,,90,95,100,100,,,,,,,100,52,B,Raw,No,Pro Open,25,1993-03-14
1,M,Aleksey Belov,Алексей Белов,66.85,,,,,,-75,75,80,80,,,,,,,80,67.5,B,Raw,No,Pro Masters 40-49,42,1975-12-30
1,M,Evgeniy Kosarev,Евгений Косарев,64,,,,,,65,67.5,70,70,,,,,,,70,67.5,B,Raw,No,Pro Masters 50-59,57,1961-03-29
1,M,Nikolay Gorev,Николай Горев,67,,,,,,75,-77.5,-77.5,75,,,,,,,75,67.5,B,Raw,No,Pro Masters 60-69,68,1950-03-15
1,M,Aleksey Pachin,Алексей Пачин,73.3,,,,,,70,-75,80,80,,,,,,,80,75,B,Raw,No,Pro Open,39,1979-03-02
1,M,Georgiy Gvozdev,Георгий Гвоздев,80,,,,,,110,-115,115,115,,,,,,,115,82.5,B,Raw,No,Pro Masters 50-59,59,1959-04-26
1,M,Vyacheslav Grunichev,Вячеслав Груничев,81.5,,,,,,30,-35,37.5,37.5,,,,,,,37.5,82.5,B,Raw,No,Pro Masters 70-79,79,1939-06-22
1,M,Sergey Sokolov,Сергей Соколов,86.1,,,,,,100,-105,105,105,,,,,,,105,90,B,Raw,No,Pro Masters 60-69,67,1951-03-12
1,M,Ivan Puryshev,Иван Пурышев,94.6,,,,,,75,-85,85,85,,,,,,,85,100,B,Raw,No,Pro Open,38,1980-05-03
1,M,Sergey Kovalev,Сергей Ковалев,97.2,,,,,,127.5,132.5,-135,132.5,,,,,,,132.5,100,B,Raw,No,Pro Masters 40-49,49,1969-07-22
1,M,Vladimir Kuznetsov,Владимир Кузнецов,92.8,,,,,,60,65,70,70,,,,,,,70,100,B,Raw,No,Pro Masters 70-79,73,1945-03-04
1,F,Yanina Khazanova,Янина Хазанова,47.7,,,,,,,,,,,100,110,115,115,,115,48,D,Raw,Yes,Amateur Open,35,1983-03-02
1,F,Elena Titova,Елена Титова,51,,,,,,,,,,,82.5,87.5,92.5,92.5,,92.5,52,D,Raw,Yes,Amateur Open,29,1989-07-13
1,F,Anna Ogorodnikova,Анна Огородникова,55.3,,,,,,,,,,,95,102.5,110,110,,110,56,D,Raw,Yes,Amateur Open,37,1981-06-09
1,F,Ekaterina Shushkina,Екатерина Шушкина,56.9,,,,,,,,,,,85,90,92.5,92.5,,92.5,60,D,Raw,Yes,Amateur Open,34,1984-09-16
1,M,Aleksey Pikalov,Алексей Пикалов,67.1,,,,,,,,,,,180,-195,-195,180,,180,67.5,D,Raw,Yes,Amateur Open,31,1986-12-19
1,M,Egor Kuznetsov,Егор Кузнецов,71.1,,,,,,,,,,,182.5,195,207.5,207.5,,207.5,75,D,Raw,Yes,Amateur Teen 14-16,15,2003-11-17
1,M,Egor Kuznetsov,Егор Кузнецов,71.1,,,,,,,,,,,182.5,195,207.5,207.5,,207.5,75,D,Raw,Yes,Amateur Open,15,2003-11-17
2,M,Aleksandr Dyachkov,Александр Дьячков,73.1,,,,,,,,,,,182.5,190,202.5,202.5,,202.5,75,D,Raw,Yes,Amateur Open,30,1988-07-20
1,M,Igor Pashkov,Игорь Пашков,79.8,,,,,,,,,,,230,240,250,250,,250,82.5,D,Raw,Yes,Amateur Open,32,1986-06-10
2,M,Ivan Gerasimov,Иван Герасимов,75.9,,,,,,,,,,,172.5,-185,-190,172.5,,172.5,82.5,D,Raw,Yes,Amateur Open,27,1991-09-19
1,M,Ivan Malyshev,Иван Малышев,89,,,,,,,,,,,185,-202.5,202.5,202.5,,202.5,90,D,Raw,Yes,Amateur Teen 14-16,15,2002-12-22
1,M,Pavel Bondarev,Павел Бондарев,88.9,,,,,,,,,,,255,262.5,-270,262.5,,262.5,90,D,Raw,Yes,Amateur Open,30,1988-06-10
2,M,Aleksandr Ampleev,Александр Амплеев,84.9,,,,,,,,,,,235,-250,-250,235,,235,90,D,Raw,Yes,Amateur Open,35,1983-05-20
1,M,Nikolay Konev,Николай Конев,98.6,,,,,,,,,,,220,240,-245,240,,240,100,D,Raw,Yes,Amateur Open,29,1989-05-26
1,M,Dmitriy Belov,Дмитрий Белов,108,,,,,,,,,,,260,-282.5,-282.5,260,,260,110,D,Raw,Yes,Amateur Open,29,1989-09-24
1,F,Anna Doronina,Анна Доронина,49.9,,,,,,,,,,,-85,85,90,90,,90,52,D,Raw,No,Pro Open,39,1979-06-26
1,M,Maksim Stupin,Максим Ступин,73.8,,,,,,,,,,,200,207.5,-215,207.5,,207.5,75,D,Raw,No,Pro Open,30,1988-03-22
1,M,Andrey Smirnov,Андрей Смирнов,81.7,,,,,,,,,,,220,-235,-235,220,,220,82.5,D,Raw,No,Pro Open,35,1983-02-08
1,M,Ivan Dmitriev,Иван Дмитриев,89.6,,,,,,,,,,,300,320,-332.5,320,,320,90,D,Raw,No,Pro Open,48,1970-06-11
2,M,Boris Koloskov,Борис Колосков,89.6,,,,,,,,,,,270,285,290,290,,290,90,D,Raw,No,Pro Open,32,1986-06-27
3,M,Sergey Surkov,Сергей Сурков,89.7,,,,,,,,,,,275,285,-290,285,,285,90,D,Raw,No,Pro Open,33,1985-10-14
4,M,Stanislav Prokofev,Станислав Прокофьев,90,,,,,,,,,,,210,220,-235,220,,220,90,D,Raw,No,Pro Open,29,1989-02-17
1,M,Ivan Dmitriev,Иван Дмитриев,89.6,,,,,,,,,,,300,320,-332.5,320,,320,90,D,Raw,No,Pro Masters 40-49,48,1970-06-11
1,M,Dmitriy Makarov,Дмитрий Макаров,98.3,,,,,,,,,,,275,285,292.5,292.5,,292.5,100,D,Raw,No,Pro Open,34,1984-05-25
2,M,Aleksandr Muchler,Александр Мучлер,91.7,,,,,,,,,,,195,202.5,207.5,207.5,,207.5,100,D,Raw,No,Pro Open,39,1979-08-06
1,M,Viktor Kapralov,Виктор Капралов,114.7,,,,,,,,,,,240,250,-260,250,,250,125,D,Raw,No,Pro Open,37,1981-09-30
1,M,Ilya Gorkov,Илья Горьков,86.6,,,,,,-95,95,100,100,,,,,,,100,90,B,Raw,Yes,Amateur Teen 14-16,16,2002-05-07
1,M,Ilya Ukhanov,Илья Уханов,87.9,,,,,,-145,145,-150,145,,,,,,,145,90,B,Raw,Yes,Amateur Juniors 20-23,20,1998-05-20
1,M,Vladimir Shlyapnikov,Владимир Шляпников,98.1,,,,,,160,-165,-165,160,,,,,,,160,100,B,Raw,Yes,Amateur Open,37,1981-07-24
DQ,F,Lyudmila Krivetskaya,Людмила Кривецкая,57.8,,,,,,-57.5,-57.5,-57.5,,,,,,,,,60,B,Raw,No,Amateur Open,39,1979-01-30
1,M,Kirill Shlyapnikov,Кирилл Шляпников,66.4,,,,,,90,95,100,100,,,,,,,100,67.5,B,Raw,No,Amateur Teen 14-16,15,2003-07-11
1,M,Daniil Bogachyov,Даниил Богачёв,82.1,,,,,,-130,132.5,135,135,,,,,,,135,82.5,B,Raw,No,Amateur Juniors 20-23,21,1997-07-08
1,M,Evgeniy Sotov,Евгений Сотов,88.6,,,,,,130,135,-140,135,,,,,,,135,90,B,Raw,No,Amateur Masters 40-44,40,1978-08-16
1,M,Vladimir Kokin,Владимир Кокин,104.7,,,,,,160,167.5,175,175,,,,,,,175,110,B,Raw,No,Amateur Open,24,1993-12-21
1,M,Denis Sychak,Денис Сычак,89.3,,,,,,170,175,180,180,,,,,,,180,90,B,Single-ply,No,Pro Open,33,1985-04-28
1,M,Mikhail Gorelov,Михаил Горелов,96.2,,,,,,210,230,-240,230,,,,,,,230,100,B,Single-ply,No,Pro Masters 40-44,42,1976-02-03
1,M,Sergey Averkin,Сергей Аверкин,112,,,,,,220,235,250,250,,,,,,,250,125,B,Single-ply,No,Pro Masters 40-44,42,1976-08-04
1,M,Aleksandr Vorobyov,Александр Воробьёв,116.5,,,,,,230,240,250,250,,,,,,,250,125,B,Single-ply,No,Pro Masters 45-49,46,1972-02-11
1,M,Arif Makhmudov,Ариф Махмудов,132.8,,,,,,-285,285,,285,,,,,,,285,140,B,Single-ply,No,Pro Open,56,1962-07-31
