Place,Name,CyrillicName,Team,Division,BirthDate,WeightClassKg,BodyweightKg,Bench1Kg,Bench2Kg,Bench3Kg,Bench4Kg,Best3BenchKg,Deadlift1Kg,Deadlift2Kg,Deadlift3Kg,Deadlift4Kg,Best3DeadliftKg,TotalKg,Event,Equipment,Sex
1,Nadezhda Mazur,Надежда Мазур,,Amateur Open,1976-05-02,60,60,25,-30,-30,,25,,,,,,25,B,Raw,F
1,Elena Dronina,Елена Дронина,,Amateur Open,1980-05-21,67.5,67.5,35,-40,-40,,35,,,,,,35,B,Raw,F
1,Artem Mokkoev,Артем Моккоев,,Amateur Open,1995-03-13,67.5,66.5,100,105,107.5,,107.5,,,,,,107.5,B,Raw,M
2,Aleksandr Nikitash,Александр Никиташ,,Amateur Open,1988-03-26,67.5,65,85,90,92.5,,92.5,,,,,,92.5,B,Raw,M
3,Sergey Divayan,Сергей Диваян,,Amateur Open,1995-02-07,67.5,64.6,-80,80,90,,90,,,,,,90,B,Raw,M
1,Ivan Novitskiy,Иван Новицкий,,Amateur Open,1994-05-21,75,68.2,107.5,112.5,115,,115,,,,,,115,B,Raw,M
1,Igor Datuashvili,Игорь Датуашвили,,Amateur Open,1986-07-26,82.5,80.8,127.5,-130,-132.5,,127.5,,,,,,127.5,B,Raw,M
1,Ivan Novitskiy,Иван Новицкий,,Amateur Open,1994-05-21,82.5,78.2,107.5,112.5,115,,115,,,,,,115,B,Raw,M
DQ,Aleksandr Pidshmorga,Александр Пидшморга,,Amateur Open,1988-01-24,82.5,79.7,-110,-110,-110,,,,,,,,,B,Raw,M
1,Oleg Kaptsevich,Олег Капцевич,,Amateur Open,1994-05-21,90,88.7,-110,110,-120,,110,,,,,,110,B,Raw,M
2,Amayak Sanosyan,Амаяк Саносян,100 Пудов,Amateur Open,1995-02-18,110,110,170,-185,185,,185,,,,,,185,B,Raw,M
1,Nikolay Savich,Николай Савич,Sta Fit,Amateur Open,1970-06-14,100,99.1,-160,170,172.5,,172.5,,,,,,172.5,B,Raw,M
2,Vladimir Zakharov,Владимир Захаров,Спарт,Amateur Open,1955-07-07,100,99.3,155,160,165,,165,,,,,,165,B,Raw,M
3,Dmitriy Podgornyy,Дмитрий Подгорный,Good Zone,Amateur Open,1981-01-08,100,95,150,162.5,-170,,162.5,,,,,,162.5,B,Raw,M
4,Dmitriy Pshenichnyy,Дмитрий Пшеничный,Sta Fit,Amateur Open,1995-03-13,100,98.6,-120,-120,120,,120,,,,,,120,B,Raw,M
DQ,Maksim Polostakin,Максим Полостакин,,Amateur Open,1984-05-08,100,97.6,-162.5,-162.5,-162.5,,,,,,,,,B,Raw,M
1,Evgeniy Gilmanov,Евгений Гильманов,100 Пудов,Amateur Open,1995-11-07,110,101.8,110,-115,115,,115,,,,,,115,B,Raw,M
2,Amayak Sanosyan,Амаяк Саносян,100 Пудов,Amateur Open,1995-02-18,110,110,110,-115,115,,115,,,,,,115,B,Raw,M
1,Aleksan Sanosyan,Алексан Саносян,100 Пудов,Amateur Open,1970-06-19,125,123.5,-145,,152.5,,152.5,,,,,,152.5,B,Raw,M
1,Sergey Dronin,Сергей Дронин,100 Пудов,Amateur Open,1980-05-06,140,130,125,132.5,-137.5,,132.5,,,,,,132.5,B,Raw,M
1,Yuliya Pechak,Юлия Печак,Sta Fit,Pro Open,1995-03-01,52,50.3,30,35,-37.5,,35,,,,,,35,B,Raw,F
1,Olga Potapova,Ольга Потапова,100 Пудов,Pro Open,1980-01-23,56,55.5,50,52.5,-55,,52.5,,,,,,52.5,B,Raw,F
2,Anna Siryak,Анна Сиряк,100 Пудов,Pro Open,1983-03-25,56,53.4,40,-45,45,,45,,,,,,45,B,Raw,F
3,Olga Boychenko,Ольга Бойченко,Sta Fit,Pro Open,1969-10-01,56,55.5,30,32.5,-35,,32.5,,,,,,32.5,B,Raw,F
1,Yuliya Makarenko,Юлия Макаренко,Sta Fit,Pro Open,1971-12-23,60,58.1,35,37.5,-40,,37.5,,,,,,37.5,B,Raw,F
1,Andrey Govorov,Андрей Говоров,,Pro Open,1992-07-04,60,58.9,95,-102.5,-102.5,,95,,,,,,95,B,Raw,M
1,Evgeniy Gilmanov,Евгений Гильманов,100 Пудов,Pro Open,1995-11-07,110,101.8,110,-115,115,,115,,,,,,115,B,Raw,M
DQ,Serzh Khachiev,Серж Хачиев,,Pro Open,1994-05-25,56,55.6,-70,-70,-70,,,,,,,,,B,Raw,M
1,Yuliya Kirilenko,Юлия Кириленко,Sta Fit,Pro Open,1989-03-24,67.5,62.9,30,35,37.5,,37.5,,,,,,37.5,B,Raw,F
1,Dmitriy Borzov,Дмитрий Борзов,,Pro Open,1991-06-11,75,74.5,125,-130,-130,,125,,,,,,125,B,Raw,M
DQ,Aleksandr Klyuev,Александр Клюев,,Pro Open,1997-03-21,75,73.6,-80,-80,-80,,,,,,,,,B,Raw,M
1,Vladimir Rybalko,Владимир Рыбалко,Спарт,Pro Open,1987-05-04,82.5,78.8,150,155,160,,160,,,,,,160,B,Raw,M
2,Stanislav Parkhachev,Станислав Пархачев,,Pro Open,1982-09-09,82.5,79.3,140,-147.5,-147.5,,140,,,,,,140,B,Raw,M
1,Rasim Ametov,Расим Аметов,Спарт,Pro Open,1986-10-26,90,83.6,-165,165,-170,,165,,,,,,165,B,Raw,M
2,Evsheniy Vyskrebtsev,Евшений Выскребцев,,Pro Open,1986-11-11,90,89,145,-155,155,,155,,,,,,155,B,Raw,M
3,Andrey Melnik,Андрей Мельник,,Pro Open,1988-05-02,90,86.9,125,130,137.5,,137.5,,,,,,137.5,B,Raw,M
4,Aleksey Eliseev,Алексей Елисеев,Sta Fit,Pro Open,1989-03-20,90,89.9,115,125,132.5,,132.5,,,,,,132.5,B,Raw,M
1,Aleksandr Potapov,Александр Потапов,100 Пудов,Pro Open,1974-09-18,100,92.5,172.5,175,,,175,,,,,,175,B,Raw,M
2,Maksim Korepin,Максим Корепин,,Pro Open,1991-12-14,100,98.2,155,160,165,,165,,,,,,165,B,Raw,M
3,Aleksandr Verbitskiy,Александр Вербицкий,,Pro Open,1989-03-04,100,93.2,155,-160,-165,,155,,,,,,155,B,Raw,M
4,Oleg Borisov,Олег Борисов,Sta Fit,Pro Open,1986-07-06,100,98.1,-115,120,-125,,120,,,,,,120,B,Raw,M
3,Dmitriy Podgornyy,Дмитрий Подгорный,Good Zone,Pro Open,1981-01-08,100,95,150,162.5,-170,,162.5,,,,,,162.5,B,Raw,M
1,Oleg Dryablov,Олег Дряблов,,Pro Open,1988-09-07,110,106.7,-155,160,-165,,160,,,,,,160,B,Raw,M
DQ,Georgiy Kuznetsov,Георгий Кузнецов,,Pro Open,1995-06-21,110,105.2,-80,-100,-100,,,,,,,,,B,Raw,M
1,Pavel Siryau,Павел Сиряу,100 Пудов,Pro Open,1986-06-14,125,112.3,180,200,205,,205,,,,,,205,B,Raw,M
2,Yuriy Khalipa,Юрий Халипа,Sta Fit,Pro Open,1986-09-04,125,112.9,155,165,-170,,165,,,,,,165,B,Raw,M
1,Aleksandr Korshkov,Александр Коршков,Good Zone,Pro Open,1986-01-06,140,131,200,210,217.5,,217.5,,,,,,217.5,B,Raw,M
1,Vladimir Rybalko,Владимир Рыбалко,Спарт,Pro Open,1987-05-04,82.5,78.8,160,170,-180,,170,,,,,,170,B,Raw,M
1,Aleksandr Potapov,Александр Потапов,100 Пудов,Pro Open,1974-09-18,100,92.5,-220,220,-225,,220,,,,,,220,B,Raw,M
1,Denis Afanasev #2,Денис Афанасьев,100 Пудов,Amateur Open,1987-04-13,67.5,66,,,,,,180,200,-210,,200,200,D,Raw,M
2,Artem Mokkoev,Артем Моккоев,,Amateur Open,1990-03-24,67.5,66.5,,,,,,130,135,140,,140,140,D,Raw,M
1,Nikita Podobnyy,Никита Подобный,,Amateur Open,1995-11-14,82.5,78.1,,,,,,170,185,190,,190,190,D,Raw,M
2,Aleksandr Pidshmorga,Александр Пидшморга,,Amateur Open,1988-01-24,82.5,79.7,,,,,,130,140,160,,160,160,D,Raw,M
1,Ridvan Aliev,Ридван Алиев,Sta Fit,Amateur Open,1993-06-29,90,90,,,,,,190,210,-230,,210,210,D,Raw,M
2,Roman Cherepov,Роман Черепов,,Amateur Open,1995-05-11,90,88.7,,,,,,185,195,200,,200,200,D,Raw,M
3,Yuriy Kudelya,Юрий Куделя,,Amateur Open,1995-07-14,90,89.7,,,,,,180,-195,-195,,180,180,D,Raw,M
1,Dmitriy Pshenichnyy,Дмитрий Пшеничный,,Amateur Open,1995-03-13,100,98.6,,,,,,220,235,-240,,235,235,D,Raw,M
2,Dmitriy Podgornyy,Дмитрий Подгорный,Good Zone,Amateur Open,1981-01-08,100,95,,,,,,202.5,220,-232.5,,220,220,D,Raw,M
3,Vladimir Zakharov,Владимир Захаров,Спарт,Amateur Open,1955-07-07,100,99.3,,,,,,180,190,-195,,190,190,D,Raw,M
1,Evgeniy Gilmanov,Евгений Гильманов,100 Пудов,Amateur Open,1995-11-07,110,101.8,,,,,,175,-185,185,,185,185,D,Raw,M
2,Amayak Sanosyan,Амаяк Саносян,100 Пудов,Amateur Open,1995-02-18,110,110,,,,,,170,-185,185,,185,185,D,Raw,M
1,Yuliya Pechak,Юлия Печак,Sta Fit,Pro Open,1995-01-17,52,50.3,,,,,,-70,70,77.5,,77.5,77.5,D,Raw,F
DQ,Boris Veremeenko,Борис Веремеенко,Sta Fit,Pro Open,,60,56.3,,,,,,-110,,,,,,D,Raw,M
1,Ekaterina Petrova,Екатерина Петрова,Спарт,Pro Open,1978-06-30,60,60,,,,,,100,105,115,,115,115,D,Raw,F
2,Alla Prokopenko,Алла Прокопенко,,Pro Open,1986-06-19,60,57.3,,,,,,85,90,95,,95,95,D,Raw,F
3,Yuliya Makarenko,Юлия Макаренко,Sta Fit,Pro Open,1971-12-23,60,58.1,,,,,,80,90,-95,,90,90,D,Raw,F
1,Zina Bogatyreva,Зина Богатырева,Sta Fit,Pro Open,1983-04-22,67.5,65.6,,,,,,75,85,90,,90,90,D,Raw,F
2,Yuliya Kirilenko,Юлия Кириленко,Sta Fit,Pro Open,1989-03-24,67.5,62.9,,,,,,65,75,80,,80,80,D,Raw,F
1,Konstantin Belushkin,Константин Белушкин,Star,Pro Open,1984-07-13,67.5,65.4,,,,,,200,215,-225,,215,215,D,Raw,M
2,Vasiliy Aleshin,Василий Алешин,,Pro Open,1995-07-15,67.5,63.2,,,,,,125,135,-145,,135,135,D,Raw,M
1,Karen Toroyan,Карен Тороян,,Pro Open,1994-09-18,75,67.8,,,,,,110,130,150,,150,150,D,Raw,F
1,Vladimir Rybalko,Владимир Рыбалко,Спарт,Pro Open,1987-05-04,82.5,78.8,,,,,,200,210,220,,220,220,D,Raw,M
1,Andrey Melnik,Андрей Мельник,Sta Fit,Pro Open,1988-05-02,90,86.9,,,,,,180,190,207.5,,207.5,207.5,D,Raw,M
2,Aleksey Elissev,Алексей Елиссев,Sta Fit,Pro Open,1989-03-20,90,89.9,,,,,,180,192.5,-210,,192.5,192.5,D,Raw,M
1,Maksim Korepin,Максим Корепин,,Pro Open,1991-12-14,100,98.2,,,,,,200,215,225,,225,225,D,Raw,M
2,Oleg Borisov,Олег Борисов,,Pro Open,1986-07-06,100,98.1,,,,,,175,180,185,,185,185,D,Raw,M
1,Pavel Siryak,Павел Сиряк,100 Пудов,Pro Open,1986-06-14,125,112.3,,,,,,300,310,-320,,310,310,D,Raw,M
2,Yuriy Khalipa,Юрий Халипа,Sta Fit,Pro Open,1986-09-04,125,112.9,,,,,,210,220,225,,225,225,D,Raw,M
1,Sergey Novikov,Сергей Новиков,Sta Fit,Pro Open,1974-01-28,125,122.7,,,,,,-250,250,,,250,250,D,Raw,M
