Tested,Equipment,Place,Name,Division,BirthYear,BodyweightKg,Squat1Kg,Squat2Kg,Squat3Kg,Best3SquatKg,Bench1Kg,Bench2Kg,Bench3Kg,Best3BenchKg,Bench4Kg,Deadlift1Kg,Deadlift2Kg,Deadlift3Kg,Best3DeadliftKg,TotalKg,WeightClassKg,Sex,CyrillicName,Event
Yes,Raw,1,Yuliya Shilova,Amateur Open,1984,43.7,-50,-50,50,50,-32.5,32.5,-35,32.5,,57.5,65,72.5,72.5,155,44,F,Юлия Шилова,SBD
Yes,Raw,1,Ekaterina Sukhoverkova,Amateur Open,1973,55.3,90,100,110,110,60,65,-70,65,,110,120,130,130,305,56,F,Екатерина Суховеркова,SBD
Yes,Raw,2,Polina Babakova,Amateur Open,1987,53.8,75,80,85,85,40,45,47.5,47.5,,85,95,102.5,102.5,235,56,F,Полина Бабакова,SBD
Yes,Raw,3,Mariya Yultsova,Amateur Open,1982,55.4,-70,70,75,75,45,47.5,-50,47.5,,100,105,110,110,232.5,56,F,Мария Юльцова,SBD
Yes,Raw,1,Irina Lapshova,Amateur Masters 45-49,1964,54.1,60,65,70,70,50,55,57.5,57.5,,80,85,87.5,87.5,215,56,F,Ирина Лапшова,SBD
Yes,Raw,1,Valentina Matveytseva,Amateur Open,1979,57.5,70,72.5,77.5,77.5,40,-42.5,,40,,70,75,82.5,82.5,200,60,F,Валентина Матвейцева,SBD
Yes,Raw,2,Olga Timoschenko,Amateur Open,1985,58.8,50,60,-70,60,-47.5,47.5,50,50,,70,75,85,85,195,60,F,Ольга Тимощенко,SBD
Yes,Raw,1,Elizaveta Berseneva,Amateur Juniors 20-23,1990,63.2,70,75,77.5,77.5,45,47.5,50,50,,-95,-100,100,100,227.5,67.5,F,Елизавета Берсенева,SBD
Yes,Raw,1,Anna Kutina,Amateur Open,1978,65.5,105,110,-115,110,60,-65,-65,60,,115,120,130,130,300,67.5,F,Анна Кутьина,SBD
Yes,Raw,1,Alla Pugovkina,Amateur Open,1975,82.4,110,115,120,120,82.5,87.5,-90,87.5,,120,130,-140,130,337.5,82.5,F,Алла Пуговкина,SBD
Yes,Raw,2,Irina Borisova,Amateur Open,1987,77.5,-80,-80,80,80,45,50,-52.5,50,,110,-115,-115,110,240,82.5,F,Ирина Борисова,SBD
Yes,Raw,1,Denis Patrikeev,Amateur Teen 16-17,1994,59.6,95,-100,-102.5,95,-75,-77.5,-77.5,,,-130,,,,95,60,M,Денис Патрикеев,SBD
Yes,Raw,1,Vitaliy Penkov,Amateur Teen 18-19,1992,58.9,80,85,90,90,70,75,-77.5,75,,90,100,110,110,275,60,M,Виталий Пеньков,SBD
Yes,Raw,1,Denis Mikulich,Amateur Juniors 20-23,1991,60,110,-115,-115,110,85,87.5,-90,87.5,,135,140,-145,140,337.5,60,M,Денис Микулич,SBD
Yes,Raw,1,Pavel Kuleshov,Amateur Open,1986,59.3,-115,115,-120,115,70,75,80,80,,145,150,155,155,350,60,M,Павел Кулешов,SBD
Yes,Raw,1,Dmitriy Burlakov,Amateur Teen 16-17,1994,62.2,110,115,120,120,80,82.5,-85,82.5,,135,145,,145,347.5,67.5,M,Дмитрий Бурлаков,SBD
Yes,Raw,2,Artemiy Sinitsyn,Amateur Teen 16-17,1994,60.9,105,-110,110,110,80,82.5,,82.5,,140,147.5,,147.5,340,67.5,M,Артемий Синицын,SBD
Yes,Raw,3,Anton Kazakov,Amateur Teen 16-17,1995,64.55,105,-115,-120,105,-85,90,-92.5,90,,-135,-135,135,135,330,67.5,M,Антон Казаков,SBD
Yes,Raw,1,Roman Postnikov,Amateur Teen 18-19,1992,65.8,150,160,165,165,92.5,100,-110,100,,190,200,210,210,475,67.5,M,Роман Постников,SBD
Yes,Raw,1,Lev Ezhov,Amateur Juniors 20-23,1989,61,100,110,115,115,-100,-105,105,105,,140,150,-160,150,370,67.5,M,Лев Ежов,SBD
Yes,Raw,1,Yuriy Nikitchenko,Amateur Open,1977,66.9,200,210,215,215,-120,125,-130,125,,190,-200,200,200,540,67.5,M,Юрий Никитченко,SBD
Yes,Raw,DQ,Andrey Terekhov,Amateur Open,1979,66.95,-150,-150,-150,,-100,,,,,-175,,,,,67.5,M,Андрей Терехов,SBD
Yes,Raw,1,Georgiy Dubrovin,Amateur Teen 13-15,1997,68.7,120,125,130,130,95,100,-102.5,100,,155,165,-170,165,395,75,M,Георгий Дубровин,SBD
Yes,Raw,1,Sergey Maksimov,Amateur Teen 16-17,1994,73.5,155,160,172.5,172.5,110,115,120,120,,180,190,195,195,487.5,75,M,Сергей Максимов,SBD
Yes,Raw,2,Petr Denisenko,Amateur Teen 16-17,1995,68.3,100,-110,110,110,-70,-70,70,70,,125,135,150,150,330,75,M,Петр Денисенко,SBD
Yes,Raw,1,Sergey Yakushevich,Amateur Teen 18-19,1992,69.3,-130,-135,135,135,95,100,-105,100,,160,170,175,175,410,75,M,Сергей Якушевич,SBD
Yes,Raw,1,Igor Grachev,Amateur Juniors 20-23,1989,71.3,130,137.5,142.5,142.5,90,95,100,100,,170,-177.5,-177.5,170,412.5,75,M,Игорь Грачев,SBD
Yes,Raw,1,Andrey Konovalenko,Amateur Open,1982,74.4,200,210,-217.5,210,135,140,145,145,,230,237.5,240,240,595,75,M,Андрей Коноваленко,SBD
Yes,Raw,2,Nikolay Balugin,Amateur Open,1987,72.6,175,180,185,185,122.5,127.5,-130,127.5,,220,225,230,230,542.5,75,M,Николай Балугин,SBD
Yes,Raw,3,Vitaliy Gulyaev,Amateur Open,1977,74.6,180,187.5,192.5,192.5,117.5,122.5,125,125,,200,210,220,220,537.5,75,M,Виталий Гуляев,SBD
Yes,Raw,4,Pavel Schetinin,Amateur Open,1987,73.1,170,180,-185,180,110,120,-125,120,,170,180,190,190,490,75,M,Павел Щетинин,SBD
Yes,Raw,1,Vladislav Naumov,Amateur Teen 16-17,1994,80.1,145,155,165,165,110,117.5,122.5,122.5,,190,202.5,215,215,502.5,82.5,M,Владислав Наумов,SBD
Yes,Raw,DQ,Aleksey Kovalchuk,Amateur Teen 16-17,1994,79.4,-120,-120,-130,,,,,,,,,,,,82.5,M,Алексей Ковальчук,SBD
Yes,Raw,1,Aleksandr Boldinov,Amateur Teen 18-19,1992,79.1,160,170,175,175,130,135,-140,135,,190,200,210,210,520,82.5,M,Александр Болдинов,SBD
Yes,Raw,2,Karen Arutyunyan,Amateur Teen 18-19,1993,78.8,130,-140,150,150,95,100,-107.5,100,,-140,-155,157.5,157.5,407.5,82.5,M,Карен Арутюнян,SBD
Yes,Raw,3,Georgiy Sharangiya,Amateur Teen 18-19,1992,77.6,-125,127.5,132.5,132.5,95,-102.5,102.5,102.5,,147.5,155,-162.5,155,390,82.5,M,Георгий Шарангия,SBD
Yes,Raw,1,Ruslan Ayzyatullov,Amateur Juniors 20-23,1989,79.8,150,165,-180,165,120,130,132.5,132.5,,180,200,-205,200,497.5,82.5,M,Руслан Айзятуллов,SBD
Yes,Raw,DQ,Andrey Sedykh,Amateur Juniors 20-23,1989,77.3,140,-150,-155,140,-95,-105,-105,,,,,,,,82.5,M,Андрей Седых,SBD
Yes,Raw,2,Dmitriy Chuzhakov,Amateur Juniors 20-23,1989,79.9,140,160,170,170,100,110,-120,110,,190,210,-230,210,490,82.5,M,Дмитрий Чужаков,SBD
Yes,Raw,DQ,Sergey Koptelov,Amateur Juniors 20-23,1988,82.1,-170,-170,-170,,,,,,,,,,,,82.5,M,Сергей Коптелов,SBD
Yes,Raw,3,Maksim Osipov,Amateur Juniors 20-23,1989,81.2,125,130,-140,130,-115,115,-120,115,,175,185,-195,185,430,82.5,M,Максим Осипов,SBD
Yes,Raw,1,Timur Tkhamokov,Amateur Open,1982,80.1,200,210,217.5,217.5,130,-135,135,135,,240,250,257.5,257.5,610,82.5,M,Тимур Тхамоков,SBD
Yes,Raw,2,Pavel Kuznetsov,Amateur Open,1975,81.4,190,205,-212.5,205,155,-160,,155,,230,240,-245,240,600,82.5,M,Павел Кузнецов,SBD
Yes,Raw,3,Aleksey Kraynichuk,Amateur Open,1988,81.9,195,-202.5,-202.5,195,145,-150,-150,145,,227.5,237.5,250,250,590,82.5,M,Алексей Крайничук,SBD
Yes,Raw,4,Aleksey Koshuba,Amateur Open,1980,82.45,180,190,200,200,120,130,-132.5,130,,220,230,-240,230,560,82.5,M,Алексей Кошуба,SBD
Yes,Raw,5,Grigoriy Yudin,Amateur Open,1985,78.2,200,207.5,-212.5,207.5,130,137.5,-140,137.5,,185,195,,195,540,82.5,M,Григорий Юдин,SBD
Yes,Raw,6,Dmitriy Shelukhin,Amateur Open,1985,80.6,180,190,195,195,-130,130,140,140,,180,200,-220,200,535,82.5,M,Дмитрий Шелухин,SBD
Yes,Raw,7,Dmitriy Karpeev,Amateur Open,1984,81.45,160,170,180,180,130,140,-145,140,,200,215,-222.5,215,535,82.5,M,Дмитрий Карпеев,SBD
Yes,Raw,8,Vadim Sergeev,Amateur Open,1984,80.2,-160,160,,160,127.5,-132.5,132.5,132.5,,-210,210,220,220,512.5,82.5,M,Вадим Сергеев,SBD
Yes,Raw,9,Pavel Panchenko,Amateur Open,1981,77,-155,-155,155,155,-117.5,-125,125,125,,155,165,180,180,460,82.5,M,Павел Панченко,SBD
Yes,Raw,10,Vladimir Kulakov,Amateur Open,1955,75.5,105,112.5,115,115,85,90,92.5,92.5,,125,132.5,,132.5,340,82.5,M,Владимир Кулаков,SBD
Yes,Raw,1,Evgeniy Zhurkin,Amateur Masters 65-69,1945,80.95,100,112.5,-122.5,112.5,82.5,-90,-90,82.5,,125,132.5,,132.5,327.5,82.5,M,Евгений Журкин,SBD
Yes,Raw,1,Ivan Ivashkin,Amateur Teen 16-17,1994,85.8,185,195,205,205,125,135,142.5,142.5,,200,220,235,235,582.5,90,M,Иван Ивашкин,SBD
Yes,Raw,1,Artemiy Kukoev,Amateur Juniors 20-23,1991,89.9,-200,-210,210,210,130,140,145,145,,232.5,250,260,260,615,90,M,Артемий Кукоев,SBD
Yes,Raw,2,Evgeniy Pivovarov,Amateur Juniors 20-23,1988,88.75,200,205,210,210,160,-170,-170,160,,220,230,235,235,605,90,M,Евгений Пивоваров,SBD
Yes,Raw,3,Nikita Zotov,Amateur Juniors 20-23,1989,88.7,-190,190,-200,190,120,127.5,-132.5,127.5,,200,220,230,230,547.5,90,M,Никита Зотов,SBD
Yes,Raw,4,Roman Romanov,Amateur Juniors 20-23,1989,87.35,-180,185,-195,185,110,115,-120,115,,200,220,,220,520,90,M,Роман Романов,SBD
Yes,Raw,5,Dmitriy Shvedchenko,Amateur Juniors 20-23,1989,87.4,160,170,-180,170,130,-135,-135,130,,200,215,-230,215,515,90,M,Дмитрий Шведченко,SBD
Yes,Raw,6,Andrey Sivakov,Amateur Juniors 20-23,1991,90,120,-130,130,130,120,130,-135,130,,170,180,190,190,450,90,M,Андрей Сиваков,SBD
Yes,Raw,7,Kirill Marakshin,Amateur Juniors 20-23,1988,87.2,-120,-120,125,125,102.5,105,-110,105,,160,-170,170,170,400,90,M,Кирилл Маракшин,SBD
Yes,Raw,1,Aleksey Kuznetsov,Amateur Open,1980,87.9,190,200,207.5,207.5,150,160,167.5,167.5,,250,260,270,270,645,90,M,Алексей Кузнецов,SBD
Yes,Raw,2,Roman Semenov,Amateur Open,1985,88.5,-225,230,240,240,130,140,145,145,,230,245,260,260,645,90,M,Роман Семенов,SBD
Yes,Raw,3,Dmitriy Lakhmotkin,Amateur Open,1978,87.6,200,-215,215,215,145,150,-155,150,,232.5,240,250,250,615,90,M,Дмитрий Лахмоткин,SBD
Yes,Raw,4,Eldar Mamedov,Amateur Open,1985,88,185,200,210,210,130,140,147.5,147.5,,205,225,245,245,602.5,90,M,Эльдар Мамедов,SBD
Yes,Raw,5,Dmitriy Pavlovskiy,Amateur Open,1988,89.9,175,190,-197.5,190,130,140,147.5,147.5,,230,245,260,260,597.5,90,M,Дмитрий Павловский,SBD
Yes,Raw,6,Denis Feofanov,Amateur Open,1980,88,185,192.5,200,200,135,140,-145,140,,230,240,250,250,590,90,M,Денис Феофанов,SBD
Yes,Raw,7,Aleksandr Shuralev,Amateur Open,1975,88.9,190,-200,-210,190,160,167.5,-175,167.5,,210,225,-240,225,582.5,90,M,Александр Шуралев,SBD
Yes,Raw,8,Konstantin Zhekov,Amateur Open,1972,88.5,180,190,192.5,192.5,135,140,142.5,142.5,,210,220,-225,220,555,90,M,Константин Жеков,SBD
Yes,Raw,9,Aleksandr Shustov,Amateur Open,1987,87.2,180,190,200,200,115,120,122.5,122.5,,200,215,-225,215,537.5,90,M,Александр Шустов,SBD
Yes,Raw,10,Igor Shuyskiy,Amateur Open,1978,89.75,160,170,175,175,130,135,140,140,,190,200,-210,200,515,90,M,Игорь Шуйский,SBD
Yes,Raw,11,Aleksandr Silantyev,Amateur Open,1980,88.8,150,170,175,175,125,-130,-130,125,,200,210,,210,510,90,M,Александр Силантьев,SBD
Yes,Raw,12,Sergey Antsupov,Amateur Open,1974,87.95,170,-177.5,-177.5,170,132.5,-140,-140,132.5,,190,202.5,,202.5,505,90,M,Сергей Анцупов,SBD
Yes,Raw,13,Dmitriy Shuyskiy,Amateur Open,1976,88.8,160,170,-175,170,115,122.5,-130,122.5,,190,195,-200,195,487.5,90,M,Дмитрий Шуйский,SBD
Yes,Raw,14,Ruslan Aliev #1,Amateur Open,1981,89.7,145,-155,160,160,120,130,-137.5,130,,155,175,187.5,187.5,477.5,90,M,Руслан Алиев,SBD
Yes,Raw,15,Aleksandr Kokorev,Amateur Open,1984,88.6,110,115,120,120,120,-130,130,130,,-170,180,200,200,450,90,M,Александр Кокорев,SBD
Yes,Raw,1,Nikolay Dobrokhotov,Amateur Masters 50-54,1957,89,180,190,,190,140,145,-150,145,,210,220,,220,555,90,M,Николай Доброхотов,SBD
Yes,Raw,1,Mikhail Aleksakov,Amateur Masters 55-59,1954,88.95,115,-120,120,120,110,115,117.5,117.5,,170,175,180,180,417.5,90,M,Михаил Алексаков,SBD
Yes,Raw,1,Nikita Boldyrev,Amateur Teen 16-17,1995,98,150,160,170,170,-110,117.5,125,125,,205,215,-230,215,510,100,M,Никита Болдырев,SBD
Yes,Raw,2,Dmitriy Sedov #1,Amateur Teen 16-17,1995,98.5,115,125,135,135,75,80,85,85,,145,160,170,170,390,100,M,Дмитрий Седов,SBD
Yes,Raw,1,Nikita Vinogradov,Amateur Teen 18-19,1993,95.8,170,-180,180,180,-120,120,-125,120,,210,220,230,230,530,100,M,Никита Виноградов,SBD
Yes,Raw,2,Roman Ledov,Amateur Teen 18-19,1994,93.9,-155,-165,175,175,120,-130,-135,120,,180,200,207.5,207.5,502.5,100,M,Роман Ледов,SBD
Yes,Raw,1,Vladimir Muravyev,Amateur Juniors 20-23,1990,97,180,190,205,205,120,125,-130,125,,230,240,-245,240,570,100,M,Владимир Муравьев,SBD
Yes,Raw,2,Dmitriy Kirsanov,Amateur Juniors 20-23,1988,94.6,160,170,180,180,155,-165,-165,155,,195,205,-215,205,540,100,M,Дмитрий Кирсанов,SBD
Yes,Raw,3,Farkhod Khodzhaev,Amateur Juniors 20-23,1988,91.3,160,170,-180,170,135,-145,145,145,,200,-210,-210,200,515,100,M,Фарход Ходжаев,SBD
Yes,Raw,4,Sergey Lvov,Amateur Juniors 20-23,1990,91.2,-120,120,125,125,100,-105,-105,100,,135,145,152.5,152.5,377.5,100,M,Сергей Львов,SBD
Yes,Raw,1,Konstantin Morozov #1,Amateur Open,1984,100,210,220,-230,220,180,-185,-185,180,,300,-322.5,322.5,322.5,722.5,100,M,Константин Морозов,SBD
Yes,Raw,2,Nikolay Zhukov,Amateur Open,1978,97.3,227.5,240,250,250,170,177.5,-182.5,177.5,,250,262.5,272.5,272.5,700,100,M,Николай Жуков,SBD
Yes,Raw,3,Dmitriy Kurinov,Amateur Open,1974,98.7,210,220,225,225,130,137.5,142.5,142.5,,262.5,-280,-280,262.5,630,100,M,Дмитрий Куринов,SBD
Yes,Raw,4,Aleksey Smirnov,Amateur Open,1977,99.2,200,210,-220,210,140,150,155,155,,245,255,265,265,630,100,M,Алексей Смирнов,SBD
Yes,Raw,5,Mikhail Evstigneev,Amateur Open,1976,99.5,190,200,-210,200,170,175,180,180,,210,220,230,230,610,100,M,Михаил Евстигнеев,SBD
Yes,Raw,6,Arkadiy Denisov,Amateur Open,1987,98.7,200,210,-220,210,137.5,145,150,150,,207.5,215,225,225,585,100,M,Аркадий Денисов,SBD
Yes,Raw,7,Aleksey Vorotnikov,Amateur Open,1980,92.7,160,175,190,190,105,115,120,120,,180,192.5,-200,192.5,502.5,100,M,Алексей Воротников,SBD
Yes,Raw,8,Aleksey Belash,Amateur Open,1982,98.55,140,-150,-155,140,130,140,-145,140,,160,180,-200,180,460,100,M,Алексей Белаш,SBD
Yes,Raw,1,Sergey Bindyukov,Amateur Teen 16-17,1994,100.4,150,-160,160,160,95,105,-110,105,,-170,175,180,180,445,110,M,Сергей Биндюков,SBD
Yes,Raw,1,Roman Efimov,Amateur Juniors 20-23,1988,108.6,190,200,220,220,115,-125,-125,115,,185,-200,-200,185,520,110,M,Роман Ефимов,SBD
Yes,Raw,1,Andrey Poberezhnyy,Amateur Open,1986,102.9,215,225,232.5,232.5,152.5,160,-167.5,160,,270,285,292.5,292.5,685,110,M,Андрей Побережный,SBD
Yes,Raw,2,Aleksandr Kablukov,Amateur Open,1984,109.9,215,225,-235,225,160,-167.5,-167.5,160,,270,280,285,285,670,110,M,Александр Каблуков,SBD
Yes,Raw,3,Aleksandr Kuznetsov #1,Amateur Open,1979,107.8,205,215,220,220,-185,195,200,200,,220,-240,,220,640,110,M,Александр Кузнецов,SBD
Yes,Raw,4,Sergey Shuvalov,Amateur Open,1972,108.6,200,210,220,220,-150,-155,155,155,,240,255,265,265,640,110,M,Сергей Шувалов,SBD
Yes,Raw,5,Andrey Sukharev,Amateur Open,1974,100.9,225,-235,235,235,157.5,-162.5,162.5,162.5,,225,232.5,240,240,637.5,110,M,Андрей Сухарев,SBD
Yes,Raw,6,Stanislav Karpov,Amateur Open,1982,104.1,-205,-205,205,205,150,-152.5,152.5,152.5,,210,217.5,220,220,577.5,110,M,Станислав Карпов,SBD
Yes,Raw,1,Aleksandr Scherbak,Amateur Masters 45-49,1966,108.8,180,190,200,200,140,145,-150,145,,175,185,195,195,540,110,M,Александр Щербак,SBD
Yes,Raw,1,Valentin Palchikov,Amateur Juniors 20-23,1990,122.6,210,220,230,230,160,170,-177.5,170,,220,240,,240,640,125,M,Валентин Пальчиков,SBD
Yes,Raw,1,Evgeniy Baranov,Amateur Open,1982,116.8,240,-255,265,265,160,175,180,180,,270,280,-290,280,725,125,M,Евгений Баранов,SBD
Yes,Raw,2,Dmitry Smirnov,Amateur Open,1978,113.85,245,255,,255,175,185,-190,185,,250,260,272.5,272.5,712.5,125,M,Дмитрий Смирнов,SBD
Yes,Raw,3,Andrey Shmorgun,Amateur Open,1984,112.2,205,215,220,220,170,175,-180,175,,250,260,265,265,660,125,M,Андрей Шморгун,SBD
Yes,Raw,4,Sergey Nikishin,Amateur Open,1971,116,-180,190,210,210,140,147.5,152.5,152.5,,180,195,210,210,572.5,125,M,Сергей Никишин,SBD
Yes,Raw,DQ,Konstantin Agureev,Amateur Open,1975,116.1,-225,-225,-225,,-160,,,,,-250,,,,,125,M,Константин Агуреев,SBD
Yes,Raw,DQ,Sergey Zefirov,Amateur Masters 40-44,1971,115.2,200,220,225,225,-145,-145,-145,,,-220,,,,,125,M,Сергей Зефиров,SBD
Yes,Raw,1,Igor Ziganchin,Amateur Masters 50-54,1960,122,245,255,262.5,262.5,185,192.5,197.5,197.5,,250,265,275,275,735,125,M,Игорь Зиганчин,SBD
Yes,Raw,1,Pavel Mishin,Amateur Open,1973,132.1,190,,,190,140,145,150,150,,240,255,270,270,610,140,M,Павел Мишин,SBD
Yes,Multi-ply,1,Natalya Kolobova,Amateur Open,1982,55.9,-115,-120,120,120,57.5,-60,-60,57.5,,110,117.5,-120.5,117.5,295,56,F,Наталья Колобова,SBD
Yes,Multi-ply,1,Nikolay Savenkov,Amateur Teen 18-19,1993,63.6,145,155,165,165,105,110,-115,110,,150,162.5,175,175,450,67.5,M,Николай Савенков,SBD
Yes,Multi-ply,1,Maksim Borisov,Amateur Teen 18-19,1992,74.1,-200,200,205,205,130,135,140,140,,250,260,-265,260,605,75,M,Максим Борисов,SBD
Yes,Multi-ply,1,Aleksandr Petrov,Amateur Juniors 20-23,1990,73.2,150,160,170,170,127.5,-137.5,-137.5,127.5,,175,190,200,200,497.5,75,M,Александр Петров,SBD
Yes,Multi-ply,1,Maksim Tovstonog,Amateur Open,1983,72.9,200,220,230,230,150,160,165.5,165.5,,205,220,230,230,625.5,75,M,Максим Товстоног,SBD
Yes,Multi-ply,2,Pavel Zubkov,Amateur Open,1985,72.7,170,185,-200,185,110,120,-125,120,,190,200,215,215,520,75,M,Павел Зубков,SBD
Yes,Multi-ply,3,Vladimir Kulakov,Amateur Open,1955,74.95,105,,,105,82.5,90,,90,,120,127.5,,127.5,322.5,75,M,Владимир Кулаков,SBD
Yes,Multi-ply,1,Vladimir Kulakov,Amateur Masters 55-59,1955,74.95,105,,,105,82.5,90,,90,,120,127.5,,127.5,322.5,75,M,Владимир Кулаков,SBD
Yes,Multi-ply,1,Konstantin Sapunkov,Amateur Open,1981,82.4,250,262.5,,262.5,185,195,-202.5,195,,220,230,-240,230,687.5,82.5,M,Константин Сапунков,SBD
Yes,Multi-ply,2,Andrey Karpov,Amateur Open,1985,79.4,-165,-172.5,172.5,172.5,110,115,117.5,117.5,,160,172.5,-180,172.5,462.5,82.5,M,Андрей Карпов,SBD
Yes,Multi-ply,1,Evgeniy Pivovarov,Amateur Juniors 20-23,1988,88.8,250,-260,-280,250,170,180,190,190,,250,-255,,250,690,90,M,Евгений Пивоваров,SBD
Yes,Multi-ply,2,Konstantin Kozlov,Amateur Juniors 20-23,1990,90,50,100,,100,105,115,120,120,,100,150,175,175,395,90,M,Константин Козлов,SBD
Yes,Multi-ply,1,Evgeniy Pivovarov,Amateur Open,1988,88.8,250,-260,-280,250,170,180,190,190,,250,-255,,250,690,90,M,Евгений Пивоваров,SBD
Yes,Multi-ply,2,Aleksandr Voropaev,Amateur Open,1979,87.6,200,215,-225,215,120,130,-137.5,130,,215,225,235,235,580,90,M,Александр Воропаев,SBD
Yes,Multi-ply,1,Denis Boklachev,Amateur Open,1981,93.8,150,165,172.5,172.5,105,115,120,120,,170,185,195,195,487.5,100,M,Денис Боклачев,SBD
Yes,Multi-ply,1,Sergey Polyakov,Amateur Open,1985,106.4,-165,-165,165,165,115,125,-130,125,,170,185,195,195,485,110,M,Сергей Поляков,SBD
Yes,Multi-ply,1,Igor Ziganchin,Amateur Masters 50-54,1960,122,270,280,,280,180,190,195,195,,245,260,270,270,745,125,M,Игорь Зиганчин,SBD
Yes,Raw,1,Viktoriya Yultsova,Amateur Youth,2002,40,,,,,25,27.5,-32.5,27.5,,,,,,27.5,44,F,Виктория Юльцова,B
Yes,Raw,1,Olga Kazantseva,Amateur Masters 50-54,1961,43.9,,,,,37.5,40,42.5,42.5,,,,,,42.5,44,F,Ольга Казанцева,B
Yes,Raw,1,Yuliya Semina,Amateur Teen 16-17,1994,46.5,,,,,35,40,-42.5,40,,,,,,40,48,F,Юлия Семина,B
Yes,Raw,1,Evgeniya Kruglova,Amateur Juniors 20-23,1988,47.6,,,,,40,42.5,45,45,,,,,,45,48,F,Евгения Круглова,B
Yes,Raw,1,Svetlana Fatyukhina,Amateur Teen 16-17,1994,49.1,,,,,45,50,-52.5,50,,,,,,50,52,F,Светлана Фатюхина,B
Yes,Raw,1,Anastasiya Zakhartseva,Amateur Teen 18-19,1992,51.8,,,,,32.5,35,37.5,37.5,,,,,,37.5,52,F,Анастасия Захарцева,B
Yes,Raw,1,Anna Vinogradova,Amateur Open,1985,51.3,,,,,-52.5,52.5,-55,52.5,,,,,,52.5,52,F,Анна Виноградова,B
Yes,Raw,2,Lyudmila Mikhaleva,Amateur Open,1979,50.8,,,,,45,-52.5,-52.5,45,,,,,,45,52,F,Людмила Михалева,B
Yes,Raw,3,Gyuzel Gerasimova,Amateur Open,1980,51.6,,,,,35,-37.5,-37.5,35,,,,,,35,52,F,Гюзель Герасимова,B
Yes,Raw,1,Natalya Marieva,Amateur Masters 40-44,1968,49.6,,,,,52.5,-55,-57.5,52.5,,,,,,52.5,52,F,Наталья Мариева,B
Yes,Raw,1,Nadezhda Vlasova,Amateur Open,1982,54.6,,,,,-62.5,-62.5,62.5,62.5,,,,,,62.5,56,F,Надежда Власова,B
Yes,Raw,1,Galina Isaykina,Amateur Masters 40-44,1967,53.5,,,,,40,45,-47.5,45,,,,,,45,56,F,Галина Исайкина,B
Yes,Raw,1,Irina Lapshova,Amateur Masters 45-49,1964,54.1,,,,,55,57.5,-60,57.5,,,,,,57.5,56,F,Ирина Лапшова,B
Yes,Raw,1,Mariya Rezvykh,Amateur Open,1985,59.7,,,,,55,62.5,-65,62.5,,,,,,62.5,60,F,Мария Резвых,B
Yes,Raw,2,Anastasiya Mayboroda,Amateur Open,1987,60,,,,,35,-40,40,40,,,,,,40,60,F,Анастасия Майборода,B
Yes,Raw,1,Galina Kondratyeva,Amateur Masters 60-64,1952,57.6,,,,,-40,42.5,43.5,43.5,45,,,,,43.5,60,F,Галина Кондратьева,B
Yes,Raw,DQ,Olga Korzun,Amateur Juniors 20-23,1991,65.7,,,,,-45,-50,-50,,,,,,,,67.5,F,Ольга Корзун,B
Yes,Raw,1,Anna Nikolenko,Amateur Masters 40-44,1970,63.8,,,,,55,60,-62.5,60,,,,,,60,67.5,F,Анна Николенко,B
Yes,Raw,1,Nadezhda Petunkina,Amateur Open,1977,69.4,,,,,-65,65,-67.5,65,,,,,,65,75,F,Надежда Петункина,B
Yes,Raw,2,Svetlana Sotnikova,Amateur Open,1983,73.5,,,,,60,-62.5,-65,60,,,,,,60,75,F,Светлана Сотникова,B
Yes,Raw,3,Elena Galkina,Amateur Open,1978,70,,,,,50,55,-57.5,55,,,,,,55,75,F,Елена Галкина,B
Yes,Raw,1,Aleksandr Bubnov,Amateur Teen 13-15,1996,51.6,,,,,52.5,57.5,60,60,,,,,,60,52,M,Александр Бубнов,B
Yes,Raw,1,Vyacheslav Meshkov,Amateur Teen 16-17,1995,51.9,,,,,90,-95,-95,90,,,,,,90,52,M,Вячеслав Мешков,B
Yes,Raw,1,Ivan Gorelkin,Amateur Teen 18-19,1994,51.1,,,,,95,100,-102.5,100,,,,,,100,52,M,Иван Горелкин,B
Yes,Raw,1,Timofey Ivanov,Amateur Teen 18-19,1993,55.6,,,,,70,75,-80,75,,,,,,75,56,M,Тимофей Иванов,B
Yes,Raw,1,Ivan Timofeev,Amateur Teen 13-15,1996,59.9,,,,,-70,72.5,77.5,77.5,,,,,,77.5,60,M,Иван Тимофеев,B
Yes,Raw,1,Timur Vasilchenko,Amateur Teen 16-17,1995,59.9,,,,,90,-97.5,97.5,97.5,,,,,,97.5,60,M,Тимур Васильченко,B
Yes,Raw,2,Aleksandr Lantukh,Amateur Teen 16-17,1996,59.9,,,,,62.5,67.5,-70,67.5,,,,,,67.5,60,M,Александр Лантух,B
Yes,Raw,1,Vitaliy Penkov,Amateur Teen 18-19,1992,58.9,,,,,70,75,77.5,77.5,,,,,,77.5,60,M,Виталий Пеньков,B
Yes,Raw,1,Aleksandr Volkov,Amateur Juniors 20-23,1988,58.8,,,,,107.5,112.5,-120,112.5,,,,,,112.5,60,M,Александр Волков,B
Yes,Raw,2,Denislam Bayguzhin,Amateur Juniors 20-23,1989,59.4,,,,,95,-100,-100,95,,,,,,95,60,M,Денислам Байгужин,B
Yes,Raw,1,Evgeniy Laptev,Amateur Open,1987,57.9,,,,,97.5,-112.5,-112.5,97.5,,,,,,97.5,60,M,Евгений Лаптев,B
Yes,Raw,1,Leonid Muravyev,Amateur Teen 13-15,1998,64.5,,,,,72.5,77.5,80,80,,,,,,80,67.5,M,Леонид Муравьев,B
Yes,Raw,2,Aleksandr Bukharin,Amateur Teen 13-15,1999,66,,,,,65,72.5,-75,72.5,,,,,,72.5,67.5,M,Александр Бухарин,B
Yes,Raw,1,Aleksandr Kuznetsov #22,Amateur Teen 16-17,1994,65.3,,,,,102.5,107.5,112.5,112.5,,,,,,112.5,67.5,M,Александр Кузнецов,B
Yes,Raw,2,Ilya Loginov,Amateur Teen 16-17,1994,66.7,,,,,-107.5,107.5,-112.5,107.5,,,,,,107.5,67.5,M,Илья Логинов,B
Yes,Raw,3,Artur Oganisyan,Amateur Teen 16-17,1994,66,,,,,92.5,97.5,100,100,,,,,,100,67.5,M,Артур Оганисян,B
Yes,Raw,4,Andrey Korolev,Amateur Teen 16-17,1994,65.9,,,,,-75,-77.5,77.5,77.5,,,,,,77.5,67.5,M,Андрей Королев,B
Yes,Raw,1,Evgeniy Zhitomirskiy,Amateur Teen 18-19,1992,66.2,,,,,130,-135,-135,130,,,,,,130,67.5,M,Евгений Житомирский,B
Yes,Raw,1,Nikita Samokhvalov,Amateur Juniors 20-23,1988,63.7,,,,,122.5,127.5,130,130,,,,,,130,67.5,M,Никита Самохвалов,B
Yes,Raw,2,Mikhail Sizov,Amateur Juniors 20-23,1989,65.2,,,,,120,125,130,130,,,,,,130,67.5,M,Михаил Сизов,B
Yes,Raw,3,Nikolay Belyaev,Amateur Juniors 20-23,1988,66.95,,,,,107.5,115,117.5,117.5,,,,,,117.5,67.5,M,Николай Беляев,B
Yes,Raw,4,Maksim Rudakov,Amateur Juniors 20-23,1991,67,,,,,-107.5,107.5,-115,107.5,,,,,,107.5,67.5,M,Максим Рудаков,B
Yes,Raw,5,Dmitriy Zhilin,Amateur Juniors 20-23,1991,64.4,,,,,92.5,97.5,-102.5,97.5,,,,,,97.5,67.5,M,Дмитрий Жилин,B
Yes,Raw,6,Kirill Khukhlaev,Amateur Juniors 20-23,1988,65.7,,,,,87.5,90,-92.5,90,,,,,,90,67.5,M,Кирилл Хухлаев,B
Yes,Raw,7,Nikolay Afonin,Amateur Juniors 20-23,1989,62.7,,,,,-80,80,-87.5,80,,,,,,80,67.5,M,Николай Афонин,B
Yes,Raw,1,Sergey Galitskiy,Amateur Open,1987,65.5,,,,,-135,135,140.5,140.5,-142.5,,,,,140.5,67.5,M,Сергей Галицкий,B
Yes,Raw,2,Evgeniy Zhitomirskiy,Amateur Open,1992,66.2,,,,,130,,,130,,,,,,130,67.5,M,Евгений Житомирский,B
Yes,Raw,3,Maksim Ibraev,Amateur Open,1987,67.5,,,,,125,130,-140,130,,,,,,130,67.5,M,Максим Ибраев,B
Yes,Raw,4,Vadim Sudakov,Amateur Open,1975,65.8,,,,,-90,-90,90,90,,,,,,90,67.5,M,Вадим Судаков,B
Yes,Raw,DQ,Dmitriy Zhuravlev,Amateur Open,1986,66,,,,,-97.5,-97.5,,,,,,,,,67.5,M,Дмитрий Журавлев,B
Yes,Raw,1,Georgiy Dubrovin,Amateur Teen 13-15,1997,68.7,,,,,92.5,97.5,100,100,,,,,,100,75,M,Георгий Дубровин,B
Yes,Raw,1,Aleksey Stepanov,Amateur Teen 18-19,1992,69.1,,,,,110,117.5,-122.5,117.5,,,,,,117.5,75,M,Алексей Степанов,B
Yes,Raw,2,Vladislav Tischenkov,Amateur Teen 18-19,1992,74,,,,,85,95,-105,95,,,,,,95,75,M,Владислав Тищенков,B
Yes,Raw,1,Sergey Denisov,Amateur Juniors 20-23,1988,72.2,,,,,155,-162.5,-162.5,155,,,,,,155,75,M,Сергей Денисов,B
Yes,Raw,2,Mikhail Bakulin,Amateur Juniors 20-23,1988,74.7,,,,,-135,135,140,140,,,,,,140,75,M,Михаил Бакулин,B
Yes,Raw,3,Anton Tatarinov,Amateur Juniors 20-23,1988,72.1,,,,,135,-140,-140,135,,,,,,135,75,M,Антон Татаринов,B
Yes,Raw,4,Denis Goncharov,Amateur Juniors 20-23,1989,74.9,,,,,135,-145,-145,135,,,,,,135,75,M,Денис Гончаров,B
Yes,Raw,5,Maksim Popov #5,Amateur Juniors 20-23,1991,74.7,,,,,130,-135,-135,130,,,,,,130,75,M,Максим Попов,B
Yes,Raw,6,Vladimir Yusimov,Amateur Juniors 20-23,1991,71.1,,,,,120,125,-130,125,,,,,,125,75,M,Владимир Юсимов,B
Yes,Raw,7,Stanislav Repinskas,Amateur Juniors 20-23,1990,74.3,,,,,-115,115,120,120,,,,,,120,75,M,Станислав Репинскас,B
Yes,Raw,8,Vladislav Dolgopolov,Amateur Juniors 20-23,1991,73.7,,,,,117.5,-122.5,-122.5,117.5,,,,,,117.5,75,M,Владислав Долгополов,B
Yes,Raw,9,Vladimir Kochetkov,Amateur Juniors 20-23,1990,73.7,,,,,117.5,-122.5,-122.5,117.5,,,,,,117.5,75,M,Владимир Кочетков,B
Yes,Raw,10,Pavel Bushuev,Amateur Juniors 20-23,1990,72.4,,,,,100,110,-117.5,110,,,,,,110,75,M,Павел Бушуев,B
Yes,Raw,11,Grigoriy Kirdyashkin,Amateur Juniors 20-23,1988,75,,,,,110,-117.5,-117.5,110,,,,,,110,75,M,Григорий Кирдяшкин,B
Yes,Raw,DQ,Dmitriy Shvetsov,Amateur Juniors 20-23,1988,73.9,,,,,-140,-140,,,,,,,,,75,M,Дмитрий Швецов,B
Yes,Raw,1,Aleksey Roslovets,Amateur Open,1977,73.3,,,,,137.5,142.5,-145,142.5,,,,,,142.5,75,M,Алексей Рословец,B
Yes,Raw,2,Aleksandr Sereda,Amateur Open,1988,70.2,,,,,132.5,137.5,140,140,,,,,,140,75,M,Александр Середа,B
Yes,Raw,3,Andrey Petrov,Amateur Open,1979,72.9,,,,,120,135,140,140,,,,,,140,75,M,Андрей Петров,B
Yes,Raw,4,Dmitriy Firsaev,Amateur Open,1983,74.7,,,,,137.5,140,-145,140,,,,,,140,75,M,Дмитрий Фирсаев,B
Yes,Raw,5,Aleksey Volkov,Amateur Open,1982,74.9,,,,,135,-140,-140,135,,,,,,135,75,M,Алексей Волков,B
Yes,Raw,6,Sergey Schukin,Amateur Open,1988,70.5,,,,,120,125,-132.5,125,,,,,,125,75,M,Сергей Щукин,B
Yes,Raw,7,Nikolay Balugin,Amateur Open,1987,72.6,,,,,125,-130,-130,125,,,,,,125,75,M,Николай Балугин,B
Yes,Raw,8,Aleksandr Butrin,Amateur Open,1987,72.5,,,,,110,117.5,122.5,122.5,,,,,,122.5,75,M,Александр Бутрин,B
Yes,Raw,9,Oleg Mokrov,Amateur Open,1976,74.5,,,,,-117.5,117.5,-120,117.5,,,,,,117.5,75,M,Олег Мокров,B
Yes,Raw,10,Sergey Lyaschenko,Amateur Open,1986,71.4,,,,,-100,105,-117.5,105,,,,,,105,75,M,Сергей Лященко,B
Yes,Raw,11,Vladimir Kulakov,Amateur Open,1955,74.95,,,,,82.5,90,,90,,,,,,90,75,M,Владимир Кулаков,B
Yes,Raw,DQ,Aleksandr Lebedev,Amateur Open,1986,68.3,,,,,-100,,,,,,,,,,75,M,Александр Лебедев,B
Yes,Raw,DQ,Aleksey Breshin,Amateur Open,1984,74.1,,,,,-110,-110,-110,,,,,,,,75,M,Алексей Брешин,B
Yes,Raw,1,Igor Kovalev #1,Amateur Masters 50-54,1957,74.9,,,,,130,137.5,-145,137.5,,,,,,137.5,75,M,Игорь Ковалев,B
Yes,Raw,1,Vladimir Kulakov,Amateur Masters 55-59,1955,74.95,,,,,82.5,90,,90,,,,,,90,75,M,Владимир Кулаков,B
Yes,Raw,1,Vladimir Kornishin,Amateur Masters 60-64,1952,74.9,,,,,112.5,117.5,-120,117.5,,,,,,117.5,75,M,Владимир Корнишин,B
Yes,Raw,1,Kirill Starostin,Amateur Teen 13-15,1996,78.5,,,,,85,90,-92.5,90,,,,,,90,82.5,M,Кирилл Старостин,B
Yes,Raw,2,Dmitriy Karpenkov,Amateur Teen 13-15,1996,82.4,,,,,80,85,87.5,87.5,,,,,,87.5,82.5,M,Дмитрий Карпенков,B
Yes,Raw,1,Maksim Popkov,Amateur Teen 16-17,1994,80.9,,,,,120,127.5,-132.5,127.5,,,,,,127.5,82.5,M,Максим Попков,B
Yes,Raw,2,Aleksandr Letynskiy,Amateur Teen 16-17,1994,80.5,,,,,115,120,122.5,122.5,,,,,,122.5,82.5,M,Александр Летынский,B
Yes,Raw,3,Artem Kozlov,Amateur Teen 16-17,1994,78.3,,,,,95,102.5,-105,102.5,,,,,,102.5,82.5,M,Артем Козлов,B
Yes,Raw,1,Anton Nelyapin,Amateur Juniors 20-23,1990,82.4,,,,,135,145,150,150,,,,,,150,82.5,M,Антон Неляпин,B
Yes,Raw,2,Andrey Putyatin,Amateur Juniors 20-23,1991,78.9,,,,,130,140,-142.5,140,,,,,,140,82.5,M,Андрей Путятин,B
Yes,Raw,3,Sergey Kokorev,Amateur Juniors 20-23,1990,79.9,,,,,130,135,140,140,,,,,,140,82.5,M,Сергей Кокорев,B
Yes,Raw,4,Aleksey Kalinochkin,Amateur Juniors 20-23,1988,81.7,,,,,-140,140,-145,140,,,,,,140,82.5,M,Алексей Калиночкин,B
Yes,Raw,5,Mikhail Rakul,Amateur Juniors 20-23,1988,81.2,,,,,130,137.5,,137.5,,,,,,137.5,82.5,M,Михаил Ракуль,B
Yes,Raw,6,Mikhail Sadekov,Amateur Juniors 20-23,1989,78.2,,,,,127.5,132.5,135,135,,,,,,135,82.5,M,Михаил Садеков,B
Yes,Raw,7,Aleksey Makarov,Amateur Juniors 20-23,1990,82,,,,,127.5,-130,-130,127.5,,,,,,127.5,82.5,M,Алексей Макаров,B
Yes,Raw,8,Sergey Azopkov,Amateur Juniors 20-23,1991,80.2,,,,,110,117.5,-122.5,117.5,,,,,,117.5,82.5,M,Сергей Азопков,B
Yes,Raw,9,Grigoriy Fyrnin,Amateur Juniors 20-23,1989,79.2,,,,,102.5,112.5,-127.5,112.5,,,,,,112.5,82.5,M,Григорий Фырнин,B
Yes,Raw,10,Dmitriy Klyukin,Amateur Juniors 20-23,1989,79.7,,,,,112.5,-117.5,-117.5,112.5,,,,,,112.5,82.5,M,Дмитрий Клюкин,B
Yes,Raw,11,Vadim Kisurkin,Amateur Juniors 20-23,1988,77.8,,,,,90,97.5,-102.5,97.5,,,,,,97.5,82.5,M,Вадим Кисуркин,B
Yes,Raw,DQ,Evgeniy Skobenkov,Amateur Juniors 20-23,1990,80.1,,,,,-120,-120,-120,,,,,,,,82.5,M,Евгений Скобенков,B
Yes,Raw,DQ,Aleksey Trofimov,Amateur Juniors 20-23,1989,80.6,,,,,-132.5,-132.5,-132.5,,,,,,,,82.5,M,Алексей Трофимов,B
Yes,Raw,1,Aleksandr Drosin,Amateur Open,1982,81.4,,,,,165,172.5,-180,172.5,,,,,,172.5,82.5,M,Александр Дросин,B
Yes,Raw,2,Artem Larionov,Amateur Open,1978,78,,,,,170,-172.5,,170,,,,,,170,82.5,M,Артем Ларионов,B
Yes,Raw,3,Vladimir Schegolkov,Amateur Open,1973,80.4,,,,,157.5,160,-167.5,160,,,,,,160,82.5,M,Владимир Щегольков,B
Yes,Raw,4,Aleksey Potemkin,Amateur Open,1983,81.4,,,,,135,145,152.5,152.5,,,,,,152.5,82.5,M,Алексей Потемкин,B
Yes,Raw,5,Vladislav Girko,Amateur Open,1987,79.9,,,,,137.5,145,150,150,,,,,,150,82.5,M,Владислав Гирко,B
Yes,Raw,6,Aleksandr Olisov,Amateur Open,1982,80.3,,,,,145,150,-157.5,150,,,,,,150,82.5,M,Александр Олисов,B
Yes,Raw,7,Ruslan Shlykov,Amateur Open,1974,82.4,,,,,145,150,-155,150,,,,,,150,82.5,M,Руслан Шлыков,B
Yes,Raw,8,Denis Nemchinov,Amateur Open,1987,79,,,,,140,145,-152.5,145,,,,,,145,82.5,M,Денис Немчинов,B
Yes,Raw,9,Stanislav Kuznetsov #3,Amateur Open,1985,78.4,,,,,140,-145,-145,140,,,,,,140,82.5,M,Станислав Кузнецов,B
Yes,Raw,10,Leonid Shpynov,Amateur Open,1987,81.8,,,,,130,132.5,-135,132.5,,,,,,132.5,82.5,M,Леонид Шпынов,B
Yes,Raw,11,Roman Slesarev,Amateur Open,1976,80,,,,,-127.5,127.5,-145,127.5,,,,,,127.5,82.5,M,Роман Слесарев,B
Yes,Raw,12,Andrey Panasyuk,Amateur Open,1986,80.9,,,,,127.5,-132.5,,127.5,,,,,,127.5,82.5,M,Андрей Панасюк,B
Yes,Raw,13,Igor Busarov,Amateur Open,1979,81.7,,,,,-120,127.5,-132.5,127.5,,,,,,127.5,82.5,M,Игорь Бусаров,B
Yes,Raw,14,Aleksey Davydov,Amateur Open,1984,81.9,,,,,120,-127.5,127.5,127.5,,,,,,127.5,82.5,M,Алексей Давыдов,B
Yes,Raw,15,Aleksey Reshinskiy,Amateur Open,1986,80.2,,,,,115,120,-122.5,120,,,,,,120,82.5,M,Алексей Решинский,B
Yes,Raw,16,Sergey Komkov,Amateur Open,1987,81.1,,,,,115,-122.5,-127.5,115,,,,,,115,82.5,M,Сергей Комков,B
Yes,Raw,17,Anatoliy Rylov,Amateur Open,1986,78.3,,,,,107.5,-112.5,-112.5,107.5,,,,,,107.5,82.5,M,Анатолий Рылов,B
Yes,Raw,DQ,Aleksey Silantyev,Amateur Open,1984,81.2,,,,,-132.5,-132.5,,,,,,,,,82.5,M,Алексей Силантьев,B
Yes,Raw,1,Ilya Timofeev,Amateur Masters 40-44,1970,81.6,,,,,135,-140,-145,135,,,,,,135,82.5,M,Илья Тимофеев,B
Yes,Raw,2,Vadim Zhilin,Amateur Masters 40-44,1968,81.3,,,,,102.5,-107.5,-107.5,102.5,,,,,,102.5,82.5,M,Вадим Жилин,B
Yes,Raw,1,Vladimir Kobets,Amateur Masters 45-49,1966,76.9,,,,,100,105,-110,105,,,,,,105,82.5,M,Владимир Кобец,B
Yes,Raw,1,Vyacheslav Stanchak,Amateur Masters 55-59,1952,81.7,,,,,140,142.5,145,145,,,,,,145,82.5,M,Вячеслав Станчак,B
Yes,Raw,1,Anton Egorov,Amateur Teen 13-15,1996,88.3,,,,,-95,-95,95,95,,,,,,95,90,M,Антон Егоров,B
Yes,Raw,1,Evgeniy Pivovarov,Amateur Juniors 20-23,1988,88.8,,,,,160,165,170,170,,,,,,170,90,M,Евгений Пивоваров,B
Yes,Raw,2,Stanislav Rybalchenko,Amateur Juniors 20-23,1988,88.9,,,,,142.5,155,-162.5,155,,,,,,155,90,M,Станислав Рыбальченко,B
Yes,Raw,3,Valeriy Babushkin,Amateur Juniors 20-23,1990,87.1,,,,,145,152.5,-162.5,152.5,,,,,,152.5,90,M,Валерий Бабушкин,B
Yes,Raw,4,Alexandr Burdeynyy,Amateur Juniors 20-23,1990,87.9,,,,,145,152.5,-160,152.5,,,,,,152.5,90,M,Александр Бурдейный,B
Yes,Raw,5,Aleksey Ivachev,Amateur Juniors 20-23,1990,84.6,,,,,-125,-125,125,125,,,,,,125,90,M,Алексей Ивачев,B
Yes,Raw,6,Denis Akimov,Amateur Juniors 20-23,1988,86.7,,,,,120,-130,,120,,,,,,120,90,M,Денис Акимов,B
Yes,Raw,DQ,Igor Nasibulin,Amateur Juniors 20-23,1991,88.1,,,,,-145,-145,-145,,,,,,,,90,M,Игорь Насибулин,B
Yes,Raw,1,Aleksey Kotov,Amateur Open,1974,89.9,,,,,170,180,185,185,,,,,,185,90,M,Алексей Котов,B
Yes,Raw,2,Mikhail Pukhov,Amateur Open,1975,89.9,,,,,155,162.5,167.5,167.5,,,,,,167.5,90,M,Михаил Пухов,B
Yes,Raw,3,Igor Shmorgun,Amateur Open,1983,85.1,,,,,155,160,165,165,,,,,,165,90,M,Игорь Шморгун,B
Yes,Raw,4,Dmitriy Moskvitin,Amateur Open,1983,87,,,,,155,165,-167.5,165,,,,,,165,90,M,Дмитрий Москвитин,B
Yes,Raw,5,Andrey Grigoryev,Amateur Open,1975,88.9,,,,,160,165,-167.5,165,,,,,,165,90,M,Андрей Григорьев,B
Yes,Raw,6,Taras Rudenko,Amateur Open,1981,87.9,,,,,145,152.5,160,160,,,,,,160,90,M,Тарас Руденко,B
Yes,Raw,7,Andrey Surovikov,Amateur Open,1986,83.1,,,,,145,152.5,155,155,,,,,,155,90,M,Андрей Суровиков,B
Yes,Raw,8,Viktor Kudimov,Amateur Open,1983,87.1,,,,,155,-160,-160,155,,,,,,155,90,M,Виктор Кудимов,B
Yes,Raw,9,Maksim Sakun,Amateur Open,1987,88.3,,,,,155,-160,-162.5,155,,,,,,155,90,M,Максим Сакун,B
Yes,Raw,10,Yuriy Kalachev,Amateur Open,1982,88.6,,,,,140,155,-160,155,,,,,,155,90,M,Юрий Калачев,B
Yes,Raw,11,Evgeniy Varfolomeev,Amateur Open,1982,87.2,,,,,140,152.5,-155,152.5,,,,,,152.5,90,M,Евгений Варфоломеев,B
Yes,Raw,12,Sergey Tesaruk,Amateur Open,1984,89.7,,,,,140,152.5,-155,152.5,,,,,,152.5,90,M,Сергей Тесарук,B
Yes,Raw,13,Oleg Torubarov,Amateur Open,1984,89.9,,,,,-145,-152.5,152.5,152.5,,,,,,152.5,90,M,Олег Торубаров,B
Yes,Raw,14,Dmitriy Panov,Amateur Open,1983,89.1,,,,,145,-152.5,-152.5,145,,,,,,145,90,M,Дмитрий Панов,B
Yes,Raw,15,Aleksandr Tsaplin,Amateur Open,1987,89.3,,,,,145,-152.5,-152.5,145,,,,,,145,90,M,Александр Цаплин,B
Yes,Raw,16,Aleksandr Zatimov,Amateur Open,1987,84.6,,,,,132.5,140,-152.5,140,,,,,,140,90,M,Александр Затимов,B
Yes,Raw,17,Vyacheslav Novikov,Amateur Open,1985,84.8,,,,,140,-152.5,-152.5,140,,,,,,140,90,M,Вячеслав Новиков,B
Yes,Raw,18,Petr Dvurechenskiy,Amateur Open,1986,88.9,,,,,140,-152.5,-152.5,140,,,,,,140,90,M,Петр Двуреченский,B
Yes,Raw,19,Vladimir Danilov,Amateur Open,1976,89.4,,,,,130,137.5,-145,137.5,,,,,,137.5,90,M,Владимир Данилов,B
Yes,Raw,20,Magomed Gasiev,Amateur Open,1983,89.9,,,,,137.5,-152.5,-152.5,137.5,,,,,,137.5,90,M,Магомед Гасиев,B
Yes,Raw,21,Aleksandr Lebedev,Amateur Open,1986,84.9,,,,,127.5,132.5,-137.5,132.5,,,,,,132.5,90,M,Александр Лебедев,B
Yes,Raw,22,Evgeniy Lazarev,Amateur Open,1983,87,,,,,120,125,-130,125,,,,,,125,90,M,Евгений Лазарев,B
Yes,Raw,23,Aleksey Borodulya,Amateur Open,1977,87.5,,,,,-120,120,-125,120,,,,,,120,90,M,Алексей Бородуля,B
Yes,Raw,24,Oleg Morschak,Amateur Open,1970,87.7,,,,,120,-132.5,-132.5,120,,,,,,120,90,M,Олег Морщак,B
Yes,Raw,25,Sergey Cherenko,Amateur Open,1987,89.7,,,,,100,-105,-105,100,,,,,,100,90,M,Сергей Черенко,B
Yes,Raw,DQ,Aleksandr Lebedev,Amateur Open,1986,84.9,,,,,-127.5,,,,,,,,,,90,M,Александр Лебедев,B
Yes,Raw,DQ,Vladimir Krupnov,Amateur Open,1985,86.5,,,,,-92.5,,,,,,,,,,90,M,Владимир Крупнов,B
Yes,Raw,1,Sergey Yarochkin,Amateur Masters 40-44,1971,86.1,,,,,142,147.5,152.5,152.5,,,,,,152.5,90,M,Сергей Ярочкин,B
Yes,Raw,2,Pavel Zhirnov,Amateur Masters 40-44,1971,88.6,,,,,145,-150,150,150,,,,,,150,90,M,Павел Жирнов,B
Yes,Raw,3,Igor Sirotkin,Amateur Masters 40-44,1970,89.1,,,,,142.5,147.5,-152.5,147.5,,,,,,147.5,90,M,Игорь Сироткин,B
Yes,Raw,4,Dmitriy Nikanorov,Amateur Masters 40-44,1971,88.8,,,,,-140,-140,140,140,,,,,,140,90,M,Дмитрий Никаноров,B
Yes,Raw,1,Sergey Silionov,Amateur Masters 45-49,1965,87.5,,,,,120,132.5,137.5,137.5,,,,,,137.5,90,M,Сергей Силионов,B
Yes,Raw,2,Aleksandr Chepurnoy,Amateur Masters 45-49,1964,89.4,,,,,-100,110,120,120,,,,,,120,90,M,Александр Чепурной,B
Yes,Raw,3,Eduard Vladimirov,Amateur Masters 45-49,1966,89.1,,,,,-112.5,115,-117.5,115,,,,,,115,90,M,Эдуард Владимиров,B
Yes,Raw,1,Andrey Salov,Amateur Masters 50-54,1959,88.65,,,,,140,150,-155,150,,,,,,150,90,M,Андрей Салов,B
Yes,Raw,2,Andrey Makevnin,Amateur Masters 50-54,1961,85.8,,,,,110,117.5,-122.5,117.5,,,,,,117.5,90,M,Андрей Макевнин,B
Yes,Raw,1,Daniil Savik,Amateur Teen 18-19,1992,98.5,,,,,135,150,155,155,,,,,,155,100,M,Даниил Савик,B
Yes,Raw,1,Dmitriy Kirsanov,Amateur Juniors 20-23,1988,94.6,,,,,155,162.5,-167.5,162.5,,,,,,162.5,100,M,Дмитрий Кирсанов,B
Yes,Raw,2,Ignatiy Maykov,Amateur Juniors 20-23,1990,97.3,,,,,130,140,150,150,,,,,,150,100,M,Игнатий Майков,B
Yes,Raw,3,Egor Kuznetsov,Amateur Juniors 20-23,1991,92.5,,,,,100,112.5,-125,112.5,,,,,,112.5,100,M,Егор Кузнецов,B
Yes,Raw,1,Pavel Milovanov,Amateur Open,1977,99.6,,,,,192.5,197.5,-200,197.5,,,,,,197.5,100,M,Павел Милованов,B
Yes,Raw,2,Maksim Koteshkov,Amateur Open,1980,97,,,,,175,185,-187.5,185,,,,,,185,100,M,Максим Котешков,B
Yes,Raw,3,Mikhail Evstigneev,Amateur Open,1976,99.5,,,,,175,180,185,185,,,,,,185,100,M,Михаил Евстигнеев,B
Yes,Raw,4,Aleksey Stolyarov,Amateur Open,1986,96,,,,,172.5,177.5,-182.5,177.5,,,,,,177.5,100,M,Алексей Столяров,B
Yes,Raw,5,Andrey Martirosov,Amateur Open,1984,96.4,,,,,175,-180,-185,175,,,,,,175,100,M,Андрей Мартиросов,B
Yes,Raw,6,Ilya Karmishin,Amateur Open,1984,95.6,,,,,150,162.5,172.5,172.5,,,,,,172.5,100,M,Илья Кармишин,B
Yes,Raw,7,Ilya Ustinov,Amateur Open,1980,97,,,,,160,165,170,170,,,,,,170,100,M,Илья Устинов,B
Yes,Raw,8,Ivan Ivanov #16,Amateur Open,1969,98.1,,,,,155,162.5,165,165,,,,,,165,100,M,Иван Иванов,B
Yes,Raw,9,Vladimir Solopenkov,Amateur Open,1986,94.3,,,,,150,162.5,-175,162.5,,,,,,162.5,100,M,Владимир Солопенков,B
Yes,Raw,10,Ivan Evdokimov,Amateur Open,1964,96.2,,,,,155,162.5,-170,162.5,,,,,,162.5,100,M,Иван Евдокимов,B
Yes,Raw,12,Boris Vasilyev,Amateur Open,1978,98.2,,,,,162.5,-167.5,-167.5,162.5,,,,,,162.5,100,M,Борис Васильев,B
Yes,Raw,13,Ivan Basikhin,Amateur Open,1984,98.7,,,,,150,162.5,-165,162.5,,,,,,162.5,100,M,Иван Басихин,B
Yes,Raw,14,Vadim Drozdov,Amateur Open,1973,98.8,,,,,150,-162.5,162.5,162.5,,,,,,162.5,100,M,Вадим Дроздов,B
Yes,Raw,15,Dmitriy Zhelnov,Amateur Open,1986,100,,,,,155,162.5,-170,162.5,,,,,,162.5,100,M,Дмитрий Желнов,B
Yes,Raw,16,Dmitriy Barkov,Amateur Open,1984,95,,,,,150,-160,160,160,,,,,,160,100,M,Дмитрий Барков,B
Yes,Raw,17,Sergey Teplenin,Amateur Open,1979,95.4,,,,,145,155,-160,155,,,,,,155,100,M,Сергей Тепленин,B
Yes,Raw,18,Aleksey Pustovoytov,Amateur Open,1984,92.2,,,,,140,150,-160,150,,,,,,150,100,M,Алексей Пустовойтов,B
Yes,Raw,19,Yuriy Stepanov,Amateur Open,1979,93,,,,,135,140,150,150,,,,,,150,100,M,Юрий Степанов,B
Yes,Raw,20,Kirill Denisov,Amateur Open,1977,96.4,,,,,150,-162.5,-162.5,150,,,,,,150,100,M,Кирилл Денисов,B
Yes,Raw,21,Aleksey Belash,Amateur Open,1982,98.6,,,,,130,147.5,150,150,,,,,,150,100,M,Алексей Белаш,B
Yes,Raw,22,Aleksandr Kuzin,Amateur Open,1980,99.9,,,,,145,150,-155,150,,,,,,150,100,M,Александр Кузин,B
Yes,Raw,23,Ilya Lednev,Amateur Open,1972,96.8,,,,,145,-162.5,-162.5,145,,,,,,145,100,M,Илья Леднев,B
Yes,Raw,24,Aleksandr Solovyev,Amateur Open,1977,98.7,,,,,140,-145,,140,,,,,,140,100,M,Александр Соловьев,B
Yes,Raw,25,Mikhail Rubtsov,Amateur Open,1974,99.2,,,,,-140,-140,140,140,,,,,,140,100,M,Михаил Рубцов,B
Yes,Raw,26,Sergey Mishenin,Amateur Open,1978,94.9,,,,,115,125,130,130,,,,,,130,100,M,Сергей Мишенин,B
Yes,Raw,27,Oleg Chuksin,Amateur Open,1975,97.4,,,,,125,-135,-140,125,,,,,,125,100,M,Олег Чуксин,B
Yes,Raw,DQ,Sergey Sholom,Amateur Open,1978,95.7,,,,,-150,-162.5,-172.5,,,,,,,,100,M,Сергей Шолом,B
Yes,Raw,DQ,Roman Zverev,Amateur Open,1976,98.8,,,,,-162.5,-162.5,-162.5,,,,,,,,100,M,Роман Зверев,B
Yes,Raw,DD,Igor Chernyavskiy,Amateur Open,1984,97.6,,,,,155,-162.5,162.5,162.5,,,,,,,100,M,Игорь Чернявский,B
Yes,Raw,1,Aleksandr Aristov,Amateur Masters 40-44,1970,91.1,,,,,-160,170,175,175,,,,,,175,100,M,Александр Аристов,B
Yes,Raw,2,Mikhail Chepurnoy,Amateur Masters 40-44,1970,97,,,,,112.5,125,132.5,132.5,,,,,,132.5,100,M,Михаил Чепурной,B
Yes,Raw,DQ,Denis Rzhevskiy,Amateur Masters 40-44,1971,97.3,,,,,-180,-180,-180,,,,,,,,100,M,Денис Ржевский,B
Yes,Raw,1,Aleksandr Mishustin,Amateur Masters 45-49,1964,99,,,,,130,-140,142.5,142.5,,,,,,142.5,100,M,Александр Мишустин,B
Yes,Raw,2,Aleksey Artemov,Amateur Masters 45-49,1966,96.8,,,,,130,137.5,-140,137.5,,,,,,137.5,100,M,Алексей Артемов,B
Yes,Raw,3,Aleksey Stepyshev,Amateur Masters 45-49,1963,96.8,,,,,130,-135,-135,130,,,,,,130,100,M,Алексей Степышев,B
Yes,Raw,4,Andrey Nekrasov,Amateur Masters 45-49,1964,94.2,,,,,120,-130,,120,,,,,,120,100,M,Андрей Некрасов,B
Yes,Raw,1,Boris Astafyev,Amateur Masters 50-54,1960,92.1,,,,,140,145,150,150,,,,,,150,100,M,Борис Астафьев,B
Yes,Raw,2,Nikolay Dergachev,Amateur Masters 50-54,1960,99,,,,,130,137.5,-140,137.5,,,,,,137.5,100,M,Николай Дергачев,B
Yes,Raw,1,Nikita Anisimov,Amateur Juniors 20-23,1988,106.9,,,,,170,-180,180,180,,,,,,180,110,M,Никита Анисимов,B
Yes,Raw,1,Denis Grebnev,Amateur Open,1986,103.1,,,,,230,-235,-235,230,,,,,,230,110,M,Денис Гребнев,B
Yes,Raw,2,Dmitriy Mukhin,Amateur Open,1983,104.6,,,,,185,192.5,-195,192.5,,,,,,192.5,110,M,Дмитрий Мухин,B
Yes,Raw,3,Ivan Matyushenko,Amateur Open,1984,108.4,,,,,185,190,-197.5,190,,,,,,190,110,M,Иван Матюшенко,B
Yes,Raw,4,Sergey Timchenko,Amateur Open,1979,109.4,,,,,170,180,187.5,187.5,,,,,,187.5,110,M,Сергей Тимченко,B
Yes,Raw,5,Aleksandr Kuznetsov #1,Amateur Open,1979,107.8,,,,,185,-195,-200,185,,,,,,185,110,M,Александр Кузнецов,B
Yes,Raw,6,Evgeniy Ovsyannikov,Amateur Open,1983,109.8,,,,,175,180,-185,180,,,,,,180,110,M,Евгений Овсянников,B
Yes,Raw,7,Roman Shevtsov,Amateur Open,1982,104,,,,,170,-180,-180,170,,,,,,170,110,M,Роман Шевцов,B
Yes,Raw,8,Evgeniy Kirsanov,Amateur Open,1986,108,,,,,152.5,160,167.5,167.5,,,,,,167.5,110,M,Евгений Кирсанов,B
Yes,Raw,9,Aleksey Gavshin,Amateur Open,1978,108.5,,,,,160,165,-167.5,165,,,,,,165,110,M,Алексей Гавшин,B
Yes,Raw,10,Aleksey Korovushkin,Amateur Open,1985,108.5,,,,,160,-170,,160,,,,,,160,110,M,Алексей Коровушкин,B
Yes,Raw,11,Arsen Gazzaev,Amateur Open,1973,109.4,,,,,155,160,-167.5,160,,,,,,160,110,M,Арсен Газзаев,B
Yes,Raw,12,Denis Borozna,Amateur Open,1972,108.1,,,,,157.5,-165,-167.5,157.5,,,,,,157.5,110,M,Денис Борозна,B
Yes,Raw,13,Mikhail Stenin,Amateur Open,1982,102.6,,,,,140,-150,-150,140,,,,,,140,110,M,Михаил Стенин,B
Yes,Raw,14,Sergey Gershtanskiy,Amateur Open,1974,107.4,,,,,-140,140,-147.5,140,,,,,,140,110,M,Сергей Герштанский,B
Yes,Raw,DQ,Ilya Kurtsev,Amateur Open,1985,103.1,,,,,-200,-200,-200,,,,,,,,110,M,Илья Курцев,B
Yes,Raw,DQ,Dmitriy Leontyev,Amateur Open,1981,107.3,,,,,-170,-170,-170,,,,,,,,110,M,Дмитрий Леонтьев,B
Yes,Raw,DQ,Sergey Povstanyuk,Amateur Open,1985,107.5,,,,,-140,-140,-140,,,,,,,,110,M,Сергей Повстанюк,B
Yes,Raw,1,Leonid Baryagin,Amateur Masters 50-54,1961,109.9,,,,,145,150,-155,150,,,,,,150,110,M,Леонид Барягин,B
Yes,Raw,1,Andrei Zavgorodnyy,Amateur Open,1981,123.4,,,,,235,242.5,-250,242.5,,,,,,242.5,125,M,Андрей Завгородный,B
Yes,Raw,2,Denis Ogloblin,Amateur Open,1967,118.9,,,,,202.5,207.5,,207.5,,,,,,207.5,125,M,Денис Оглоблин,B
Yes,Raw,3,Yuriy Gordyakov,Amateur Open,1976,125,,,,,202.5,-210,-210,202.5,,,,,,202.5,125,M,Юрий Гордяков,B
Yes,Raw,4,Anton Vildanov,Amateur Open,1980,117.2,,,,,190,-200,200,200,,,,,,200,125,M,Антон Вильданов,B
Yes,Raw,5,Aleksey Chilikin,Amateur Open,1980,112,,,,,190,-200,-200,190,,,,,,190,125,M,Алексей Чиликин,B
Yes,Raw,6,Igor Golovanov,Amateur Open,1983,115.8,,,,,170,175,177.5,177.5,,,,,,177.5,125,M,Игорь Голованов,B
Yes,Raw,7,Sergey Radchenko,Amateur Open,1980,114.5,,,,,-160,160,167.5,167.5,,,,,,167.5,125,M,Сергей Радченко,B
Yes,Raw,8,Sergey Rykov,Amateur Open,1965,120.3,,,,,155,165,-175,165,,,,,,165,125,M,Сергей Рыков,B
Yes,Raw,9,Aleksandr Malyshev,Amateur Open,1981,119.8,,,,,160,-177.5,-177.5,160,,,,,,160,125,M,Александр Малышев,B
Yes,Raw,1,Denis Ogloblin,Amateur Masters 40-44,1967,118.9,,,,,202.5,207.5,-210,207.5,,,,,,207.5,125,M,Денис Оглоблин,B
Yes,Raw,2,Mikhail Azhnin,Amateur Masters 40-44,1971,112.3,,,,,165,-175,-175,165,,,,,,165,125,M,Михаил Ажнин,B
Yes,Raw,1,Vasily Chernyshenko,Amateur Masters 45-49,1963,119.1,,,,,150,157.5,162.5,162.5,-165,,,,,162.5,125,M,Василий Чернышенко,B
Yes,Raw,1,Igor Ziganchin,Amateur Masters 50-54,1960,122,,,,,185,190,192.5,192.5,,,,,,192.5,125,M,Игорь Зиганчин,B
Yes,Raw,1,Aleksandr Semenov,Amateur Open,1966,139.1,,,,,190,205,215,215,,,,,,215,140,M,Александр Семенов,B
Yes,Raw,2,Boris Trofimov,Amateur Open,1972,136.4,,,,,195,205,210,210,,,,,,210,140,M,Борис Трофимов,B
Yes,Raw,3,Sergey Kananadze,Amateur Open,1980,130.9,,,,,157.5,165,170,170,,,,,,170,140,M,Сергей Кананадзе,B
Yes,Raw,1,Anatoliy Solomin,Amateur Masters 40-44,1970,132.9,,,,,-182.5,190,-200,190,,,,,,190,140,M,Анатолий Соломин,B
Yes,Raw,1,Aleksandr Semenov,Amateur Masters 45-49,1966,139.1,,,,,190,205,215,215,,,,,,215,140,M,Александр Семенов,B
Yes,Raw,1,Roman Marachev,Amateur Open,1978,141.5,,,,,182.5,192.5,-200,192.5,,,,,,192.5,140+,M,Роман Марачев,B
Yes,Raw,2,Roman Mishurenkov,Amateur Open,1982,141,,,,,160,-180,180,180,,,,,,180,140+,M,Роман Мишуренков,B
Yes,Raw,1,Stanislav Karpov,Amateur Masters 40-44,1971,147.7,,,,,162.5,172.5,177.5,177.5,,,,,,177.5,140+,M,Станислав Карпов,B
Yes,Multi-ply,1,Natalya Kolobova,Amateur Open,1982,56,,,,,55,60,-62.5,60,,,,,,60,56,F,Наталья Колобова,B
Yes,Multi-ply,1,Anna Pronyakova,Amateur Open,1984,67.5,,,,,30,40,45,45,,,,,,45,67.5,F,Анна Пронякова,B
Yes,Multi-ply,DQ,Roman Korshunov,Amateur Open,1980,65.5,,,,,-110,-110,-110,,,,,,,,67.5,M,Роман Коршунов,B
Yes,Multi-ply,1,Miron Kim,Amateur Masters 70-74,1941,66.4,,,,,97.5,-105,-105,97.5,,,,,,97.5,67.5,M,Мирон Ким,B
Yes,Multi-ply,1,Aleksandr Petrov,Amateur Juniors 20-23,1990,73.2,,,,,125,137.5,142.5,142.5,,,,,,142.5,75,M,Александр Петров,B
Yes,Multi-ply,1,Maksim Tovstonog,Amateur Open,1983,72.9,,,,,-155,155,165,165,-170.5,,,,,165,75,M,Максим Товстоног,B
Yes,Multi-ply,2,Dmitriy Korneev,Amateur Open,1987,74.3,,,,,147.5,-155,-155,147.5,,,,,,147.5,75,M,Дмитрий Корнеев,B
Yes,Multi-ply,3,Vladimir Kulakov,Amateur Open,1955,74.9,,,,,90,,,90,,,,,,90,75,M,Владимир Кулаков,B
Yes,Multi-ply,1,Vladimir Kulakov,Amateur Masters 55-59,1955,74.9,,,,,82.5,90,,90,,,,,,90,75,M,Владимир Кулаков,B
Yes,Multi-ply,1,Konstantin Sapunkov,Amateur Open,1981,82.5,,,,,197.5,-205.5,-205.5,197.5,,,,,,197.5,82.5,M,Константин Сапунков,B
Yes,Multi-ply,2,Yuriy Tarbonov,Amateur Open,1987,81.5,,,,,195,-205.5,-205.5,195,,,,,,195,82.5,M,Юрий Тарбонов,B
Yes,Multi-ply,DQ,Aleksandr Drosin,Amateur Open,1982,81.4,,,,,-190,-190,,,,,,,,,82.5,M,Александр Дросин,B
Yes,Multi-ply,1,Vadim Guberskiy,Amateur Juniors 20-23,1991,87.8,,,,,140,150,-162.5,150,,,,,,150,90,M,Вадим Губерский,B
Yes,Multi-ply,2,Konstantin Kozlov,Amateur Juniors 20-23,1990,88.7,,,,,110,120,-125,120,,,,,,120,90,M,Константин Козлов,B
Yes,Multi-ply,1,Denis Piklyaev,Amateur Open,1980,88.7,,,,,195,-210,-215,195,,,,,,195,90,M,Денис Пикляев,B
Yes,Multi-ply,2,Igor Eremkin,Amateur Open,1973,88.3,,,,,-185,185,,185,,,,,,185,90,M,Игорь Еремкин,B
Yes,Multi-ply,1,Igor Rachkov,Amateur Masters 45-49,1965,87.1,,,,,150,-160,,150,,,,,,150,90,M,Игорь Рачков,B
Yes,Multi-ply,1,Yuri Solovyev,Amateur Open,1974,94,,,,,222.5,-227.5,-227.5,222.5,,,,,,222.5,100,M,Юрий Соловьев,B
Yes,Multi-ply,2,Pavel Milovanov,Amateur Open,1977,99.6,,,,,210,-225,-225,210,,,,,,210,100,M,Павел Милованов,B
Yes,Multi-ply,3,Andrey Orlov,Amateur Open,1987,96.2,,,,,180,190,-200,190,,,,,,190,100,M,Андрей Орлов,B
Yes,Multi-ply,4,Anton Sosunov,Amateur Open,1980,91.1,,,,,160,172.5,-180,172.5,,,,,,172.5,100,M,Антон Сосунов,B
Yes,Multi-ply,1,Nikolai Arguchintsev,Amateur Masters 40-44,1968,96.4,,,,,180,190,200,200,,,,,,200,100,M,Николай Аргучинцев,B
Yes,Multi-ply,2,Sergei Kosarev,Amateur Masters 40-44,1968,92.5,,,,,-177.5,177.5,-190,177.5,,,,,,177.5,100,M,Сергей Косарев,B
Yes,Multi-ply,1,Valeriy Kurochkin,Amateur Open,1978,107.9,,,,,255,-262.5,-265,255,,,,,,255,110,M,Валерий Курочкин,B
Yes,Multi-ply,2,N. Emelyanov,Amateur Open,1979,109.5,,,,,215,227.5,235,235,,,,,,235,110,M,Николай Емельянов,B
Yes,Multi-ply,1,Pavel Chidingov,Amateur Masters 40-44,1969,106.5,,,,,200,210,220,220,,,,,,220,110,M,Павел Чидингов,B
Yes,Multi-ply,1,Andrey Shmorgun,Amateur Open,1984,115.4,,,,,175,185,195,195,,,,,,195,125,M,Андрей Шморгун,B
Yes,Multi-ply,2,Aleksey Zotov,Amateur Open,1985,110.7,,,,,135,-145,145,145,,,,,,145,125,M,Алексей Зотов,B
Yes,Multi-ply,1,Igor Ziganchin,Amateur Masters 50-54,1960,121,,,,,185,-190,,185,,,,,,185,125,M,Игорь Зиганчин,B
Yes,Multi-ply,1,Anatoly Kalinin,Amateur Masters 45-49,1966,125.2,,,,,150,160,-170,160,,,,,,160,140,M,Анатолий Калинин,B
No,Raw,1,Kirill Galiev,Pro Teen 16-17,1994,65.1,-100,100,110,110,-60,60,-70,60,,120,130,145,145,315,67.5,M,Кирилл Галиев,SBD
No,Raw,1,Vitaliy Timofeev,Pro Open,1982,67.5,140,150,160,160,100,107.5,-112.5,107.5,,165,172.5,180,180,447.5,67.5,M,Виталий Тимофеев,SBD
No,Raw,1,Rinat Usmanov,Pro Juniors 20-23,1988,74.9,-175,175,185,185,115,122.5,-125,122.5,,210,-220,-222.5,210,517.5,75,M,Ринат Усманов,SBD
No,Raw,2,Ragim Balakshiev,Pro Juniors 20-23,1990,73.1,-165,-170,170,170,115,120,125,125,,215,220,-225,220,515,75,M,Рагим Балакшиев,SBD
No,Raw,1,Aleksandr Sadovnikov,Pro Open,1983,74.5,180,190,-195,190,120,125,-127.5,125,,-240,240,-250,240,555,75,M,Александр Садовников,SBD
No,Raw,2,Aleksey Emelyanov,Pro Open,1983,73.35,170,-177.5,177.5,177.5,140,145,150,150,,190,205,-227.5,205,532.5,75,M,Алексей Емельянов,SBD
No,Raw,1,Sergey Alekhin,Pro Juniors 20-23,1989,80.4,175,-182.5,-182.5,175,135,140,-145,140,,200,210,220,220,535,82.5,M,Сергей Алехин,SBD
No,Raw,2,Matvey Kovalev,Pro Juniors 20-23,1990,77.7,-185,185,-195,185,120,130,-135,130,,190,-205,207,207,522,82.5,M,Матвей Ковалев,SBD
No,Raw,1,Vitaliy Egorov,Pro Open,1979,79,185,-200,205,205,125,135,-140,135,,210,230,-240,230,570,82.5,M,Виталий Егоров,SBD
No,Raw,2,Aleksey Kolenkin,Pro Open,1983,77.8,165,175,182,182,135,145,152,152,,210,225,-235,225,559,82.5,M,Алексей Коленкин,SBD
No,Raw,1,Dmitriy Melikhov,Pro Open,1979,89.5,190,197,202,202,-135,140,142,142,,205,215,225,225,569,90,M,Дмитрий Мелихов,SBD
No,Raw,1,Andrey Zakhartsev,Pro Masters 45-49,1966,87.2,170,180,190,190,135,142,-145,142,,180,192,202,202,534,90,M,Андрей Захарцев,SBD
No,Raw,1,Vladimir Tarbonov,Pro Masters 55-59,1954,88,-165,165,-177,165,90,100,-110,100,,185,200,210,210,475,90,M,Владимир Тарбонов,SBD
No,Raw,1,Aleksandr Zagorodnikov,Pro Juniors 20-23,1989,96,220,230,240,240,155,-165,170,170,,255,265,272,272,682,100,M,Александр Загородников,SBD
No,Raw,2,Marat Savosin,Pro Juniors 20-23,1990,95.1,-210,-210,210,210,160,175,180,180,,225,252,-260,252,642,100,M,Марат Савосин,SBD
No,Raw,3,Mikhail Rykov,Pro Juniors 20-23,1988,94.1,220,,,220,-155,155,-162,155,,240,250,-265,250,625,100,M,Михаил Рыков,SBD
No,Raw,1,Denis Matyushin,Pro Open,1984,97.7,-205,205,-210,205,170,-177,-177,170,,240,250,260,260,635,100,M,Денис Матюшин,SBD
No,Raw,2,Anton Yaschuk,Pro Open,1980,98.1,170,190,205,205,-140,150,-160,150,,190,230,250,250,605,100,M,Антон Ящук,SBD
No,Raw,1,Aleksey Baryshev,Pro Juniors 20-23,1989,104.3,-225,225,235,235,170,177,-182,177,,285,300,315,315,727,110,M,Алексей Барышев,SBD
No,Raw,2,Aleksandr Evsyutkin,Pro Juniors 20-23,1988,102.7,-190,190,-200,190,125,135,140,140,,200,210,220,220,550,110,M,Александр Евсюткин,SBD
No,Raw,1,Kirill Bakarinov,Pro Open,1987,116.2,220,235,-245,235,150,160,-170,160,,230,-250,-265,230,625,125,M,Кирилл Бакаринов,SBD
No,Multi-ply,1,Vizhe Mirmirani,Pro Masters 45-49,1965,59.5,135,145,155,155,-75,75,-90,75,,130,145,150,150,380,60,F,Виже Мирмирани,SBD
No,Multi-ply,DQ,Nemattillo Tursunov,Pro Juniors 20-23,1990,63.1,-150,150,-160,150,-110,-110,,,,,,,,,67.5,M,Неъматтилло Турсунов,SBD
No,Multi-ply,1,Pavel Barkanov,Pro Teen 18-19,1993,73.1,-125,130,135,135,85,92.5,97.5,97.5,,155,165,172.5,172.5,405,75,M,Павел Барканов,SBD
No,Multi-ply,1,Aleksandr Dasaev,Pro Open,1985,71.8,-155,155,-162.5,155,100,105,-110,105,,140,150,160,160,420,75,M,Александр Дасаев,SBD
No,Multi-ply,1,Aleksey Selischev,Pro Open,1978,80.2,120,130,140,140,70,75,-80,75,,130,140,150,150,365,82.5,M,Алексей Селищев,SBD
No,Multi-ply,DQ,Sergey Larionov,Pro Open,1975,82.1,215,-225,-225,215,-160,-160,-160,,,,,,,,82.5,M,Сергей Ларионов,SBD
No,Multi-ply,DQ,Vyacheslav Lyubimov,Pro Open,1971,82.5,235,-250,-250,235,175,-180,-180,175,,-265,-285,,,,82.5,M,Вячеслав Любимов,SBD
No,Multi-ply,1,Sergey Emelyanov,Pro Masters 40-44,1971,75.9,200,215,-220,215,140,145,-150,145,,200,210,220,220,580,82.5,M,Сергей Емельянов,SBD
No,Multi-ply,DQ,Vyacheslav Lyubimov,Pro Masters 40-44,1971,82.5,235,-250,-250,235,175,-180,-180,175,,-265,-285,,,,82.5,M,Вячеслав Любимов,SBD
No,Multi-ply,DQ,Georgiy Lazaridi,Pro Masters 75-79,1933,81.7,-170,-170,-170,,,,,,,,,,,,82.5,M,Георгий Лазариди,SBD
No,Multi-ply,1,Artur Nigmatullin,Pro Teen 16-17,1994,84.4,220,-230,235,235,150,155,162.5,162.5,,220,230,-240,230,627.5,90,M,Артур Нигматуллин,SBD
No,Multi-ply,1,Valeriy Kozlovskiy,Pro Open,1982,88.5,-215,215,-227.5,215,-170,170,180,180,,215,-225,225,225,620,90,M,Валерий Козловский,SBD
No,Multi-ply,2,Dmitriy Zaytsev,Pro Open,1981,89.4,170,180,-190,180,145,150,155,155,,155,165,175,175,510,90,M,Дмитрий Зайцев,SBD
No,Multi-ply,3,Petr Samko,Pro Open,1987,85.3,125,132.5,-140,132.5,95,105,110,110,,155,-165,,155,397.5,90,M,Петр Самко,SBD
No,Multi-ply,1,Valeriy Kuznetsov #3,Pro Open,1983,95.8,280,290,300,300,-200,-210,210,210,,240,260,270,270,780,100,M,Валерій Кузнєцов,SBD
No,Multi-ply,DQ,Maksim Gavrilov,Pro Open,1985,96.7,-220,240,-270,240,-145,-145,-145,,,,,,,,100,M,Максим Гаврилов,SBD
No,Multi-ply,1,Sergey Mavrenkov,Pro Masters 45-49,1966,98.1,210,-222,222,222,170,182,190,190,,190,202.5,,202.5,614.5,100,M,Сергей Мавренков,SBD
No,Multi-ply,1,Alexander Krovikov,Pro Masters 50-54,1961,96.2,210,220,230,230,150,-165,-165,150,,230,-250,-250,230,610,100,M,Александр Кровиков,SBD
No,Multi-ply,1,Nikolay Yashin,Pro Teen 16-17,1995,105.6,140,155,165,165,110,125,-140,125,,-130,130,140,140,430,110,M,Николай Яшин,SBD
No,Multi-ply,1,Alexey Kurkov,Pro Open,1976,102.5,215,230,-240,230,155,165,-172,165,,210,230,240,240,635,110,M,Алексей Курков,SBD
No,Multi-ply,DQ,Sergey Ermilov,Pro Open,1982,104.2,-270,-270,-270,,,,,,,,,,,,110,M,Сергей Ермилов,SBD
No,Multi-ply,1,Vasiliy Voropaev,Pro Masters 55-59,1956,103.9,210,220,240,240,100,,,100,,215,230,250,250,590,110,M,Василий Воропаев,SBD
No,Multi-ply,1,Igor Potapov,Pro Open,1987,112.3,200,230,250,250,130,150,160,160,,210,-240,240,240,650,125,M,Игорь Потапов,SBD
No,Raw,1,Olga Surkova,Pro Juniors 20-23,1988,70.1,,,,,60,-65,-65,60,,,,,,60,75,F,Ольга Суркова,B
No,Raw,1,Denis Baran,Pro Teen 16-17,1995,58.9,,,,,70,-75,-75,70,,,,,,70,60,M,Денис Баран,B
No,Raw,1,Sergei Karaziya,Pro Open,1987,64.3,,,,,155,160,-165,160,,,,,,160,67.5,M,Сергей Каразия,B
No,Raw,2,Aleksey Schipanov,Pro Open,1980,66.1,,,,,125,130,-132.5,130,,,,,,130,67.5,M,Алексей Щипанов,B
No,Raw,1,Anatoliy Klementyev,Pro Teen 16-17,1995,74.4,,,,,100,-107.5,107.5,107.5,,,,,,107.5,75,M,Анатолий Клементьев,B
No,Raw,1,Pavel Barkanov,Pro Teen 18-19,1993,73.1,,,,,95,-105,-105,95,,,,,,95,75,M,Павел Барканов,B
No,Raw,1,Roman Schekleev,Pro Juniors 20-23,1989,71.9,,,,,135,-145,-145,135,,,,,,135,75,M,Роман Щеклеев,B
No,Raw,1,Ivan Karangin,Pro Open,1985,71.4,,,,,150,-155,-155,150,,,,,,150,75,M,Иван Карангин,B
No,Raw,2,Aleksey Emelyanov,Pro Open,1983,73.35,,,,,140,150,-152.5,150,,,,,,150,75,M,Алексей Емельянов,B
No,Raw,3,Aleksandr Rybalkin,Pro Open,1981,74.6,,,,,-130,130,-135,130,,,,,,130,75,M,Александр Рыбалкин,B
No,Raw,4,Valeriy Ukolov,Pro Open,1981,70.1,,,,,-127.5,-127.5,127.5,127.5,,,,,,127.5,75,M,Валерий Уколов,B
No,Raw,1,Anatoliy Krivoshein,Pro Juniors 20-23,1991,81.9,,,,,102.5,-120,,102.5,,,,,,102.5,82.5,M,Анатолий Кривошеин,B
No,Raw,1,Aleksey Khvatov,Pro Open,1968,81.3,,,,,185,-195,195,195,,,,,,195,82.5,M,Алексей Хватов,B
No,Raw,2,Grigoriy Denisov,Pro Open,1981,80.6,,,,,160,165,-170,165,,,,,,165,82.5,M,Григорий Денисов,B
No,Raw,3,Anton Dzhafyarov,Pro Open,1985,79.7,,,,,145,-155,155,155,,,,,,155,82.5,M,Антон Джафяров,B
No,Raw,4,Vladimir Fateev,Pro Open,1964,82.3,,,,,-150,155,-160,155,,,,,,155,82.5,M,Владимир Фатеев,B
No,Raw,1,Yuriy Sergeev,Pro Teen 18-19,1993,87.1,,,,,95,105,112.5,112.5,,,,,,112.5,90,M,Юрий Сергеев,B
No,Raw,1,Pavel Danilov,Pro Juniors 20-23,1988,84.3,,,,,160,170,-180,170,,,,,,170,90,M,Павел Данилов,B
No,Raw,2,Maksim Galichenkov,Pro Juniors 20-23,1988,88.1,,,,,-157.5,157.5,-165,157.5,,,,,,157.5,90,M,Максим Галиченков,B
No,Raw,1,Konstantin Gausman,Pro Open,1973,85.2,,,,,190,200,-210,200,,,,,,200,90,M,Константин Гаусман,B
No,Raw,2,Aleksandr Shoev,Pro Open,1982,89.5,,,,,190,195,-200,195,,,,,,195,90,M,Александр Шоев,B
No,Raw,3,Petr Selivanov,Pro Open,1970,85.8,,,,,-180,190,-195,190,,,,,,190,90,M,Петр Селиванов,B
No,Raw,4,Pavel Leonov,Pro Open,1983,86.2,,,,,180,-185,185,185,,,,,,185,90,M,Павел Леонов,B
No,Raw,5,Igor Kalugin,Pro Open,1983,88.9,,,,,175,-180,-180,175,,,,,,175,90,M,Игорь Калугин,B
No,Raw,6,Denis Kormilov,Pro Open,1976,87.9,,,,,170,-175,-175,170,,,,,,170,90,M,Денис Кормилов,B
No,Raw,7,Matvey Scherbinin,Pro Open,1979,84.1,,,,,155,160,-170,160,,,,,,160,90,M,Матвей Щербинин,B
No,Raw,8,Suren Kochumyan,Pro Open,1960,88.7,,,,,117.5,-122.5,-122.5,117.5,,,,,,117.5,90,M,Сурен Кочумян,B
No,Raw,1,Eduard Gavrilchenko,Pro Masters 40-44,1967,89.4,,,,,170,180,190,190,,,,,,190,90,M,Эдуард Гаврильченко,B
No,Raw,2,Oleg Kuznetsov,Pro Masters 40-44,1968,84.4,,,,,125,130,-135,130,,,,,,130,90,M,Олег Кузнецов,B
No,Raw,1,Gennadiy Kadukov,Pro Masters 45-49,1962,87.6,,,,,125,135,-140,135,,,,,,135,90,M,Геннадий Кадуков,B
No,Raw,1,Sergey Reznik,Pro Teen 18-19,1992,98.4,,,,,95,105,110,110,,,,,,110,100,M,Сергей Резник,B
No,Raw,1,Aleksandr Marin,Pro Juniors 20-23,1989,94.2,,,,,170,180,190,190,,,,,,190,100,M,Александр Марин,B
No,Raw,2,Marat Savosin,Pro Juniors 20-23,1990,95.1,,,,,165,172.5,177.5,177.5,,,,,,177.5,100,M,Марат Савосин,B
No,Raw,DQ,Egor Konstantinov,Pro Juniors 20-23,1988,100,,,,,-175,-175,-175,,,,,,,,100,M,Егор Константинов,B
No,Raw,1,Timur Knyazev,Pro Open,1988,93.2,,,,,177.5,187.5,195,195,,,,,,195,100,M,Тимур Князев,B
No,Raw,2,Vladimir Bolshakov,Pro Open,1975,97,,,,,180,190,195,195,,,,,,195,100,M,Владимир Большаков,B
No,Raw,3,Andrey Orlov,Pro Open,1987,96.2,,,,,190,,,190,,,,,,190,100,M,Андрей Орлов,B
No,Raw,4,Dmitriy Gusev,Pro Open,1985,96.5,,,,,180,185,190,190,,,,,,190,100,M,Дмитрий Гусев,B
No,Raw,5,Nikolay Chekhov,Pro Open,1979,97.2,,,,,190,-195,-195,190,,,,,,190,100,M,Николай Чехов,B
No,Raw,6,Ivan Trunov,Pro Open,1980,98,,,,,170,180,190,190,,,,,,190,100,M,Иван Трунов,B
No,Raw,7,Vladimir Zavyalov,Pro Open,1983,95.8,,,,,180,-190,-190,180,,,,,,180,100,M,Владимир Завьялов,B
No,Raw,8,Sergey Skapchyus,Pro Open,1987,95,,,,,160,165,172.5,172.5,,,,,,172.5,100,M,Сергей Скапчюс,B
No,Raw,9,Mikhail Moiseev,Pro Open,1975,99.6,,,,,140,-147.5,-147.5,140,,,,,,140,100,M,Михаил Моисеев,B
No,Raw,1,Igor Shinov,Pro Masters 40-44,1970,96.7,,,,,155,165,170,170,,,,,,170,100,M,Игорь Шинов,B
No,Raw,2,Vadim Shamkov,Pro Masters 40-44,1967,99,,,,,167.5,-172.5,-172.5,167.5,,,,,,167.5,100,M,Вадим Шамков,B
No,Raw,1,Petr Kovtun,Pro Masters 45-49,1966,100,,,,,175,185,-190,185,,,,,,185,100,M,Петр Ковтун,B
No,Raw,2,Sergey Mavrenkov,Pro Masters 45-49,1966,98.1,,,,,140,-145,147.5,147.5,,,,,,147.5,100,M,Сергей Мавренков,B
No,Raw,3,Evgeniy Uskov,Pro Masters 45-49,1964,95.3,,,,,140,145,-147.5,145,,,,,,145,100,M,Евгений Усков,B
No,Raw,4,Evgeniy Golovin,Pro Masters 45-49,1964,100,,,,,125,130,-135,130,,,,,,130,100,M,Евгений Головин,B
No,Raw,1,Aleksandr Kazmin,Pro Open,1977,106.9,,,,,190,200,210,210,,,,,,210,110,M,Александр Казьмин,B
No,Raw,2,Mikhail Korenovskiy,Pro Open,1986,106.8,,,,,187.5,197.5,205,205,,,,,,205,110,M,Михаил Кореновский,B
No,Raw,3,Mikhail Knyazkov,Pro Open,1978,103.9,,,,,190,197.5,-202.5,197.5,,,,,,197.5,110,M,Михаил Князьков,B
No,Raw,1,Roman Strelkov,Pro Open,1969,122.5,,,,,225,232.5,-235,232.5,,,,,,232.5,125,M,Роман Стрелков,B
No,Raw,2,Yuriy Romanov #1,Pro Open,1983,119.1,,,,,200,207.5,-210,207.5,,,,,,207.5,125,M,Юрий Романов,B
No,Raw,3,Evgeniy Vasilyev,Pro Open,1982,123.5,,,,,190,200,207.5,207.5,,,,,,207.5,125,M,Евгений Васильев,B
No,Raw,4,Sergey Vorobyev,Pro Open,1979,121.7,,,,,205,,,205,,,,,,205,125,M,Сергей Воробьев,B
No,Raw,5,Ivan Polyakov,Pro Open,1974,115,,,,,200,-210,,200,,,,,,200,125,M,Иван Поляков,B
No,Raw,6,Dmitriy Kuleshov,Pro Open,1977,124.1,,,,,175,185,192.5,192.5,,,,,,192.5,125,M,Дмитрий Кулешов,B
No,Raw,DQ,Dmitriy Zubarev,Pro Open,1987,124.1,,,,,-185,-185,-185,,,,,,,,125,M,Дмитрий Зубарев,B
No,Raw,1,Andrey Fayustov,Pro Masters 50-54,1961,115.5,,,,,190,-200,-207.5,190,,,,,,190,125,M,Андрей Фаюстов,B
No,Raw,1,Sergey Zimin,Pro Masters 40-44,1972,128.9,,,,,180,190,202.5,202.5,,,,,,202.5,140,M,Сергей Зимин,B
No,Raw,1,Viktor Kozlov,Pro Masters 45-49,1963,133.6,,,,,230,-232.5,,230,,,,,,230,140,M,Виктор Козлов,B
No,Raw,1,Artem Fadeev,Pro Open,1980,163,,,,,220,240,250,250,,,,,,250,140+,M,Артем Фадеев,B
No,Raw,2,Evgeniy Deryuzhenko,Pro Open,1981,150.6,,,,,200,205,-212.5,205,,,,,,205,140+,M,Евгений Дерюженко,B
No,Multi-ply,1,Irina Volobueva,Pro Open,1977,48.7,,,,,-30,30,-35,30,,,,,,30,52,F,Ирина Волобуева,B
No,Multi-ply,1,Aleksandr Fedorov,Pro Open,1976,65.9,,,,,145,151,160,160,-165,,,,,160,67.5,M,Александр Федоров,B
No,Multi-ply,1,Pavel Barkanov,Pro Teen 18-19,1993,73.1,,,,,85,95,100,100,,,,,,100,75,M,Павел Барканов,B
No,Multi-ply,1,Aleksandr Kamenskiy,Pro Juniors 20-23,1989,74.2,,,,,-165,167.5,175,175,,,,,,175,75,M,Александр Каменский,B
No,Multi-ply,1,Aleksey Emelyanov,Pro Open,1983,73.35,,,,,-165,165,170,170,,,,,,170,75,M,Алексей Емельянов,B
No,Multi-ply,2,Konstantin Zhigulin,Pro Open,1987,70.3,,,,,150,160,-165,160,,,,,,160,75,M,Константин Жигулин,B
No,Multi-ply,DQ,Sergey Khazarov,Pro Teen 16-17,1994,81.4,,,,,-90,-90,-90,,,,,,,,82.5,M,Сергей Хазаров,B
No,Single-ply,1,Aleksey Nikulin,Pro Open,1982,81.1,,,,,230,250,260,260,,,,,,260,82.5,M,Алексей Никулин,B
No,Multi-ply,2,Sergey Larionov,Pro Open,1975,82.1,,,,,-155,-155,155,155,,,,,,155,82.5,M,Сергей Ларионов,B
No,Multi-ply,1,Yuriy Sergeev,Pro Teen 18-19,1993,87.1,,,,,95,-110,110,110,,,,,,110,90,M,Юрий Сергеев,B
No,Multi-ply,1,Aleksey Yakovlev,Pro Open,1978,88.4,,,,,-210,-210,210,210,,,,,,210,90,M,Алексей Яковлев,B
No,Multi-ply,2,Dmitriy Zaytsev,Pro Open,1981,89.4,,,,,145,150,155,155,,,,,,155,90,M,Дмитрий Зайцев,B
No,Multi-ply,3,Georgiy Gatitskiy,Pro Open,1982,87,,,,,140,145,-150,145,,,,,,145,90,M,Георгий Гатицкий,B
No,Multi-ply,1,Sergey Reznik,Pro Teen 18-19,1992,98.4,,,,,95,107.5,-112.5,107.5,,,,,,107.5,100,M,Сергей Резник,B
No,Multi-ply,1,Mikhail Bochkov,Pro Open,1988,93.8,,,,,160,170,-180,170,,,,,,170,100,M,Михаил Бочков,B
No,Multi-ply,1,Sergey Mavrenkov,Pro Masters 45-49,1966,98.1,,,,,175,185,-192.5,185,,,,,,185,100,M,Сергей Мавренков,B
No,Multi-ply,1,Maksim Stepanov #4,Pro Juniors 20-23,1988,105.3,,,,,-190,190,-195,190,,,,,,190,110,M,Максим Степанов,B
No,Multi-ply,1,Semen Alaev,Pro Open,1987,109,,,,,190,-200,-200,190,,,,,,190,110,M,Семен Алаев,B
No,Multi-ply,DQ,Mikhail Royanov,Pro Open,1977,103.8,,,,,-230,-250,-270,,,,,,,,110,M,Михаил Роянов,B
No,Multi-ply,1,Dmitriy Sokolov,Pro Open,1983,125,,,,,-210,210,-220,210,,,,,,210,125,M,Дмитрий Соколов,B
No,Multi-ply,2,Arseniy Novikov,Pro Open,1986,112.2,,,,,180,195,200,200,,,,,,200,125,M,Арсений Новиков,B
No,Multi-ply,3,Igor Potapov,Pro Open,1987,112.3,,,,,-140,140,165,165,,,,,,165,125,M,Игорь Потапов,B
No,Multi-ply,DQ,Viktor Fursov,Pro Open,1974,111.5,,,,,-275,-275,-275,,,,,,,,125,M,Виктор Фурсов,B
No,Multi-ply,1,Dmitriy Permyakov,Pro Open,1975,128.9,,,,,290,300,310,310,,,,,,310,140,M,Дмитрий Пермяков,B
No,Multi-ply,2,Vadim Kiryushkin,Pro Open,1976,126.8,,,,,260,270,280,280,,,,,,280,140,M,Вадим Кирюшкин,B
No,Multi-ply,3,Maksim Tsukanov,Pro Open,1980,133.6,,,,,255,265,270,270,,,,,,270,140,M,Максим Цуканов,B
No,Multi-ply,1,Viktor Kozlov,Pro Masters 45-49,1963,133.6,,,,,220,225,230,230,,,,,,230,140,M,Виктор Козлов,B
