Place,Name,Sex,Event,Equipment,WeightClassKg,Division,BirthDate,Age,BodyweightKg,Country,Squat1Kg,Squat2Kg,Squat3Kg,Squat4Kg,Best3SquatKg,Bench1Kg,Bench2Kg,Bench3Kg,Bench4Kg,Best3BenchKg,Deadlift1Kg,Deadlift2Kg,Deadlift3Kg,Deadlift4Kg,Best3DeadliftKg,TotalKg
1,Yegor Pavlyuk,M,SBD,Multi-ply,52,T 13-15,1992-12-17,14,50.4,Russia,140,155,-165,,155,50,55,-60,,55,110,120,130,,130,340
2,Aleksandr Petukhov,M,SBD,Multi-ply,52,T 13-15,1994-04-01,13,47,Russia,-125,-125,125,,125,65,-70,70,,70,130,137.5,-145,,137.5,332.5
1,Steven Scoular,M,SBD,Multi-ply,52,J 20-23,1985-10-16,22,51.6,UK,125,140,150,,150,60,70,77.5,,77.5,140,160,170,,170,397.5
1,Pavel Baranov,M,SBD,Multi-ply,56,T 13-15,1993-10-05,14,53.7,Russia,125,132.5,140,,140,67.5,72.5,77.5,80,77.5,141,150,-160,,150,367.5
2,Aleksey Gornyy,M,SBD,Multi-ply,56,T 13-15,1992-09-03,15,53.25,Ukraine,120,132.5,-140,,132.5,62.5,-70,72.5,,72.5,120,130,135,,135,340
1,Nikita Shelaykin,M,SBD,Multi-ply,60,T 16-17,1991-10-23,16,58.6,Russia,-170,170,180,,180,100,105,110,,110,180,190,-195,,190,480
1,Pavel Fatfullin,M,SBD,Multi-ply,60,T 18-19,1989-06-02,18,59.95,Russia,180,190,-200,,190,-95,100,107.5,,107.5,170,180,190,,190,487.5
2,David Amazyan,M,SBD,Multi-ply,60,T 18-19,1988-09-01,19,57.2,Russia,165,-172.5,180,,180,-105,110,115,,115,170,180,-192.5,,180,475
3,Sergey Kachan,M,SBD,Multi-ply,60,T 18-19,1989-06-29,18,59.9,Ukraine,145,160,-172.5,,160,87.5,95,97.5,,97.5,155,175,185,,185,442.5
1,Soslan Dzagoyev,M,SBD,Multi-ply,60,J 20-23,1986-12-25,20,59.2,Russia,170,200,,,200,90,95,-97.5,,95,160,-180,,,160,455
1,Aleksandr Kondratyev,M,SBD,Multi-ply,67.5,T 16-17,1989-12-05,17,66.15,Russia,185,-200,-200,,185,-125,-125,125,,125,185,195,,,195,505
1,Vladimir Petyanov,M,SBD,Multi-ply,67.5,J 20-23,1985-07-26,22,67.3,Russia,265,-275,285,,285,140,150,-155,,150,205,215,-222.5,,215,650
2,Mikhail Kolesnikov,M,SBD,Multi-ply,67.5,J 20-23,1986-04-12,21,67.2,Russia,230,-237.5,-237.5,,230,-150,150,157.5,,157.5,200,210,-220,,210,597.5
3,Dmitriy Stoyanov,M,SBD,Multi-ply,67.5,J 20-23,1987-05-12,20,67.5,Russia,-230,230,-250,,230,-135,135,150,,150,190,210,-220,,210,590
1,Vadim Yakfarov,M,SBD,Multi-ply,75,T 13-15,1992-03-04,15,74.8,Russia,200,220,235,,235,120,127.5,-132.5,,127.5,200,-230.5,-230.5,,200,562.5
DQ,Dmitriy Duskryadchenko,M,SBD,Multi-ply,75,T 13-15,1991-12-01,15,74.5,Russia,-185,-190,-200,,,,,,,,,,,,,
1,Oleg Tibilov,M,SBD,Multi-ply,75,T 16-17,1990-02-15,17,74.75,Russia,275,-300.5,-300.5,,275,100,145,-160.5,,145,220,242.5,250,,250,670
2,Sergey Titov,M,SBD,Multi-ply,75,T 16-17,1990-05-30,17,75,Russia,210,-230,,,210,130,-145,-145,,130,120,-210,210,,210,550
3,Andrey Ilyin,M,SBD,Multi-ply,75,T 16-17,1991-06-21,16,73.55,Russia,210,225,235,,235,95,100,-105,,100,190,200,-215,,200,535
4,Roman Nosyrev,M,SBD,Multi-ply,75,T 16-17,1991-06-09,16,73.35,Russia,-180,180,-200,,180,90,100,-110,,100,-170,170,180,,180,460
1,Igor Sergun,M,SBD,Multi-ply,75,T 18-19,1988-01-27,19,73.1,Russia,-230,250,265,,265,140,147.5,-152.5,,147.5,-240,240,-247.5,,240,652.5
DQ,Pavel Bogatyrev,M,SBD,Multi-ply,75,T 18-19,1989-04-22,18,73.7,Russia,-270,-270,-270,,,,,,,,,,,,,
1,Aleksandr Nekipelov,M,SBD,Multi-ply,75,J 20-23,1987-04-18,20,73.95,Russia,-300,300,-320,,300,200,210,215,,215,240,-255,,,240,755
2,Sergey Yanshin,M,SBD,Multi-ply,75,J 20-23,1987-05-28,20,74.45,Russia,285,295,-302.5,,295,170,180,-200,,180,210,-230,-230,,210,685
3,German Petyanov,M,SBD,Multi-ply,75,J 20-23,1985-07-26,22,73.3,Russia,275,285,-295,,285,135,145,150,,150,-210,217.5,-225,,217.5,652.5
4,Roman Salnikov,M,SBD,Multi-ply,75,J 20-23,1985-11-26,21,75,Russia,250,-275,275,,275,130,-135,135,,135,240,-250,-255,,240,650
5,Vitaliy Klintsov,M,SBD,Multi-ply,75,J 20-23,1986-05-10,21,74.35,Russia,205,215,-225,,215,120,125,130,,130,155,170,-180,,170,515
1,Andrey Gladun,M,SBD,Multi-ply,82.5,T 16-17,1989-11-10,17,81.45,Ukraine,280,-305,310,,310,150,165,-175,,165,235,255,260,,260,735
2,Valentin Krupnov,M,SBD,Multi-ply,82.5,T 16-17,1991-04-24,16,81.8,Russia,-220,220,-230,,220,130,-140,140,,140,180,190,-200,,190,550
DQ,Vitaliy Maklakov,M,SBD,Multi-ply,82.5,T 16-17,1989-11-22,17,80.3,Russia,-260,-260,-260,,,,,,,,,,,,,
DQ,Rovshan Abdulayev,M,SBD,Multi-ply,82.5,T 16-17,1990-10-30,,81.75,Russia,190,200,210,,210,-130,-130,-130,,,,,,,,
1,Dmitriy Mayorov,M,SBD,Multi-ply,82.5,T 18-19,1988-06-18,19,82.5,Russia,305,-320,-320,,305,180,-195,195,,195,230,245,255,,255,755
2,Nikita Dubrovin,M,SBD,Multi-ply,82.5,T 18-19,1988-09-27,19,81.95,Russia,240,-255,-255,,240,150,160,-165,,160,210,225,232.5,,232.5,632.5
3,Vladimir Konkin,M,SBD,Multi-ply,82.5,T 18-19,1989-06-21,18,81.15,Russia,260,-280,-280,,260,130,137.5,145,,145,200,215,-230,,215,620
1,Denis Grishin,M,SBD,Multi-ply,82.5,J 20-23,1986-03-05,21,80.1,Russia,280,300,-310,,300,165,175,-185,,175,255,265,275,,275,750
2,Georgiy Yakimenkov,M,SBD,Multi-ply,82.5,J 20-23,1984-01-13,23,82.4,Russia,265,-280,295,,295,170,180,185,,185,250,265,-280,,265,745
3,Andrey Dyatlov,M,SBD,Multi-ply,82.5,J 20-23,1985-02-28,22,81.2,Ukraine,-280,290,300,,300,175,185,-200,,185,240,-250,-250,,240,725
4,Ilya Gorlov,M,SBD,Multi-ply,82.5,J 20-23,1986-08-24,21,82,Russia,230,-250,250,,250,-110,115,120,,120,230,-240,240,,240,610
DQ,Sergey Blinov,M,SBD,Multi-ply,82.5,J 20-23,1987-06-26,20,79.4,Russia,-270,-270,-270,,,,,,,,,,,,,
DQ,Denis Druzhinin,M,SBD,Multi-ply,82.5,J 20-23,1986-10-07,21,80.6,Russia,300,-322.5,-322.5,,300,180,-192.5,-192.5,,180,,,,,,
1,Yevgeniy Panferov,M,SBD,Multi-ply,90,T 16-17,1991-03-31,16,88.4,Russia,-240,240,-250,,240,-130,130,142.5,,142.5,190,205,-217.5,,205,587.5
2,Vitaliy Leonnyuk,M,SBD,Multi-ply,90,T 16-17,1990-04-23,17,85.2,Russia,200,215,-230,,215,120,130,-140,,130,180,-200,,,180,525
3,Aleksandr Romanov,M,SBD,Multi-ply,90,T 18-19,1988-05-11,19,87,Russia,325,-345,,,325,200,-210,210,-220,210,260,280,-295,,280,815
DQ,Anatoliy Garmashov,M,SBD,Multi-ply,90,T 18-19,1988-07-05,19,88.55,Russia,280,295,-302.5,,295,-190,-190,-190,,,,,,,,
1,Nikolay Bezuglov,M,SBD,Multi-ply,90,J 20-23,1985-01-10,22,90,Russia,320,350,370.5,,370.5,-210,210,220,,220,260,310,320,-330.5,320,910.5
2,Vladimir Grigoryev,M,SBD,Multi-ply,90,J 20-23,1986-07-21,21,85.55,Russia,-250,250,280,,280,-150,150,-170,,150,230,-250,250,,250,680
DQ,Benjamin Hooker,M,SBD,Multi-ply,90,J 20-23,1984-07-17,23,89.95,USA,-302.5,-302.5,-302.5,,,,,,,,,,,,,
1,Yuri Khandzhyan,M,SBD,Multi-ply,100,T 16-17,1991-10-20,16,97.15,Russia,200,225,-250,,225,140,,,,140,170,190,,,190,555
1,Mikhail Tsatsulin,M,SBD,Multi-ply,100,T 18-19,1988-01-13,19,96.95,Russia,310,-335,-345,,310,190,205,212.5,,212.5,310,330,350,,350,872.5
2,Pavel Tyurin,M,SBD,Multi-ply,100,T 18-19,1988-11-14,18,92.1,Russia,230,265,-280,,265,155,165,170,,170,210,230,240,,240,675
1,Roman Bogdanov,M,SBD,Multi-ply,100,J 20-23,1986-03-24,21,97.3,Russia,340,-360,360,,360,220,-230,-230,,220,290,300,-310,,300,880
2,Dmitriy Kopyl,M,SBD,Multi-ply,100,J 20-23,1986-03-01,21,98.85,Russia,280,300,-315,,300,195,210,215,,215,270,280,-300,,280,795
3,Gegam Kakoyan,M,SBD,Multi-ply,100,J 20-23,1984-04-02,23,91.4,Russia,280,-305,-305,,280,185,-195,-195,,185,280,295,-305,,295,760
DQ,Aleksandr Borshchev,M,SBD,Multi-ply,100,J 20-23,1986-04-24,21,99.25,Russia,-325,-340,-350,,,,,,,,,,,,,
DQ,Yevgeniy Gavrilov,M,SBD,Multi-ply,100,J 20-23,1984-05-01,23,99.8,Russia,310,330,-340,,330,185,-195,-195,,185,-300,-300,-300,,,
1,Viktor Malyugin,M,SBD,Multi-ply,110,T 16-17,,17,106.15,Russia,270,290,300,,300,190,205,210,,210,250,270,,,270,780
2,Artem Litvinenko,M,SBD,Multi-ply,110,T 16-17,1990-10-12,17,104,Moldova,250,260,-270,,260,155,165,-172.5,,165,235,245,252.5,,252.5,677.5
1,Eduard Shpringer,M,SBD,Multi-ply,110,T 18-19,1988-03-20,19,108.15,Russia,290,-315,,,290,200,215,,,215,200,,,,200,705
1,Mikhail Brylin,M,SBD,Multi-ply,110,J 20-23,1984-04-19,23,108.2,Russia,-360,370,380,,380,-240,240,252.5,,252.5,322.5,340,347.5,-355,347.5,980
DQ,Ilya Sidelnikov,M,SBD,Multi-ply,110,J 20-23,1984-03-17,23,105.5,Russia,-370,-370,-370,,,,,,,,,,,,,
1,Caleb Smith,M,SBD,Multi-ply,125,T 16-17,1991-08-26,16,114.95,USA,210,232.5,-257.5,,232.5,70,107.5,115,,115,170,200,215,,215,562.5
1,Andrey Zverev,M,SBD,Multi-ply,125,T 18-19,1987-12-10,19,111.75,Russia,240,-250,260,,260,170,185,-200,,185,200,220,,,220,665
1,Kirill Sarychev,M,SBD,Single-ply,140+,T 18-19,1989-01-01,18,157.65,Russia,320,340,,,340,250,282.5,-290,,282.5,270,-300,300,,300,922.5
1,Aleksandr Onuchin,M,SBD,Multi-ply,56,Open,1978-10-02,29,56,Russia,160,180,190,,190,110,120,127.5,,127.5,190,-215.5,215.5,,215.5,533
2,Asif Beliyev,M,SBD,Multi-ply,56,Open,1986-01-01,21,55.75,Azerbaijan,160,-172.5,-180,,160,90,97.5,100,,100,145,-155,157.5,,157.5,417.5
1,Yevgeniy Bagin,M,SBD,Multi-ply,60,Open,1982-08-16,25,59.9,Russia,220,235,-250,,235,110,125,-135,,125,185,200,210,,210,570
1,Mikhail Speranskiy,M,SBD,Multi-ply,67.5,Open,1976-03-13,31,65.2,Russia,-290,290,310,,310,-200,200,-212.5,,200,240,250,-260,,250,760
2,Rustam Musayev,M,SBD,Multi-ply,67.5,Open,1978-09-08,29,67,Azerbaijan,230,237.5,-242.5,,237.5,137.5,145,150,,150,222.5,230,235,,235,622.5
3,Amil Atakishiev,M,SBD,Multi-ply,67.5,Open,1980-01-01,27,66.55,Azerbaijan,225,235,-240,,235,135,142.5,147.5,,147.5,215,227.5,-235,,227.5,610
1,Pavel Kulkov,M,SBD,Multi-ply,75,Open,1980-04-15,27,73.6,Russia,300,320,-340,,320,160,175,-185,,175,270,290,-305,,290,785
2,Anatoliy Glazunov,M,SBD,Multi-ply,75,Open,1972-02-09,35,74.05,Russia,270,290,310,,310,170,190,200,,200,220,240,250,,250,760
3,Konstantin Konstantinov,M,SBD,Multi-ply,75,Open,1981-12-10,25,74,Russia,280,300,310,,310,170,-175,175,,175,240,250,-255,,250,735
4,Maksim Kutuzov,M,SBD,Multi-ply,75,Open,1980-08-08,27,75,Germany,240,265,-280,,265,185,-195,200,,200,230,-240,-240,,230,695
5,Emin Galib Ogly Mamedov,M,SBD,Multi-ply,75,Open,1986-09-21,21,74.6,Azerbaijan,270,285,-295,,285,145,152.5,-157.5,,152.5,245,-260,-260,,245,682.5
6,Ruslan Askerov,M,SBD,Multi-ply,75,Open,1980-07-07,27,73.65,Kyrgyzstan,240,-260,260,,260,170,-180,180,,180,-240,-240,240,,240,680
7,Dmitriy Ivanov #4,M,SBD,Multi-ply,75,Open,1978-12-08,28,74.55,Russia,240,250,-260,,250,140,145,-152.5,,145,230,-262.5,-262.5,,230,625
DQ,Ilya Kokorev,M,SBD,Multi-ply,75,Open,1973-01-19,34,74.2,Russia,-320,-320,,,,,,,,,,,,,,
DQ,Oleg Paderin,M,SBD,Multi-ply,75,Open,1978-11-26,28,74.45,Russia,235,245,-250,,245,165,172.5,-177.5,,172.5,-225,-225,-225,,,
1,Maksim Tomchin,M,SBD,Multi-ply,82.5,Open,1980-11-13,26,82.4,Russia,-350,350,-370,,350,190,-200,-200,,190,280,300,310,-318,310,850
2,Gennadiy Bogdanov,M,SBD,Multi-ply,82.5,Open,1968-01-12,39,82.3,Russia,290,310,-315,,310,190,210,-215,,210,-290,290,-320,,290,810
3,Aleksandr Polfuntikov,M,SBD,Multi-ply,82.5,Open,1982-12-06,24,82.05,Russia,-270,270,-305,,270,160,172.5,180,,180,230,-250,-260,,230,680
1,Andrey Sharapov,M,SBD,Multi-ply,90,Open,1978-11-25,28,89,Russia,-360,375,-390,,375,235,242.5,-250,,242.5,285,300,317.5,,317.5,935
2,Maxim Piskunov,M,SBD,Multi-ply,90,Open,1982-07-24,25,89.35,Russia,310,330,340,,340,170,210,-215,,210,260,270,280,,280,830
3,Yefim Karasik,M,SBD,Multi-ply,90,Open,1964-08-12,43,90,Russia,-290,290,305.5,-315,305.5,180,195,200,,200,290,-312.5,312.5,,312.5,818
4,Vateha Peter,M,SBD,Multi-ply,90,Open,1981-02-13,26,89,Slovakia,300,315,-330,,315,200,210,215,,215,270,-277.5,282.5,,282.5,812.5
5,Sergey Zaytsev,M,SBD,Multi-ply,90,Open,1977-10-13,30,89.2,Russia,-280,-280,290,,290,210,215,-220,,215,280,300,-310,,300,805
6,Yevgeniy Budayev,M,SBD,Multi-ply,90,Open,1983-03-15,24,90,Russia,-290,-290,290,,290,145,155,160,,160,265,282.5,-300,,282.5,732.5
7,Aleksandr Dorgobuzov,M,SBD,Multi-ply,90,Open,1988-03-26,19,88.7,Ukraine,240,255,270,,270,200,210,-220,,210,220,230,-237.5,,230,710
8,David Velička,M,SBD,Multi-ply,90,Open,1980-01-01,27,89.4,Czechia,260,-270,270,,270,195,200,-205,,200,225,-235,-235,,225,695
DQ,Denis Fitkevich,M,SBD,Multi-ply,90,Open,1978-04-22,29,89.55,Ukraine,-355,-375,-375,,,252.5,265,-272.5,,265,,,,,,
DQ,Valeriy Nochvin,M,SBD,Multi-ply,90,Open,1960-11-06,46,89.85,Russia,260,280,-300,,280,-220,-220,-220,,,,,,,,
DQ,Dmitriy Pavlenko,M,SBD,Multi-ply,90,Open,1978-08-20,29,89.9,Ukraine,-270,-280,-280,,,,,,,,,,,,,
1,Aleksandr Grachev,M,SBD,Multi-ply,100,Open,1977-08-15,30,98.5,Russia,-375,380,-405,,380,120,210,230,,230,300,-335,335,,335,945
2,Kirill Valeyev,M,SBD,Multi-ply,100,Open,1982-07-08,25,91.7,Russia,310,325,-340,,325,205,212.5,220,,220,230,250,270,,270,815
DQ,Gilles Zozzoli,M,SBD,Multi-ply,100,Open,1972-11-10,34,99.65,France,-300,-300,-300,,,,,,,,,,,,,
1,Mehdi Fatemi,M,SBD,Multi-ply,110,Open,1971-07-27,36,108.35,Iran,360,-375,375,,375,260,267.5,272.5,,272.5,310,320,325,,325,972.5
2,Rufat Agaev,M,SBD,Multi-ply,110,Open,,,110,Azerbaijan,-390,-390,390,,390,240,-247.5,-247.5,,240,330,340,-345,,340,970
3,Aleksey Kharchev,M,SBD,Multi-ply,110,Open,1976-07-11,31,106.55,Russia,-370,370,-380,,370,215,-220,225,,225,320,335,347.5,,347.5,942.5
4,Vladimir Blinkov,M,SBD,Multi-ply,110,Open,1978-11-03,28,110,Russia,370,-380,-380,,370,235,242.5,247.5,,247.5,310,320,325,,325,942.5
5,Zahir Khudoyarov,M,SBD,Multi-ply,110,Open,1979-01-01,28,107.65,Azerbaijan,-330,330,-350,,330,230,245,255,,255,330,350,-360,,350,935
6,Aleksey Kozlov #1,M,SBD,Multi-ply,110,Open,1970-05-19,37,102.9,Russia,-330,330,352.5,,352.5,220,235,-242.5,,235,310,330,-350,,330,917.5
7,Paul Nay,M,SBD,Multi-ply,110,Open,1969-06-29,38,109.2,Australia,340,-390,-390,,340,-250,-250,250,,250,315,-330,-335.5,,315,905
8,Daniel Dvořák,M,SBD,Multi-ply,110,Open,1976-02-22,31,109.65,Czechia,320,340,-352.5,,340,245,255,-262.5,,255,280,295,305,,305,900
9,Andrey Petrov,M,SBD,Multi-ply,110,Open,1981-09-30,26,109.45,Russia,360,-380,-382.5,,360,220,230,-245,,230,300,-315,-315,,300,890
10,Aleksandr Ballod,M,SBD,Multi-ply,110,Open,1979-08-17,28,110,Russia,-375,-375,375,,375,-215,220,227.5,,227.5,277.5,-287.5,-287.5,,277.5,880
11,Māris Blūmfelds,M,SBD,Multi-ply,110,Open,1979-10-29,28,108.15,Latvia,-330,330,-350,,330,210,-230,-230,,210,300,320,330,,330,870
12,Aleksandr Ryabets,M,SBD,Multi-ply,110,Open,1983-09-08,24,106.3,Russia,300,-315,315,,315,180,190,200,,200,280,300,310,,310,825
13,Lee Price,M,SBD,Multi-ply,110,Open,1970-05-07,37,109.75,UK,-290,290,310,,310,190,207.5,215,,215,-270,270,-290,,270,795
DQ,Vladimir Poletayev,M,SBD,Multi-ply,110,Open,1972-10-17,35,107.95,Russia,250,,,,250,-265,-265,-265,,,,,,,,
DQ,Aleksandr Zaytsev,M,SBD,Multi-ply,110,Open,1977-04-08,30,108.05,Russia,330,360,-370,,360,210,215,220,,220,-310,-310,-310,,,
1,Mikhail Glazunov,M,SBD,Multi-ply,125,Open,1974-02-09,33,118.2,Russia,-360,360,-380,,360,250,270,-275,,270,330,345,352.5,,352.5,982.5
2,Aleksey Rudenko,M,SBD,Multi-ply,125,Open,1972-07-07,35,124.9,Russia,375,387.5,,,387.5,245,-252.5,252.5,,252.5,332.5,-337.5,342.5,,342.5,982.5
3,Vadim Bratanov,M,SBD,Multi-ply,125,Open,1979-03-25,28,124.75,Russia,350,365,375,,375,225,235,240,,240,290,315,-325,,315,930
4,Babak Gosiyani,M,SBD,Multi-ply,125,Open,1975-08-08,32,115.3,Iran,340,350,-370,,350,235,245,-252.5,,245,290,-300,-310,,290,885
5,Radovan Kaděra,M,SBD,Multi-ply,125,Open,1977-05-07,30,113.8,Czechia,250,-270,-280,,250,220,230,-240,,230,230,255,270,,270,750
6,Oliver Spisak,M,SBD,Multi-ply,125,Open,1977-04-27,30,117.95,Slovakia,-250,250,260,,260,165,175,-185,,175,260,280,-290,,280,715
DQ,Vusal Aliyev,M,SBD,Multi-ply,125,Open,1979-01-01,28,116,Azerbaijan,-360,-360,-360,,,,,,,,,,,,,
DQ,Artur Stepanov,M,SBD,Multi-ply,125,Open,1978-01-01,29,116,Russia,-400,-400,-400,,,,,,,,,,,,,
DQ,Denis Semenov,M,SBD,Multi-ply,125,Open,1974-09-20,33,116,Russia,-320,,,,,,,,,,,,,,,
1,Valeriy Snigirev,M,SBD,Multi-ply,140,Open,1977-06-10,30,131.2,Russia,-390,390,400,,400,280,290,300,,300,320,-350,-350,,320,1020
2,Stanislav Polyakov,M,SBD,Multi-ply,140,Open,1973-02-21,34,128.35,Russia,-350,350,370,,370,270,280,-290,,280,305,315,322.5,,322.5,972.5
3,Luboslav Velgos,M,SBD,Multi-ply,140,Open,1973-11-23,33,128.35,Slovakia,-380,380,400,,400,180,190,210,,210,300,325,340,,340,950
4,Konstantin Gensirovsky,M,SBD,Multi-ply,140,Open,1977-09-30,30,128.2,Ukraine,380,-400,-400,,380,230,240,245,,245,300,-310,-310,,300,925
1,Kirill Sarychev,M,SBD,Single-ply,140+,Open,1989-01-01,18,157.65,Russia,320,340,,,340,250,282.5,-290,,282.5,270,-300,300,,300,922.5
2,Kirill Migalin,M,SBD,Multi-ply,140+,Open,1983-04-18,24,143.25,Russia,330,-360,-360,,330,230,-250,-250,,230,290,312.5,-320,,312.5,872.5
DQ,Igor Nastynov,M,SBD,Multi-ply,140+,Open,1961-03-14,46,161.25,Russia,-430,,,,,,,,,,,,,,,
1,Mariya Novikova,F,SBD,Multi-ply,44,Open,1981-06-04,26,42,Russia,92.5,102.5,110,,110,47.5,-52.5,-52.5,,47.5,90,102.5,-107.5,,102.5,260
1,Martina Snakova,F,SBD,Multi-ply,48,T 16-17,1990-05-03,17,48,Slovakia,85,95,102.5,,102.5,45,50,-55,,50,95,105,110,115,110,262.5
1,Margarita Dzina,F,SBD,Multi-ply,48,Open,1969-04-09,38,47.65,Russia,110,120,130,,130,65,-72.5,72.5,,72.5,120,130,140,,140,342.5
1,Rimma Khabibullina,F,SBD,Multi-ply,52,T 16-17,1990-04-21,17,52,Russia,110,120,130,,130,50,57.5,,,57.5,100,107.5,110.5,,110.5,298
1,Lyudmila Grishechkina,F,SBD,Multi-ply,52,T 18-19,1989-06-13,18,52,Russia,100,110,115,,115,67.5,-72.5,72.5,-75,72.5,110,115,122.5,127.5,122.5,310
2,Margarita Gass,F,SBD,Multi-ply,52,T 18-19,1988-02-11,19,52,Russia,110,-120,-120,,110,65,-70,-70,,65,80,90,100,,100,275
1,Marina Zotova,F,SBD,Multi-ply,52,Open,1983-09-23,24,50.3,Russia,-150,150,-160,,150,-95,-95,95,,95,150,165,170,,170,415
2,Yelena Petryukova,F,SBD,Multi-ply,52,Open,1980-09-16,27,52,Russia,130,142.5,145,,145,70,-75,-75,,70,-140,-140,145,,145,360
1,Eva Orenicová,F,SBD,Multi-ply,52,M 55-59,1951-02-09,56,50.7,Slovakia,90,100,110,,110,65,-70,-70,,65,95,105,110,-115,110,285
1,Natalya Sborovskaya,F,SBD,Multi-ply,56,T 16-17,1990-10-11,17,56,Russia,90,100,110,,110,40,-45,50,,50,110,125,-138,,125,285
1,Anastasiya Amelina,F,SBD,Multi-ply,56,T 18-19,1988-12-01,18,55.45,Russia,152.5,162.5,172.5,,172.5,70,75,-80,,75,140,150,160,,160,407.5
1,Marina Yurina,F,SBD,Multi-ply,56,J 20-23,1986-07-26,21,55.2,Russia,-185,185,192.5,,192.5,105,110,115,120,115,150,-165,-165,,150,457.5
2,Darya Isayeva,F,SBD,Multi-ply,56,J 20-23,1987-10-09,20,54.85,Russia,-125,-125,130,,130,70,-75,-80,,70,100,110,-125,,110,310
DQ,Mariya Poteshkina,F,SBD,Multi-ply,56,J 20-23,1987-01-26,20,55.8,Russia,130,-145,-145,,130,-60,-60,-60,,,,,,,,
1,Marina Medvedeva,F,SBD,Multi-ply,56,Open,1974-09-05,33,56,Russia,190,212.5,220,,220,-105,-115,115,-120.5,115,170,-190,-190,,170,505
1,Ekaterina Ustyuzhaninova,F,SBD,Multi-ply,60,T 18-19,1988-12-16,18,59.65,Russia,130,-140,140,,140,75,80,-85,,80,100,120,-125,,120,340
1,Nadezhda Kondratova,F,SBD,Multi-ply,60,J 20-23,1986-06-15,21,58.65,Russia,185,195,-205,,195,90,-95,-95,,90,-160,160,-180,,160,445
2,Mariya Stepanova,F,SBD,Multi-ply,60,J 20-23,1983-11-13,23,59.5,Russia,160,170,180,,180,90,-95,95,,95,140,150,-160,,150,425
3,Lidiya Tomchina,F,SBD,Multi-ply,60,J 20-23,1984-07-28,23,59.1,Russia,-175,175,-185,,175,75,80,-85,,80,130,150,160,,160,415
4,Ekaterina Shkermontova,F,SBD,Multi-ply,60,J 20-23,1985-11-07,21,58.85,Russia,140,150,160,,160,65,-75,75,,75,150,-165,-170,,150,385
1,Lidiya Tomchina,F,SBD,Multi-ply,60,Open,1984-07-28,23,59.1,Russia,175,,,,175,80,,,,80,150,160,,,160,415
2,Svetlana Zubareva,F,SBD,Multi-ply,60,Open,1982-10-22,25,56.95,Russia,110,125,-137.5,,125,55,-65,-65,,55,100,115,,,115,295
1,Yelena Tokareva,F,SBD,Multi-ply,67.5,T 18-19,1988-06-04,19,67.35,Russia,155,-165,-170,,155,70,75,-80,,75,110,-120,,,110,340
1,Irina Petrovich,F,SBD,Multi-ply,67.5,J 20-23,1984-04-04,23,66.15,Belarus,-150,150,160,,160,100,110,112.5,,112.5,180,190,-195,,190,462.5
1,Yuliya Umerenkova,F,SBD,Multi-ply,67.5,Open,1980-12-09,26,66.35,Russia,170,180,190,-210.5,190,80,85,90,,90,155,165,170,,170,450
2,Yuliya Dubrovina,F,SBD,Multi-ply,67.5,Open,1983-07-14,24,64.7,Russia,180,-190,190,,190,85,-90,90,,90,135,-147.5,-147.5,,135,415
DQ,Lyudmila Bobchenko,F,SBD,Multi-ply,67.5,Open,1979-09-19,28,65.1,Ukraine,180,-190,200,,200,-140,-140,-140,,,,,,,,
1,Olga Fedorova,F,SBD,Multi-ply,67.5,M 45-49,1958-07-21,49,63.3,Russia,110,120,125,,125,65,70,75,,75,120,130,140,,140,340
1,Elena Povolotskaya,F,SBD,Multi-ply,75,Open,1978-02-16,29,75,Russia,245,257.5,270,,270,115,122.5,-127.5,,122.5,215,-222.5,-222.5,,215,607.5
1,Svetlana Sheremenko,F,SBD,Multi-ply,75,M 45-49,1959-03-15,48,73.55,Ukraine,145,155,162.5,,162.5,72.5,77.5,-85,,77.5,145,152.5,160,,160,400
DQ,Jane Stabile,F,SBD,Multi-ply,75,M 50-54,1952-12-08,54,73.1,USA,-155,-155,-155,,,,,,,,,,,,,
1,Elena Sheverdina,F,SBD,Multi-ply,82.5,Open,1968-02-14,39,77.65,Russia,210,220,230,,230,165,167.5,-170,,167.5,190,-200,202.5,,202.5,600
1,Valentin Cheblakov,M,SBD,Multi-ply,60,M 55-59,1952-08-15,55,59.55,Russia,117.5,127.5,140,142.5,140,85,90,95,,95,145,152.5,157.5,,157.5,392.5
2,Mingaley Zagirov,M,SBD,Multi-ply,60,M 55-59,1948-08-07,59,59.6,Russia,120.5,130,140,,140,65,-70,,,65,150,170,-182.5,,170,375
1,Sergey Bychkov,M,SBD,Multi-ply,67.5,M 40-44,1964-11-29,42,66.1,Russia,130,-150,-150,,130,80,90,-100,,90,150,170,-185,,170,390
1,Yanis Shteynbergs,M,SBD,Multi-ply,67.5,M 45-49,1958-05-03,49,65.9,Latvia,140,150,-167.5,,150,110,145,-147.5,,145,155,165,,,165,460
1,Vladimir Zhidkov,M,SBD,Multi-ply,67.5,M 50-54,1954-02-17,53,67.3,Russia,170,-185,195,,195,115,122.5,-127.5,,122.5,200,215,-222.5,,215,532.5
1,Yuri Kiselev,M,SBD,Multi-ply,67.5,M 65-69,1937-11-12,69,65,Russia,110,125,132.5,,132.5,75,82.5,90,,90,140,165,-180,,165,387.5
1,Anatoliy Chistyakov,M,SBD,Multi-ply,67.5,M 65-69,1940-10-02,67,63.3,Russia,-80,80,90,,90,-65,65,67.5,,67.5,85,95,105,,105,262.5
1,Sergey Trukhnin,M,SBD,Multi-ply,75,M 40-44,1965-08-10,42,74.85,Russia,215,230,,,230,120,-155,-160,,120,200,220,,,220,570
1,Patrick Breton,M,SBD,Multi-ply,75,M 45-49,1960-03-29,47,74.8,France,210,220,230,,230,125,-135,-135,,125,260,-270,-288.5,,260,615
2,Valeriy Stoyanov,M,SBD,Multi-ply,75,M 45-49,1957-11-25,49,74.35,Russia,160,180,200,,200,110,117.5,125,,125,160,175,190,,190,515
1,Vyacheslav Gorodulin,M,SBD,Multi-ply,75,M 50-54,1954-04-28,53,74.4,Ukraine,240,-250,250,,250,140,155,162.5,,162.5,230,245,-250,,245,657.5
2,Farid Sayfutdinov,M,SBD,Multi-ply,75,M 50-54,1957-09-17,50,74.5,Kyrgyzstan,-210,-210,210,,210,100,-155,-155,,100,-170,170,-210,,170,480
1,Aleksey Sedelkin,M,SBD,Multi-ply,75,M 55-59,1951-01-01,56,74.7,Russia,200,210,225,,225,105,-115,115,,115,200,-210,,,200,540
1,Yuriy Chepets,M,SBD,Multi-ply,75,M 60-64,1943-04-19,64,75,Russia,225,240,-250,,240,175,185,-188,,185,190,205,-215,,205,630
1,Gennadiy Pereladov,M,SBD,Multi-ply,75,M 70-74,1936-06-06,71,74.15,Russia,120,-130,130,,130,90,95,100,,100,160,170,180,,180,410
1,Yuri Alekseyev,M,SBD,Multi-ply,82.5,M 40-44,1966-01-14,41,79.1,Russia,180,-200,-200,,180,120,-130,-130,,120,-170,170,200,,200,500
1,Anatoliy Cherednichenko,M,SBD,Multi-ply,82.5,M 50-54,1956-09-17,51,80.85,Ukraine,190,205,215,,215,100,110,120,,120,-195,205,-220,,205,540
2,Vladimir Larin,M,SBD,Multi-ply,82.5,M 50-54,1954-03-13,53,79.7,Russia,130,145,155,,155,110,-120,-125,,110,-140,150,160,,160,425
1,Valeriy Glazunov,M,SBD,Multi-ply,82.5,M 55-59,1948-12-18,58,82.5,Russia,250,280,302.5,,302.5,160,180,-187.5,,180,220,240,250,,250,732.5
1,Vladimir Tkachenko,M,SBD,Multi-ply,82.5,M 60-64,1945-06-18,62,80.75,Russia,240,-260,260,,260,140,-145,145,,145,225,235,237.5,,237.5,642.5
1,Vyacheslav Yakushev,M,SBD,Multi-ply,82.5,M 65-69,1941-09-01,66,82.5,Russia,-182.5,-182.5,182.5,,182.5,110,115,117.5,,117.5,182.5,190,195,,195,495
1,Yefim Karasik,M,SBD,Multi-ply,90,M 40-44,1964-08-12,43,90,Russia,-290,290,305.5,-315,305.5,180,195,200,,200,290,-312.5,312.5,,312.5,818
2,Vladimir Tyapkin,M,SBD,Multi-ply,90,M 40-44,1964-07-22,43,89.65,Russia,280,300,-306,,300,165,175,185,,185,-250,-250,250,,250,735
3,Igor Averin,M,SBD,Multi-ply,90,M 40-44,1963-01-12,44,90,Russia,170,-180,180,,180,110,115,-120,,115,160,170,-180,,170,465
1,Aleksandr Baranov,M,SBD,Multi-ply,90,M 45-49,1958-02-06,49,88.5,Ukraine,200,220,230,,230,100,-145,145,,145,200,220,230,,230,605
1,Viktor Prilipa,M,SBD,Multi-ply,90,M 50-54,1955-03-27,52,88.25,Russia,240,260,265,,265,160,170,-180,,170,230,245,-255,,245,680
2,Aleksandr Podryadov,M,SBD,Multi-ply,90,M 50-54,1953-03-04,54,86.3,Russia,170,210,230,,230,130,-152.5,-152.5,,130,170,192.5,202.5,,202.5,562.5
3,Vladimir Potapov,M,SBD,Multi-ply,90,M 50-54,1954-05-22,53,88.25,Russia,-215,215,225,,225,140,147.5,-155,,147.5,-170,170,190,,190,562.5
1,Aleksandr Nemchinov,M,SBD,Multi-ply,90,M 55-59,1951-11-10,55,88,Russia,200,-270,-270,,200,115,,,,115,235,,,,235,550
1,Vladimir Ladeyshchikov,M,SBD,Multi-ply,100,M 40-44,1967-08-21,40,97.45,Russia,270,285,-300,,285,150,160,165,,165,270,295,-297.5,,295,745
2,Valeriy Nechosa,M,SBD,Multi-ply,100,M 40-44,1965-10-14,42,99.95,Russia,260,280,300,,300,165,175,-180,,175,250,-272.5,-272.5,,250,725
3,Sergey Bershadskiy,M,SBD,Multi-ply,100,M 40-44,1963-03-17,44,99.1,Ukraine,220,-240,-250,,220,160,170,,,170,220,240,255,,255,645
4,Dmitriy Chertushkin,M,SBD,Multi-ply,100,M 40-44,1965-08-15,42,99.35,Russia,240,250,-265,,250,-180,180,185,,185,200,210,-220,,210,645
DQ,Steve Hunter,M,SBD,Multi-ply,100,M 40-44,1967-02-03,40,96.55,UK,230,250,-270,,250,-180,-180,-180,,,,,,,,
1,Oleg Kholodov,M,SBD,Multi-ply,100,M 45-49,1961-11-27,45,95.95,Russia,185,200,,,200,140,-165,170,,170,175,200,,,200,570
2,Georgiy Didenkul,M,SBD,Multi-ply,100,M 45-49,1959-05-16,48,93.9,Russia,120,,,,120,120,-130,,,120,120,150,,,150,390
1,Oleg Tokarev,M,SBD,Multi-ply,100,M 50-54,1954-02-28,53,99.75,Russia,-245,260,280,,280,175,190,200,,200,245,260,270,,270,750
2,Valeriy Chepurnov,M,SBD,Multi-ply,100,M 50-54,1953-05-19,54,99.7,Russia,-240,-240,240,,240,-140,140,-150,,140,220,230,,,230,610
1,Floyd Givens,M,SBD,Multi-ply,100,M 55-59,1951-10-07,56,99.2,USA,250,275,-295,,275,187.5,-202.5,-202.5,,187.5,277.5,295,-307.5,,295,757.5
DQ,Mikhail Bobkov,M,SBD,Multi-ply,100,M 55-59,1947-11-21,59,91.95,Russia,-285,-285,-285,,,,,,,,,,,,,
1,Aleksandr Andrianov,M,SBD,Multi-ply,100,M 60-64,1944-09-04,63,94.3,Russia,210,230,-250,,230,150,160,170,,170,200,220,-225,,220,620
DQ,Yevgeniy Khudoleyev,M,SBD,Multi-ply,100,M 60-64,1946-09-10,61,95.65,Russia,220,-240,-250,,220,-155,155,-160,,155,-220,-240,-240,,,
1,Terry Lancaster,M,SBD,Multi-ply,100,M 60-64,1942-11-10,64,99.85,USA,200,-227.5,-230,,200,175,-185,-185,,175,227.5,-257.5,257.5,,257.5,632.5
1,Aleksandr Skvortsov,M,SBD,Multi-ply,100,M 70-74,1937-01-01,70,95.9,Russia,170,185,192.5,,192.5,122.5,132.5,-137.5,,132.5,175,190,200,,200,525
1,Vadim Pavlyuk,M,SBD,Multi-ply,110,M 40-44,1966-01-02,41,107.85,Russia,-320,320,-340,,320,205,215,-222.5,,215,250,270,,,270,805
2,Aleksandr Tsygankov,M,SBD,Multi-ply,110,M 40-44,1965-07-05,42,106.6,Russia,260,-280,280,,280,180,200,205,,205,260,280,295,,295,780
1,Konstantin Makovskiy,M,SBD,Multi-ply,110,M 45-49,1957-12-10,49,107.45,Russia,245,-260,,,245,170,177.5,182.5,,182.5,200,230,,,230,657.5
1,Aleksandr Larin,M,SBD,Multi-ply,110,M 55-59,1949-03-12,58,108.95,Russia,270,290,-300,,290,170,-180,-180,,170,210,220,225,,225,685
2,Anatoliy Dergilev,M,SBD,Multi-ply,110,M 55-59,1950-05-22,57,101.7,Russia,180,200,-220,,200,140,-160,-160,,140,160,170,180,,180,520
3,Valentin Savelyev,M,SBD,Multi-ply,110,M 55-59,1950-07-26,57,101.65,Russia,-120,130,150,,150,120,-140,140,,140,160,-190,210,,210,500
1,Andrey Luchkov,M,SBD,Multi-ply,125,M 40-44,1965-12-13,41,110.1,Russia,150,,,,150,180,235,265,,265,150,205,,,205,620
1,Aleksey Bulichev,M,SBD,Multi-ply,125,M 50-54,1954-07-10,53,124.2,Russia,310,,,,310,200,,,,200,200,,,,200,710
DQ,Peka Rantanen,M,SBD,Multi-ply,125,M 50-54,1957-03-31,50,117.8,Finland,-320,-320,-320,,,,,,,,,,,,,
1,Alexander Maksimushkin,M,SBD,Multi-ply,125,M 55-59,1950-11-03,56,112,Russia,300,-322.5,,,300,150,-160,,,150,220,,,,220,670
1,Eduard Dobrõi,M,SBD,Multi-ply,125,M 65-69,1941-07-10,66,120.4,Estonia,165,175,185,,185,140,158,-165,,158,130,155.5,165,-170,165,508
1,Lev Bergert,M,SBD,Multi-ply,140,M 40-44,1966-07-13,41,133.2,Russia,310,330,-340,,330,225,-240,-240,,225,260,287.5,,,287.5,842.5
DQ,Tibor Mészáros,M,SBD,Multi-ply,140,M 40-44,1967-03-20,40,133.9,Hungary,-320,-320,-320,,,,,,,,,,,,,
DQ,Chris Clark,M,SBD,Multi-ply,140+,M 40-44,1967-06-14,40,154.2,USA,-415,-415,-415,,,,,,,,,,,,,
1,Svetlana Voronova,F,B,Multi-ply,44,Open,1976-09-15,31,44,Estonia,,,,,,70,-77.5,-77.5,,70,,,,,,70
1,Anastasiya Sergiyenko,F,B,Multi-ply,48,J 20-23,1987-09-14,20,48,Russia,,,,,,-65,67.5,-75,,67.5,,,,,,67.5
1,Margarita Dzina,F,B,Multi-ply,48,Open,1969-04-09,38,47.8,Russia,,,,,,65,72.5,-77.5,,72.5,,,,,,72.5
DQ,Yelena Okhotina,F,B,Multi-ply,48,Open,1977-06-28,30,46.9,Russia,,,,,,-60,-60,-60,,,,,,,,
1,Lyudmila Grishechkina,F,B,Multi-ply,52,T 18-19,1989-06-13,18,52,Russia,,,,,,65,72.5,75,-77.5,75,,,,,,75
1,Inna Shmakova,F,B,Multi-ply,52,J 20-23,1986-07-04,21,51.75,Russia,,,,,,40,-55,62.5,,62.5,,,,,,62.5
1,Marina Zotova,F,B,Multi-ply,52,Open,1983-09-23,24,52,Russia,,,,,,90,97.5,-102.5,,97.5,,,,,,97.5
2,Mariya Shtin,F,B,Multi-ply,52,Open,1980-01-28,27,52,Russia,,,,,,70,75,-82.5,,75,,,,,,75
DQ,Marina Gileva,F,B,Multi-ply,52,Open,1973-07-02,34,52,Russia,,,,,,-75,-75,-75,,,,,,,,
1,Alena Podelko,F,B,Multi-ply,56,T 16-17,1990-09-19,17,52.3,Russia,,,,,,40,47.5,-52.5,,47.5,,,,,,47.5
1,Anastasiya Amelina,F,B,Multi-ply,56,T 18-19,1988-12-01,18,55.25,Russia,,,,,,72.5,-77.5,-77.5,,72.5,,,,,,72.5
1,Marina Yurina,F,B,Multi-ply,56,J 20-23,1986-07-26,21,55.5,Russia,,,,,,110,117.5,125,,125,,,,,,125
2,Yekaterina Nalobina,F,B,Multi-ply,56,J 20-23,1984-10-02,23,54.3,Russia,,,,,,100,-107.5,107.5,,107.5,,,,,,107.5
3,Olga Grineva,F,B,Multi-ply,56,J 20-23,1985-10-02,22,55.05,Russia,,,,,,82.5,-87.5,-92.5,,82.5,,,,,,82.5
4,Darya Isayeva,F,B,Multi-ply,56,J 20-23,1987-10-09,20,55.6,Russia,,,,,,72.5,77.5,-80,,77.5,,,,,,77.5
1,Dagmar Liptáková,F,B,Multi-ply,56,Open,1976-02-19,31,54.7,Slovakia,,,,,,82.5,90,-95,,90,,,,,,90
2,Galina Stepanovich,F,B,Multi-ply,56,Open,1976-02-23,31,55.6,Russia,,,,,,85,-92.5,-95,,85,,,,,,85
1,Ekaterina Ustyuzhaninova,F,B,Multi-ply,60,T 18-19,1988-12-16,18,60,Russia,,,,,,77.5,-82.5,-82.5,,77.5,,,,,,77.5
2,Anna Kaveshnikova,F,B,Multi-ply,60,T 18-19,1989-10-02,18,59.25,Russia,,,,,,50,55,57.5,,57.5,,,,,,57.5
1,Nadezhda Kondratova,F,B,Multi-ply,60,J 20-23,1986-06-15,21,58.8,Russia,,,,,,92.5,97.5,-100,,97.5,,,,,,97.5
2,Mariya Stepanova,F,B,Multi-ply,60,J 20-23,1983-11-13,23,59.95,Russia,,,,,,92.5,97.5,-100,,97.5,,,,,,97.5
1,Nellya Maltseva,F,B,Multi-ply,60,Open,1979-06-20,28,59.5,Russia,,,,,,110,-120,-120,,110,,,,,,110
1,Faina Kharif,F,B,Multi-ply,60,M 45-49,1960-07-04,47,58.65,Israel,,,,,,45,-50,-50,,45,,,,,,45
1,Yelena Tokareva,F,B,Multi-ply,67.5,T 18-19,1988-06-04,19,67.45,Russia,,,,,,75,77.5,-87.5,,77.5,,,,,,77.5
DQ,Natalya Lovtsova,F,B,Multi-ply,67.5,J 20-23,1986-05-29,21,64.25,Russia,,,,,,-95,-100,-100,,,,,,,,
1,Yuliya Medvedeva #1,F,B,Multi-ply,67.5,Open,1979-07-08,28,67.5,Russia,,,,,,110,120,-130,,120,,,,,,120
2,Yuliya Dubrovina,F,B,Multi-ply,67.5,Open,1983-07-14,24,65.2,Russia,,,,,,-82.5,82.5,87.5,,87.5,,,,,,87.5
1,Anna Markus,F,B,Multi-ply,67.5,M 45-49,1960-07-04,47,65.05,Israel,,,,,,55,60,-62.5,,60,,,,,,60
1,Viktoriya Sheludko,F,B,Multi-ply,75,Open,1973-12-24,33,75,Russia,,,,,,140,150,-155,,150,,,,,,150
2,Svetlana Sinacheva,F,B,Multi-ply,75,Open,1965-12-15,,72.25,Russia,,,,,,115,,,,115,,,,,,115
1,Svetlana Sinacheva,F,B,Multi-ply,75,M 40-44,1965-12-15,,72.25,Russia,,,,,,115,,,,115,,,,,,115
3,Yuliya Raputa,F,B,Multi-ply,75,Open,1972-07-08,35,73.55,Russia,,,,,,115,-120,-120,,115,,,,,,115
4,Sandra Mokrá,F,B,Multi-ply,75,Open,1979-03-19,28,72.2,Slovakia,,,,,,85,90,97.5,,97.5,,,,,,97.5
1,Yuliya Sablina,F,B,Multi-ply,82.5,Open,1968-07-01,39,82.5,Russia,,,,,,105,115,,,115,,,,,,115
2,Michaela Rackova,F,B,Multi-ply,82.5,Open,1980-01-01,27,75.3,Czechia,,,,,,85,90,-95,,90,,,,,,90
DQ,Tarja Rantanen,F,B,Multi-ply,90+,M 45-49,1957-12-21,49,92.2,Finland,,,,,,-150,-157.5,-157.5,,,,,,,,
1,Alexandr Petukhov,M,B,Multi-ply,52,T 13-15,1994-04-01,13,47.35,Russia,,,,,,-67.5,70,75,,75,,,,,,75
2,Daniil Fomin #1,M,B,Multi-ply,52,T 13-15,1992-01-01,15,50.85,Ukraine,,,,,,52.5,57.5,60,,60,,,,,,60
3,Yegor Pavlyuk,M,B,Multi-ply,52,T 13-15,1992-12-17,14,50.9,Russia,,,,,,-55,-55,55,,55,,,,,,55
1,Sergey Alexandrov,M,B,Multi-ply,52,T 18-19,1989-05-08,,50.35,Russia,,,,,,70,80,-85,,80,,,,,,80
1,Pavel Baranov,M,B,Multi-ply,56,T 13-15,1993-10-05,14,54.25,Russia,,,,,,70.5,-77.5,80,-88.5,80,,,,,,80
2,David Amazyan,M,B,Multi-ply,56,T 18-19,1988-09-01,19,56,Russia,,,,,,105,115,,,115,,,,,,115
1,Imam Abdiyev,M,B,Multi-ply,56,J 20-23,1986-03-19,21,55.9,Russia,,,,,,-120,120,130,140,130,,,,,,130
1,Alexey Gornyy,M,B,Multi-ply,60,T 13-15,1992-09-03,15,56.35,Ukraine,,,,,,55,70,-75,,70,,,,,,70
1,Mikhail Shelaykin,M,B,Multi-ply,60,T 16-17,1991-10-23,16,58.05,Russia,,,,,,105,-115,-115,,105,,,,,,105
1,Sergey Kachan,M,B,Multi-ply,60,T 18-19,1989-06-29,18,58.55,Ukraine,,,,,,87.5,95,-100,,95,,,,,,95
1,David Vartanov,M,B,Multi-ply,60,J 20-23,1986-07-15,21,59.8,Russia,,,,,,160,-170.5,170.5,-172.5,170.5,,,,,,170.5
1,Yuri Mukhamedyarov,M,B,Multi-ply,60,M 40-44,1965-07-01,42,59.7,Russia,,,,,,-80,80,-90,,80,,,,,,80
1,Valentin Cheblakov,M,B,Multi-ply,60,M 55-59,1952-08-15,55,59.75,Russia,,,,,,85,92.5,97.5,100,97.5,,,,,,97.5
1,Vitaliy Pshenichnyy,M,B,Multi-ply,67.5,T 18-19,1988-09-13,19,65.7,Russia,,,,,,110,-130,-130,,110,,,,,,110
1,Vladimir Karavayev,M,B,Multi-ply,67.5,J 20-23,1987-10-02,,63.25,Russia,,,,,,-170,-170,170,,170,,,,,,170
2,Mikhail Kolesnikov,M,B,Multi-ply,67.5,J 20-23,1986-04-12,21,66.7,Russia,,,,,,-155,160,165,,165,,,,,,165
3,Vladislav Lisunov,M,B,Multi-ply,67.5,J 20-23,1983-12-24,23,67.05,Russia,,,,,,-165,-165,165,,165,,,,,,165
4,Dmitriy Stoyanov,M,B,Multi-ply,67.5,J 20-23,1987-05-12,,67.3,Russia,,,,,,-145,165,-167.5,,165,,,,,,165
5,Soslan Togoyev,M,B,Multi-ply,67.5,J 20-23,1986-07-16,21,67.2,Russia,,,,,,-145,145,-165,,145,,,,,,145
1,Sergey Bychkov,M,B,Multi-ply,67.5,M 40-44,1964-11-29,42,64.5,Russia,,,,,,85,-100,,,85,,,,,,85
1,Yanis Shteynbergs,M,B,Multi-ply,67.5,M 45-49,1958-05-03,49,65.9,Latvia,,,,,,142.5,-147.5,-147.5,,142.5,,,,,,142.5
1,Sergey Kim,M,B,Multi-ply,67.5,M 50-54,1957-01-18,50,66.55,Russia,,,,,,-165.5,-165.5,165.5,-175,165.5,,,,,,165.5
1,Yuri Kiselev,M,B,Multi-ply,67.5,M 65-69,1937-11-12,69,67.3,Russia,,,,,,75,85,92.5,,92.5,,,,,,92.5
2,Anatoliy Chistyakov,M,B,Multi-ply,67.5,M 65-69,1940-10-02,67,63.5,Russia,,,,,,65,67.5,-70,,67.5,,,,,,67.5
1,Denis Tychynin,M,B,Multi-ply,75,T 13-15,1991-12-07,15,72.9,Russia,,,,,,130,145,152.5,,152.5,,,,,,152.5
2,Vadim Yakfarov,M,B,Multi-ply,75,T 13-15,1992-03-04,15,74.75,Russia,,,,,,120,130.5,145.5,,145.5,,,,,,145.5
1,Vladislav Lopatin,M,B,Multi-ply,75,T 16-17,1990-05-14,17,73.85,Russia,,,,,,160.5,165,170,172.5,170,,,,,,170
2,Konstantin Khrushchev,M,B,Multi-ply,75,T 16-17,1989-12-10,17,73.25,Russia,,,,,,115,125,-130,,125,,,,,,125
1,Alexey Chebykin,M,B,Multi-ply,75,T 18-19,1988-04-25,19,74.55,Russia,,,,,,170,177.5,182.5,,182.5,,,,,,182.5
2,Pavel Bogatyrev,M,B,Multi-ply,75,T 18-19,1989-04-22,18,73.75,Russia,,,,,,170,178,-185,,178,,,,,,178
3,Anatoliy Fedotov,M,B,Multi-ply,75,T 18-19,1989-06-17,18,74.45,Russia,,,,,,120,-165,-165,,120,,,,,,120
1,Alexandr Nekipelov,M,B,Multi-ply,75,J 20-23,1987-04-18,,74.95,Russia,,,,,,210,220,,,220,,,,,,220
2,Sergey Blinov,M,B,Multi-ply,75,J 20-23,1987-06-26,20,75,Russia,,,,,,175,187.5,-192.5,,187.5,,,,,,187.5
3,Vladimir Upolovnikov,M,B,Multi-ply,75,J 20-23,1985-05-24,22,75,Russia,,,,,,175,185,-190,,185,,,,,,185
4,Yevgeniy Zlobin,M,B,Multi-ply,75,J 20-23,1986-08-19,21,75,Russia,,,,,,165,175,-185,,175,,,,,,175
5,Rinat Abubekirov,M,B,Multi-ply,75,J 20-23,1986-10-01,21,74.35,Russia,,,,,,-165,-165,170,,170,,,,,,170
6,Alexey Semikolennykh,M,B,Multi-ply,75,J 20-23,1985-03-27,22,73.8,Russia,,,,,,-165,-165,165,,165,,,,,,165
7,Anton Pshenichnyy,M,B,Multi-ply,75,J 20-23,1986-01-02,21,74.45,Russia,,,,,,150,-165,-165,,150,,,,,,150
DQ,Martynyuk Olexandr,M,B,Multi-ply,75,J 20-23,1985-01-03,22,73.25,USA,,,,,,-185,-185,-195,,,,,,,,
1,Viktor Baranchikov,M,B,Multi-ply,75,M 45-49,1960-01-01,47,69.7,Russia,,,,,,-155,-155,155,-180.5,155,,,,,,155
2,Valeriy Stoyanov,M,B,Multi-ply,75,M 45-49,1957-11-25,49,74.05,Russia,,,,,,115,122.5,-130,,122.5,,,,,,122.5
1,Alexandr Tatarkin,M,B,Multi-ply,75,M 50-54,1955-08-16,52,74.25,Russia,,,,,,170,-182.5,182.5,,182.5,,,,,,182.5
1,Nikolay Khlopenev,M,B,Multi-ply,75,M 55-59,1949-08-01,58,74.4,Russia,,,,,,-150,150,-175,,150,,,,,,150
1,Yevgeniy Petukhov,M,B,Multi-ply,75,M 65-69,1938-01-01,69,72.7,Russia,,,,,,135,142.5,-147.5,,142.5,,,,,,142.5
1,Gennadiy Pereladov,M,B,Multi-ply,75,M 70-74,1936-06-06,71,74,Russia,,,,,,80,90,95,,95,,,,,,95
1,Dmitriy Duskryadchenko,M,B,Multi-ply,82.5,T 13-15,1991-12-01,15,76.1,Russia,,,,,,85,-130,-135,,85,,,,,,85
2,Ilya Chudin,M,B,Multi-ply,82.5,T 16-17,1990-06-26,17,76.9,Russia,,,,,,130,140,150,165.5,150,,,,,,150
3,Sergey Titov,M,B,Multi-ply,82.5,T 16-17,1990-05-30,17,78.15,Russia,,,,,,130,142.5,-150,,142.5,,,,,,142.5
4,Rovshan Abdulayev,M,B,Multi-ply,82.5,T 16-17,1990-10-30,,81.35,Russia,,,,,,115,125,140,,140,,,,,,140
5,Vaagn Mikayelyan,M,B,Multi-ply,82.5,T 18-19,1988-02-27,19,78.8,Russia,,,,,,170,-175,-180,,170,,,,,,170
6,Dmitriy Fedotkin,M,B,Multi-ply,82.5,T 18-19,1987-12-30,19,81.1,Ukraine,,,,,,150,-160,165,,165,,,,,,165
7,Dmitriy Markelov,M,B,Multi-ply,82.5,T 18-19,1989-09-04,18,81.6,Russia,,,,,,150,-165,-165,,150,,,,,,150
8,Mikhail Kargapolov,M,B,Multi-ply,82.5,J 20-23,1985-05-01,22,82.5,Russia,,,,,,-210,-215,215,,215,,,,,,215
9,Andrey Dyatlov,M,B,Multi-ply,82.5,J 20-23,1985-02-28,22,81.7,Ukraine,,,,,,175,182.5,190,,190,,,,,,190
10,Anton Shapovalov,M,B,Multi-ply,82.5,J 20-23,1985-11-22,21,80.35,Russia,,,,,,170,180,182.5,,182.5,,,,,,182.5
11,Denis Grishin,M,B,Multi-ply,82.5,J 20-23,1986-03-05,21,76.65,Russia,,,,,,180,-202.5,-202.5,,180,,,,,,180
12,Vyacheslav Shisterov,M,B,Multi-ply,82.5,J 20-23,1987-01-05,20,80.95,Russia,,,,,,180,-187.5,-190,,180,,,,,,180
DQ,Ivan Doronin,M,B,Multi-ply,82.5,J 20-23,1985-08-10,22,80.8,Russia,,,,,,-170,-175,-180,,,,,,,,
DQ,Igor Dyachenko,M,B,Multi-ply,82.5,J 20-23,1984-08-09,23,80.9,Russia,,,,,,-210,-210,-210,,,,,,,,
1,Andris Grēbers,M,B,Multi-ply,82.5,M 40-44,1964-04-26,43,82.1,Latvia,,,,,,190,195,-205,,195,,,,,,195
2,Yuri Petryakov,M,B,Multi-ply,82.5,M 40-44,1964-02-23,43,81.3,Russia,,,,,,190,-202.5,-202.5,,190,,,,,,190
3,Valeriy Melnikov,M,B,Multi-ply,82.5,M 40-44,1963-01-26,44,82.5,Russia,,,,,,-185,185,-210,,185,,,,,,185
4,Yuri Alexeyev,M,B,Multi-ply,82.5,M 40-44,1966-01-14,41,78.45,Russia,,,,,,-120,120,-125,,120,,,,,,120
DQ,Igor Rodionov,M,B,Multi-ply,82.5,M 40-44,1966-05-04,41,80.75,Russia,,,,,,-170,-170,-185,,,,,,,,
1,Vladimir Reshetnikov,M,B,Multi-ply,82.5,M 45-49,1960-04-16,47,81.05,Russia,,,,,,165,-180,180,,180,,,,,,180
2,Vitaliy Baykin,M,B,Multi-ply,82.5,M 45-49,1961-07-19,,82.4,Russia,,,,,,165,175,180,,180,,,,,,180
1,Leopold Likh,M,B,Multi-ply,82.5,M 50-54,1953-06-15,54,82.1,Russia,,,,,,155,-165,-165,,155,,,,,,155
2,Vladimir Larin,M,B,Multi-ply,82.5,M 50-54,1954-03-13,53,79.45,Russia,,,,,,110,120,125,,125,,,,,,125
1,Vladimir Korolchenko,M,B,Multi-ply,82.5,M 55-59,1950-11-02,,77.8,Russia,,,,,,110,120,130,,130,,,,,,130
DQ,Sergey Druzhkov,M,B,Multi-ply,82.5,M 55-59,1950-01-01,57,81.3,Russia,,,,,,-185,-185,-185,,,,,,,,
DQ,Vyacheslav Stankevich,M,B,Multi-ply,82.5,M 55-59,1950-10-02,57,81.6,Russia,,,,,,-180,-185,-185,,,,,,,,
1,Scott Craig,M,B,Multi-ply,82.5,M 60-64,1946-09-26,61,79.9,USA,,,,,,-187.5,187.5,195.5,,195.5,,,,,,195.5
2,Eldar Tsariyev,M,B,Multi-ply,82.5,M 60-64,1946-02-17,61,81.7,Russia,,,,,,120,125,130,,130,,,,,,130
3,Alexandr Biserov,M,B,Multi-ply,82.5,M 60-64,1943-08-18,64,79.7,Russia,,,,,,115,122.5,127.5,,127.5,,,,,,127.5
1,Vyacheslav Yakushov,M,B,Multi-ply,82.5,M 65-69,1941-09-01,66,82.5,Russia,,,,,,110,117.5,120,,120,,,,,,120
1,Vladimir Malyshev,M,B,Multi-ply,82.5,M 70-74,1936-09-20,71,82.25,Russia,,,,,,132.5,137.5,-142.5,,137.5,,,,,,137.5
1,Maxim Udovichenko,M,B,Multi-ply,90,T 16-17,1990-09-16,17,85.8,Russia,,,,,,145,150,-165,,150,,,,,,150
2,Vitaliy Maklakov,M,B,Multi-ply,90,T 16-17,1989-11-22,17,82.75,Russia,,,,,,120,130,-150,,130,,,,,,130
1,Alexandr Romanov,M,B,Multi-ply,90,T 18-19,1988-05-11,19,86.65,Russia,,,,,,200,-230,-230,,200,,,,,,200
2,Alexandr Dorgobuzov,M,B,Multi-ply,90,T 18-19,1988-03-26,19,88.65,Ukraine,,,,,,200,-207.5,,,200,,,,,,200
3,Vitaliy Balashov,M,B,Multi-ply,90,T 18-19,1988-10-18,19,82.95,Russia,,,,,,130,140,-150,,140,,,,,,140
1,Pavel Yevtushenko,M,B,Multi-ply,90,J 20-23,1985-01-09,22,88.1,Russia,,,,,,-250,-250,250,-270,250,,,,,,250
2,Marat Abdullin,M,B,Multi-ply,90,J 20-23,1985-07-21,22,86.95,Russia,,,,,,225,240,-250.5,,240,,,,,,240
3,Benjamin Hooker,M,B,Multi-ply,90,J 20-23,1984-07-17,23,89.8,USA,,,,,,220,-230,-230,,220,,,,,,220
4,Alexey Rogov,M,B,Multi-ply,90,J 20-23,1987-02-17,20,88.1,Russia,,,,,,-192.5,192.5,-200,,192.5,,,,,,192.5
5,Viktor Stefantsov,M,B,Multi-ply,90,J 20-23,1984-11-09,22,89.6,Russia,,,,,,-180,180,-192.5,,180,,,,,,180
6,Vladimir Grigoryev,M,B,Multi-ply,90,J 20-23,1986-07-21,21,84.95,Russia,,,,,,150,-170,-170,,150,,,,,,150
DQ,Volodimir Markiv,M,B,Multi-ply,90,J 20-23,1983-11-24,23,89.8,Ukraine,,,,,,-200,-200,-200,,,,,,,,
DQ,Roman Stefanchishen,M,B,Multi-ply,90,J 20-23,1987-06-24,20,89.9,Ukraine,,,,,,-222.5,-225,-225,,,,,,,,
DQ,Dzhabir Ibragimov,M,B,Multi-ply,90,J 20-23,1985-06-18,22,90,Azerbaijan,,,,,,-232.5,-232.5,-242.5,,,,,,,,
1,Boris Zhernovnikov,M,B,Multi-ply,90,M 40-44,1965-03-16,42,89.35,Russia,,,,,,-220,220,-230,,220,,,,,,220
2,Patrick Rollot,M,B,Multi-ply,90,M 40-44,1965-01-28,42,89.8,France,,,,,,200,-210,-210,,200,,,,,,200
3,Igor Shubin,M,B,Multi-ply,90,M 40-44,1963-03-29,44,88,Ukraine,,,,,,160,-175,175,,175,,,,,,175
4,Igor Rachkov,M,B,Multi-ply,90,M 40-44,1965-03-06,42,89.85,Russia,,,,,,175,-185,-185,,175,,,,,,175
1,Valeriy Nochvin,M,B,Multi-ply,90,M 45-49,1960-11-06,46,89.85,Russia,,,,,,210,220,-225,,220,,,,,,220
2,Valeriy Akentyev,M,B,Multi-ply,90,M 45-49,1958-03-13,49,89.4,Russia,,,,,,-205,-205,205,,205,,,,,,205
3,Didier Theaux,M,B,Multi-ply,90,M 45-49,1958-05-01,49,87.15,France,,,,,,180,-200,-205,,180,,,,,,180
1,Alain-Francis Matteï,M,B,Multi-ply,90,M 50-54,1955-01-20,52,88.6,France,,,,,,170,-185,185,,185,,,,,,185
2,Alexandr Zavyalov,M,B,Multi-ply,90,M 50-54,1957-05-15,50,89.75,Russia,,,,,,172.5,-175,-175,,172.5,,,,,,172.5
DQ,Vladimir Muran,M,B,Multi-ply,90,M 50-54,1957-05-19,50,87,Russia,,,,,,-160,-160,-160,,,,,,,,
DQ,Vitaliy Ponomarev,M,B,Multi-ply,90,M 50-54,1957-02-17,50,89.3,Russia,,,,,,-250,-250,-250,,,,,,,,
1,Vyacheslav Pyatakhin,M,B,Multi-ply,90,M 55-59,1952-06-20,55,86.9,Russia,,,,,,165,-172.5,172.5,,172.5,,,,,,172.5
2,Igor Barskiy,M,B,Multi-ply,90,M 55-59,1950-06-07,57,88.1,Israel,,,,,,-165,-165,165,,165,,,,,,165
3,Mikhail Metelkin,M,B,Multi-ply,90,M 55-59,1951-07-16,56,83.7,Russia,,,,,,95,110,115,,115,,,,,,115
1,Vladimir Bolshov,M,B,Multi-ply,90,M 60-64,1947-09-30,60,90,Russia,,,,,,125,-130,,,125,,,,,,125
DQ,Vasiliy Mertsalov,M,B,Multi-ply,90,M 60-64,1946-10-27,61,88,Russia,,,,,,-170,-170,-170,,,,,,,,
1,Maxim Trubachistovs,M,B,Multi-ply,100,T 18-19,1989-07-26,18,94.1,Latvia,,,,,,160,172.5,180,,180,,,,,,180
2,Vitaliy Mashkevich,M,B,Multi-ply,100,T 18-19,1989-08-18,18,90.4,Russia,,,,,,145,-157.5,157.5,,157.5,,,,,,157.5
3,Pavel Tyurin,M,B,Multi-ply,100,T 18-19,1988-11-14,,91.55,Russia,,,,,,155,-170,-170,,155,,,,,,155
1,Vüsal Mardanov,M,B,Multi-ply,100,J 20-23,1985-02-18,22,99.8,Azerbaijan,,,,,,-275.5,-275.5,275.5,-280.5,275.5,,,,,,275.5
2,Alexandr Borshchev,M,B,Multi-ply,100,J 20-23,1986-04-24,21,99.9,Russia,,,,,,220,240,255,,255,,,,,,255
3,Gor Ayvazyan,M,B,Multi-ply,100,J 20-23,1986-05-16,21,97.3,Russia,,,,,,-240,-240,250,-276,250,,,,,,250
4,Sergey Kurbatov,M,B,Multi-ply,100,J 20-23,1984-04-25,23,98.95,Russia,,,,,,-225,-235,235,,235,,,,,,235
5,Alexandr Kvasnikov,M,B,Multi-ply,100,J 20-23,1987-04-07,20,99.8,Russia,,,,,,202.5,-230,-250,,202.5,,,,,,202.5
6,Denis Kholkin,M,B,Multi-ply,100,J 20-23,1983-11-25,23,98.55,Russia,,,,,,165,-177.5,-177.5,,165,,,,,,165
1,Igor Kushin,M,B,Multi-ply,100,M 40-44,1966-01-30,41,99.95,Russia,,,,,,280,-292.5,-292.5,,280,,,,,,280
2,Vladimir Tolmachev,M,B,Multi-ply,100,M 40-44,1965-11-14,41,94.8,Russia,,,,,,-150,150,-160,,150,,,,,,150
DQ,Andrey Nekhayenko,M,B,Multi-ply,100,M 40-44,1965-02-09,42,98.35,Russia,,,,,,-180,-180,-180,,,,,,,,
DQ,Sergey Belikov,M,B,Multi-ply,100,M 40-44,1964-09-30,43,99.6,Russia,,,,,,-265,-265,-280,,,,,,,,
DQ,Sergey Gromov,M,B,Multi-ply,100,M 40-44,1966-09-02,41,100,Russia,,,,,,-260,-260,-260,,,,,,,,
1,Andrey Paley,M,B,Multi-ply,100,M 45-49,1961-10-11,46,99,Russia,,,,,,-275,275,-292.5,,275,,,,,,275
2,Sergey Subbota,M,B,Multi-ply,100,M 45-49,1961-10-02,,99.8,Russia,,,,,,150,-200,-200,,150,,,,,,150
1,Oleg Tokarev,M,B,Multi-ply,100,M 50-54,1954-02-28,53,99.25,Russia,,,,,,180,190,-202.5,,190,,,,,,190
1,Floyd Givens,M,B,Multi-ply,100,M 55-59,1951-10-07,56,98.5,USA,,,,,,185,202.5,-207,,202.5,,,,,,202.5
2,Vyacheslav Porotskiy,M,B,Multi-ply,100,M 55-59,1947-12-31,59,94.3,Israel,,,,,,150,-175,-175,,150,,,,,,150
DQ,Terry Lancaster,M,B,Multi-ply,100,M 60-64,1942-11-10,64,100,USA,,,,,,-175,,,,,,,,,,
1,Georgiy Martirosov,M,B,Multi-ply,100,M 65-69,1942-07-01,65,92.7,Russia,,,,,,130,140,142.5,,142.5,,,,,,142.5
1,Igor Goldman,M,B,Multi-ply,100,M 70-74,1933-08-21,74,100,Russia,,,,,,140,157.5,160,-165,160,,,,,,160
1,Viktor Malyugin,M,B,Multi-ply,110,T 16-17,,17,106.7,Russia,,,,,,195,210,-220,,210,,,,,,210
DQ,Artem Litvinenko,M,B,Multi-ply,110,T 16-17,1990-10-12,17,108.35,Transnistria,,,,,,-165,,,,,,,,,,
1,Eduard Shpringer,M,B,Multi-ply,110,T 18-19,1988-03-20,19,109.9,Russia,,,,,,200,215,232.5,,232.5,,,,,,232.5
2,Yuri Pestichev,M,B,Multi-ply,110,T 18-19,1988-04-26,19,107.1,Russia,,,,,,200,220,-232.5,,220,,,,,,220
1,Mikhail Brylin,M,B,Multi-ply,110,J 20-23,1984-04-19,23,109.25,Russia,,,,,,-250,250,260,,260,,,,,,260
2,Alexandr Kubata,M,B,Multi-ply,110,J 20-23,1986-06-27,21,106.65,Russia,,,,,,240,-255,-260,,240,,,,,,240
3,Eduard Rondalainen,M,B,Multi-ply,110,J 20-23,1984-05-25,23,104.6,Estonia,,,,,,190,202.5,210,,210,,,,,,210
DQ,Ivan Maslov,M,B,Multi-ply,110,J 20-23,1986-03-27,21,106.85,Russia,,,,,,-240,-240,-240,,,,,,,,
1,Alexey Neklyudov,M,B,Multi-ply,110,M 40-44,1964-07-27,43,108.9,Russia,,,,,,330,-340,-350.5,,330,,,,,,330
2,Aleksandr Tretyakov,M,B,Multi-ply,110,M 40-44,1967-06-14,40,110,Russia,,,,,,-305,305,-332.5,,305,,,,,,305
3,Alexandr Ponomarev,M,B,Multi-ply,110,M 40-44,1967-02-27,40,109.55,Russia,,,,,,215,230,-240,,230,,,,,,230
DQ,Igor Podelko,M,B,Multi-ply,110,M 40-44,1964-05-26,43,104.3,Russia,,,,,,-245,-245,-245,,,,,,,,
1,Viktor Pozdnyakov,M,B,Multi-ply,110,M 45-49,1958-12-12,48,108.25,Russia,,,,,,210,-222.5,225,,225,,,,,,225
2,Pavel Yagovkin,M,B,Multi-ply,110,M 45-49,1959-07-27,48,109.35,Russia,,,,,,212.5,222.5,-232.5,,222.5,,,,,,222.5
3,Yuri Kazanev,M,B,Multi-ply,110,M 45-49,1962-10-19,45,104.05,Russia,,,,,,180,190,-210,,190,,,,,,190
DQ,Anthony Bartolomei,M,B,Multi-ply,110,M 45-49,1958-03-25,49,109.6,USA,,,,,,-237.5,-237.5,-237.5,,,,,,,,
1,Konstantin Bobrov,M,B,Multi-ply,110,M 50-54,1957-05-10,50,107,Russia,,,,,,-225,-225,225,,225,,,,,,225
2,Yuri Pokhvashchev,M,B,Multi-ply,110,M 50-54,1954-01-28,53,107.65,Russia,,,,,,220,-240,-240,,220,,,,,,220
1,Alexandr Larin,M,B,Multi-ply,110,M 55-59,1949-03-12,58,107.15,Russia,,,,,,160,170,-175,,170,,,,,,170
1,Nikolay Maslov,M,B,Multi-ply,110,M 60-64,1946-05-20,61,100.4,Russia,,,,,,160,-170,-170,,160,,,,,,160
2,Viktor Ishchenko,M,B,Multi-ply,110,M 60-64,1947-02-12,60,102.55,Russia,,,,,,-160,160,-170,,160,,,,,,160
1,Yuri Lobachev,M,B,Multi-ply,110,M 65-69,1938-10-04,69,104,Russia,,,,,,110,130,,,130,,,,,,130
2,Ilya Voronin,M,B,Multi-ply,125,T 16-17,1990-10-02,17,123.3,Russia,,,,,,155,160,-167.5,,160,,,,,,160
1,Dmitriy Krymskiy,M,B,Multi-ply,125,T 16-17,1989-10-31,,120.1,Russia,,,,,,210,220,,,220,,,,,,220
1,Andrey Zverev,M,B,Multi-ply,125,T 18-19,1987-12-10,19,113.2,Russia,,,,,,170,-180,,,170,,,,,,170
1,Aleksandr Korshkov,M,B,Multi-ply,125,J 20-23,1986-01-06,21,120.85,Russia,,,,,,-270,277.5,-287.5,,277.5,,,,,,277.5
2,Vasiliy Matsur,M,B,Multi-ply,125,J 20-23,1984-02-02,23,117.2,Russia,,,,,,260,275,-285,,275,,,,,,275
1,Ravil Duseyev,M,B,Multi-ply,125,M 40-44,1963-12-29,43,114.5,Russia,,,,,,260,-280,-280,,260,,,,,,260
2,Lev Chernykh,M,B,Multi-ply,125,M 40-44,1966-08-01,41,121.3,Russia,,,,,,-240,240,250,,250,,,,,,250
3,Andrey Luchkov,M,B,Multi-ply,125,M 40-44,1965-12-13,41,110.1,Russia,,,,,,-230,245,-270,,245,,,,,,245
4,Alexey Norkin,M,B,Multi-ply,125,M 40-44,1966-06-30,41,112.75,Russia,,,,,,-230,230,-250,,230,,,,,,230
5,Yuri Lukyanchik,M,B,Multi-ply,125,M 40-44,1967-08-14,40,122.05,Russia,,,,,,145,155,160,,160,,,,,,160
DQ,Valeriy Novolokov,M,B,Multi-ply,125,M 40-44,1964-03-13,43,113.9,Russia,,,,,,-240,-240,-240,,,,,,,,
1,Georgiy Lopatskiy,M,B,Multi-ply,125,M 45-49,1962-05-16,45,124.95,Russia,,,,,,250,-280.5,,,250,,,,,,250
2,Alexandr Sychev,M,B,Multi-ply,125,M 45-49,1960-07-14,47,110.35,Russia,,,,,,140,160,177.5,,177.5,,,,,,177.5
1,Viktors Pevko,M,B,Multi-ply,125,M 50-54,1956-12-23,50,117.3,Latvia,,,,,,252.5,275,285,,285,,,,,,285
2,Alexandr Zemerov,M,B,Multi-ply,125,M 50-54,1955-03-19,52,113.95,Russia,,,,,,-210,210,220,,220,,,,,,220
3,Alexey Bulichev,M,B,Multi-ply,125,M 50-54,1954-07-10,53,125,Russia,,,,,,220,-240,-240,,220,,,,,,220
DQ,Peka Rantanen,M,B,Multi-ply,125,M 50-54,1957-03-31,50,117.8,Finland,,,,,,-220,,,,,,,,,,
1,Yevgeniy Dmitriyev,M,B,Multi-ply,125,M 65-69,1940-08-18,67,119.65,Russia,,,,,,160,165,-170,,165,,,,,,165
2,Eduard Dobrõi,M,B,Multi-ply,125,M 65-69,1941-07-10,66,121,Estonia,,,,,,145,-162.5,-172.5,,145,,,,,,145
1,Artem Khodyrev,M,B,Multi-ply,140,T 16-17,1990-09-02,17,126.3,Russia,,,,,,140,150,160,,160,,,,,,160
1,Ilkka Lukkarinen,M,B,Multi-ply,140,T 18-19,1988-09-23,19,129.3,Finland,,,,,,240,250.5,-265,,250.5,,,,,,250
1,Alexey Shlykov,M,B,Multi-ply,140,J 20-23,1984-08-13,23,125.05,Russia,,,,,,150,250,270,,270,,,,,,270
2,Aleksandr Laptev,M,B,Multi-ply,140,J 20-23,1983-11-28,23,132.15,Russia,,,,,,260,270,-275,,270,,,,,,270
1,Vladimir Maksimov,M,B,Multi-ply,140,M 40-44,1966-06-07,41,130.05,Russia,,,,,,355,367.5,-375,,367.5,,,,,,367.5
2,Tomas Veselý,M,B,Multi-ply,140,M 40-44,1966-01-01,41,140,Czechia,,,,,,200,230,-240,,230,,,,,,230
1,Kirill Sarychev,M,B,Single-ply,140+,T 18-19,1989-01-01,18,157.4,Russia,,,,,,260,287.5,-300,,287.5,,,,,,287.5
1,Chris Clark,M,B,Multi-ply,140+,M 40-44,1967-06-14,40,151.55,USA,,,,,,275,-300,-307.5,,275,,,,,,275
1,Igor Nastynov,M,B,Multi-ply,140+,M 45-49,1961-03-14,46,161.2,Russia,,,,,,140,,,,140,,,,,,140
1,Igor Artemyev,M,B,Multi-ply,52,Open,1971-12-22,35,52,Russia,,,,,,135,-140,-140,,135,,,,,,135
1,Oleg Artemyev,M,B,Multi-ply,56,Open,1971-12-22,35,55.8,Russia,,,,,,132.5,137.5,-156,,137.5,,,,,,137.5
2,Alexandr Onuchin,M,B,Multi-ply,56,Open,1978-10-02,29,56,Russia,,,,,,115,-130,-130,,115,,,,,,115
1,David Vartanov,M,B,Multi-ply,60,Open,1986-07-15,21,59.8,Russia,,,,,,160,-170.5,170.5,-172.5,170.5,,,,,,170.5
1,Alexey Sivokon,M,B,Single-ply,67.5,Open,1973-09-07,34,67.2,Kazakhstan,,,,,,230,237.5,-242.5,,237.5,,,,,,237.5
2,Mikhail Speranskiy,M,B,Multi-ply,67.5,Open,1976-03-13,31,66.3,Russia,,,,,,200,-220,220,-225,220,,,,,,220
3,Ilkham Allakhverdiyev,M,B,Multi-ply,67.5,Open,1982-01-01,,67,Azerbaijan,,,,,,-180,180,-202.5,,180,,,,,,180
4,Alexandr Nikitin,M,B,Multi-ply,67.5,Open,1981-02-27,26,67.05,Russia,,,,,,-175,175,-182.5,,175,,,,,,175
5,Vincent Eldin,M,B,Multi-ply,67.5,Open,1972-04-15,35,67.45,France,,,,,,145,-155,-155,,145,,,,,,145
1,Sarkhan Aliyev,M,B,Multi-ply,75,Open,1983-11-12,23,75,Azerbaijan,,,,,,185,195,202.5,,202.5,,,,,,202.5
2,Alexandr Rode,M,B,Multi-ply,75,Open,1981-04-14,26,67.6,Russia,,,,,,190,-195,200,,200,,,,,,200
3,Maxim Kutuzov,M,B,Multi-ply,75,Open,1980-08-08,27,74.9,Germany,,,,,,187.5,-200,-200,,187.5,,,,,,187.5
4,Oleg Paderin,M,B,Multi-ply,75,Open,1978-11-26,28,74.95,Russia,,,,,,165,175,187.5,,187.5,,,,,,187.5
5,Yevgeniy Uskov,M,B,Multi-ply,75,Open,1970-04-26,37,74.65,Russia,,,,,,165,172.5,177.5,,177.5,,,,,,177.5
6,Pavel Tsetsulin,M,B,Multi-ply,75,Open,1978-01-12,29,74.3,Russia,,,,,,150,160,-170,,160,,,,,,160
7,Rinat Abubekirov,M,B,Multi-ply,75,Open,1986-10-01,21,74.65,Russia,,,,,,160,-170,-170,,160,,,,,,160
8,Alexandr Pleshkov,M,B,Multi-ply,75,Open,1977-06-08,30,75,Russia,,,,,,-160,160,-175,,160,,,,,,160
DQ,Ilya Kokorev,M,B,Multi-ply,75,Open,1973-01-19,34,74.85,Russia,,,,,,-210,-210,-210,,,,,,,,
DQ,Giles Robey,M,B,Multi-ply,75,Open,1974-01-19,33,74.9,USA,,,,,,-170,-207.5,-212.5,,,,,,,,
1,Sergey Koshkin,M,B,Multi-ply,82.5,Open,1971-09-28,36,80.5,Russia,,,,,,-300,-300,300,,300,,,,,,300
2,Yevgeniy Nechayev,M,B,Multi-ply,82.5,Open,1978-02-10,29,80.9,Russia,,,,,,260,270,-275,,270,,,,,,270
3,Alexey Popov,M,B,Multi-ply,82.5,Open,1983-02-27,24,82.2,Russia,,,,,,-240,245,252.5,,252.5,,,,,,252.5
4,Rifat Nigmatulin,M,B,Multi-ply,82.5,Open,1982-07-30,25,81.8,Russia,,,,,,250,-270,-272.5,,250,,,,,,250
5,Sergey Baumer,M,B,Multi-ply,82.5,Open,1979-05-11,28,82.5,Estonia,,,,,,-250,250,-282.5,,250,,,,,,250
6,Rinat Garipov,M,B,Multi-ply,82.5,Open,1976-02-12,31,81.4,Russia,,,,,,210,220,-225,,220,,,,,,220
7,Alexey Shchuplov,M,B,Multi-ply,82.5,Open,1979-09-11,28,81.9,Russia,,,,,,200,-210,210,,210,,,,,,210
8,Alexandr Metelev,M,B,Multi-ply,82.5,Open,1972-11-24,34,81.95,Russia,,,,,,-205,205,-210,,205,,,,,,205
9,Sergey Panin,M,B,Multi-ply,82.5,Open,1975-06-18,32,80.75,Russia,,,,,,-202.5,202.5,-210,,202.5,,,,,,202.5
10,Igor Dyachenko,M,B,Multi-ply,82.5,Open,1984-08-09,23,81.5,Russia,,,,,,-202.5,202.5,-220,,202.5,,,,,,202.5
11,Georgiy Avdonin,M,B,Multi-ply,82.5,Open,1969-09-10,38,82.3,Russia,,,,,,190,-200,-200,,190,,,,,,190
DQ,Andrey Bogatkov,M,B,Multi-ply,82.5,Open,1975-05-12,32,82.35,Russia,,,,,,-190,-202.5,-202.5,,,,,,,,
1,Oleg Bazilevich,M,B,Multi-ply,90,Open,1982-05-22,25,86.9,Ukraine,,,,,,280,-290,-290,,280,,,,,,280
2,Emin Galib Ogly Mamedov,M,B,Multi-ply,90,Open,1974-08-30,33,89.95,Russia,,,,,,250,270,-282.5,,270,,,,,,270
3,Dmitriy Shishkin,M,B,Multi-ply,90,Open,1975-07-04,32,89.65,Russia,,,,,,-255,255,,,255,,,,,,255
4,Maxim Severinov,M,B,Multi-ply,90,Open,1972-04-30,35,86.7,Russia,,,,,,230,240,250,,250,,,,,,250
5,Vitaliy Ponomarev,M,B,Multi-ply,90,Open,1957-02-17,50,89.3,Russia,,,,,,250,-255,-255,,250,,,,,,250
6,Dzhabir Ibragimov,M,B,Multi-ply,90,Open,1985-06-18,22,90,Azerbaijan,,,,,,222.5,232.5,-242.5,,232.5,,,,,,232.5
7,Vitaliy Dubrovin,M,B,Multi-ply,90,Open,1982-08-06,25,85.55,Russia,,,,,,230,-240,-240,,230,,,,,,230
8,Peter Vateha,M,B,Multi-ply,90,Open,1981-02-13,26,89,Slovakia,,,,,,210,230,-242.5,,230,,,,,,230
9,Mikhail Royanov,M,B,Multi-ply,90,Open,1977-03-04,30,89.1,Russia,,,,,,230,-240,-240,,230,,,,,,230
10,Denis Ruchkin,M,B,Multi-ply,90,Open,1978-10-02,29,87.2,Russia,,,,,,217.5,-225,-230,,217.5,,,,,,217.5
11,Alexandr Belousov,M,B,Multi-ply,90,Open,1981-11-03,25,89.75,Russia,,,,,,210,217.5,-252.5,,217.5,,,,,,217.5
12,Artem Mirzoyan #2,M,B,Multi-ply,90,Open,1976-08-12,31,90,Russia,,,,,,195,207.5,-220,,207.5,,,,,,207.5
DQ,Sergey Koshkin,M,B,Multi-ply,90,Open,1971-09-28,,82.8,Russia,,,,,,-310,-315,-315,,,,,,,,
1,Vasiliy Fedyayev,M,B,Multi-ply,100,Open,1982-10-26,25,98.5,Russia,,,,,,300,-310,-315,,300,,,,,,300
2,Matt Minuth,M,B,Multi-ply,100,Open,1980-11-17,26,99.2,USA,,,,,,300,-310,-310,,300,,,,,,300
3,Igor Kushin,M,B,Multi-ply,100,Open,1966-01-30,41,99.95,Russia,,,,,,280,-292.5,-292.5,,280,,,,,,280
4,Andrey Paley,M,B,Multi-ply,100,Open,1961-10-11,46,99,Russia,,,,,,-275,275,-292.5,,275,,,,,,275
5,Sergey Gromov,M,B,Multi-ply,100,Open,1966-09-02,41,100,Russia,,,,,,240,250,260,,260,,,,,,260
6,Sergey Grigoryev,M,B,Multi-ply,100,Open,1973-07-29,34,96.85,Russia,,,,,,-250,-250,250,,250,,,,,,250
7,Ardavast Martirosyan,M,B,Multi-ply,100,Open,1975-10-12,32,97.5,Russia,,,,,,230,250,-260,,250,,,,,,250
8,Alexey Gorbunenko,M,B,Multi-ply,100,Open,1978-10-24,29,99.15,Russia,,,,,,250,-260,-260,,250,,,,,,250
9,Valeriy Simagin,M,B,Multi-ply,100,Open,1971-06-17,36,99.6,Russia,,,,,,-240,240,250,,250,,,,,,250
10,Vitaliy Petukhov,M,B,Multi-ply,100,Open,1980-10-30,,99.7,Russia,,,,,,-250,250,-262.5,,250,,,,,,250
11,Konstantin Palshin,M,B,Multi-ply,100,Open,1980-07-03,27,97.8,Russia,,,,,,245,-255,-260,,245,,,,,,245
12,Alexey Korshunov,M,B,Multi-ply,100,Open,1972-05-05,35,98.85,Russia,,,,,,220,230,240,,240,,,,,,240
13,Sergey Denisov,M,B,Multi-ply,100,Open,1976-06-15,31,99.5,Russia,,,,,,240,-250,-250,,240,,,,,,240
14,Andrey Fadeyev,M,B,Multi-ply,100,Open,1970-06-08,37,97.65,Russia,,,,,,220,-230,230,,230,,,,,,230
15,Alexandr Dolgov,M,B,Multi-ply,100,Open,1974-03-21,33,98,Russia,,,,,,-230,-230,230,,230,,,,,,230
16,Arsen Mirzoyan,M,B,Multi-ply,100,Open,1978-11-13,28,98.4,Russia,,,,,,-210,-210,210,,210,,,,,,210
17,Gilles Zozzoli,M,B,Multi-ply,100,Open,1972-11-10,34,99.85,France,,,,,,210,-225,-225,,210,,,,,,210
18,Pavel Chidingov,M,B,Multi-ply,100,Open,1969-07-02,38,99.45,Russia,,,,,,-205,-205,205,,205,,,,,,205
DQ,Dmitriy Gaak,M,B,Multi-ply,100,Open,1981-12-06,25,97,Russia,,,,,,-280,-280,,,,,,,,,
DQ,Sergey Bobkov,M,B,Multi-ply,100,Open,1977-08-29,30,98.6,Russia,,,,,,-250,-250,-250,,,,,,,,
DQ,Vladimir Omelkov,M,B,Multi-ply,100,Open,1970-05-10,37,98.75,Russia,,,,,,-230,-230,-230,,,,,,,,
DQ,Leonid Garzha,M,B,Multi-ply,100,Open,1970-05-02,37,99.25,Russia,,,,,,-215,-215,-215,,,,,,,,
DQ,Yakov Berman,M,B,Multi-ply,100,Open,1972-06-22,35,99.6,Russia,,,,,,-220,-230,-230,,,,,,,,
DQ,Konstantin Otavin,M,B,Multi-ply,100,Open,1973-11-25,33,100,Russia,,,,,,-300,-300,-302.5,,,,,,,,
1,Alexey Neklyudov,M,B,Multi-ply,110,Open,1964-07-27,43,108.9,Russia,,,,,,330,-340,-350.5,,330,,,,,,330
2,Cory Dexter,M,B,Multi-ply,110,Open,1973-10-10,34,107.55,USA,,,,,,-300,320,-330,,320,,,,,,320
3,Ivars Ozols,M,B,Multi-ply,110,Open,1978-04-23,29,108.9,Latvia,,,,,,280,300,307.5,,307.5,,,,,,307.5
4,Csaba Czégény,M,B,Multi-ply,110,Open,1974-04-10,33,109,Hungary,,,,,,-290,300,305,,305,,,,,,305
5,Nikolay Pyshmintsev,M,B,Multi-ply,110,Open,1981-01-04,26,110,Russia,,,,,,257.5,272.5,-287.5,,272.5,,,,,,272.5
6,Alexandr Kolesnikov,M,B,Multi-ply,110,Open,1975-07-28,32,102.5,Russia,,,,,,260,-270,-290,,260,,,,,,260
7,Alexey Kostylev,M,B,Multi-ply,110,Open,1973-09-04,34,108.5,Russia,,,,,,250,-260,-267.5,,250,,,,,,250
8,Andrey Likhman,M,B,Multi-ply,110,Open,1977-05-01,30,108.7,Russia,,,,,,-250,-250,250,,250,,,,,,250
9,Dmitriy Bubnov,M,B,Multi-ply,110,Open,1973-10-14,34,108.75,Russia,,,,,,-240,250,-270,,250,,,,,,250
10,Alexandr Chizhov,M,B,Multi-ply,110,Open,1978-05-14,29,109,Russia,,,,,,220,-230,240,,240,,,,,,240
11,Alexey Golodnov,M,B,Multi-ply,110,Open,1981-05-17,26,109.25,Russia,,,,,,-240,-240,240,,240,,,,,,240
12,Pavel Kucherov,M,B,Multi-ply,110,Open,1969-01-24,38,110,Russia,,,,,,-240,-240,240,,240,,,,,,240
13,Vladimir Maksimov,M,B,Multi-ply,110,Open,1972-07-26,35,102.9,Russia,,,,,,220,-240,-240,,220,,,,,,220
DQ,Andrey Balakin,M,B,Multi-ply,110,Open,1978-05-23,29,105.55,Russia,,,,,,-240,-240,-240,,,,,,,,
DQ,Ivan Kurpishev,M,B,Multi-ply,110,Open,1969-04-02,38,108.55,Russia,,,,,,-300,-310,-317.5,,,,,,,,
DQ,Dmitriy Gorbachev,M,B,Multi-ply,110,Open,1970-03-06,37,108.75,Russia,,,,,,-310,-310,-330,,,,,,,,
DQ,Vyacheslav Rakhmanov,M,B,Multi-ply,110,Open,1968-07-25,39,108.8,Russia,,,,,,-270,-270,-270,,,,,,,,
DQ,Aleksandr Tretyakov,M,B,Multi-ply,110,Open,1967-06-14,40,110,Russia,,,,,,-320,-320,-322.5,,,,,,,,
1,Oleg Kushnarev,M,B,Multi-ply,125,Open,1973-03-14,34,115,Russia,,,,,,330,340,-350,,340,,,,,,340
2,László Mészáros,M,B,Multi-ply,125,Open,1968-12-30,38,124.2,Hungary,,,,,,320,332.5,-342.5,,332.5,,,,,,332.5
3,Vitaliy Bobchenko,M,B,Multi-ply,125,Open,1979-11-08,,116.15,Ukraine,,,,,,312.5,-332.5,-332.5,,312.5,,,,,,312.5
4,Mykola Koltakov,M,B,Multi-ply,125,Open,1983-05-13,24,113.5,Ukraine,,,,,,275,290,-300,,290,,,,,,290
5,Bakhtiyar Velibekov,M,B,Multi-ply,125,Open,1971-03-01,36,112.35,Russia,,,,,,260,-280,-280,,260,,,,,,260
6,Ravil Duseyev,M,B,Multi-ply,125,Open,1963-12-29,43,114.5,Russia,,,,,,260,-280,-280,,260,,,,,,260
7,Daniel Dvořák,M,B,Multi-ply,125,Open,1976-02-22,31,113.25,Czechia,,,,,,245,252.5,-262.5,,252.5,,,,,,252.5
8,Alexandr Seregin,M,B,Multi-ply,125,Open,1980-09-16,27,117.9,Russia,,,,,,235,-250,-250,,235,,,,,,235
9,Radovan Kaděra,M,B,Multi-ply,125,Open,1977-05-07,30,115.15,Czechia,,,,,,230,-250,-265,,230,,,,,,230
10,Dmitriy Shishlyannikov,M,B,Multi-ply,125,Open,1980-04-23,27,112.6,Russia,,,,,,220,-250,,,220,,,,,,220
11,Oliver Spisak,M,B,Multi-ply,125,Open,1977-04-27,30,119.9,Slovakia,,,,,,-180,180,-200,,180,,,,,,180
DQ,Sergey Kapusta,M,B,Multi-ply,125,Open,1972-05-15,35,116.05,Russia,,,,,,-310,-312.5,-312.5,,,,,,,,
DQ,Oleg Zaytsev,M,B,Multi-ply,125,Open,1969-04-19,38,118.8,Russia,,,,,,-190,-190,-210,,,,,,,,
DQ,Alexandr Kiselev,M,B,Multi-ply,125,Open,1970-11-16,36,120.6,Russia,,,,,,-235,-250,-250,,,,,,,,
1,Vladimir Maksimov,M,B,Multi-ply,140,Open,1966-06-07,41,130.05,Russia,,,,,,355,367.5,-375,,367.5,,,,,,367.5
2,Stanislav Polyakov,M,B,Multi-ply,140,Open,1973-02-21,34,126.95,Russia,,,,,,270,-305,-305,,270,,,,,,270
3,Mikhail Reutov,M,B,Multi-ply,140,Open,1972-12-10,,131.4,Russia,,,,,,-220,-220,220,,220,,,,,,220
DQ,Alexey Shishkin,M,B,Multi-ply,140,Open,1977-04-25,30,125.5,Russia,,,,,,-240,-240,-257.5,,,,,,,,
DQ,Andrejs Murniex,M,B,Multi-ply,140,Open,1980-10-28,27,126.35,Latvia,,,,,,-270,-285,-285,,,,,,,,
DQ,Alexandr Gonchar,M,B,Multi-ply,140,Open,1978-03-18,29,126.55,Ukraine,,,,,,-290,-290,-290,,,,,,,,
DQ,Vladimir Kravtsov,M,B,Multi-ply,140,Open,1972-03-04,35,128.95,Russia,,,,,,-367.5,-367.5,-367.5,,,,,,,,
DQ,Maxim Bulgakov,M,B,Multi-ply,140,Open,1976-01-27,31,133,Russia,,,,,,-300,-300,-300,,,,,,,,
DQ,Yevgeniy Gulyayev,M,B,Multi-ply,140,Open,1976-05-25,31,133.15,Russia,,,,,,-320,-320,-320,,,,,,,,
DQ,Richard Ligier,M,B,Multi-ply,140,Open,1974-11-13,32,139.35,France,,,,,,-340,-370,-370,,,,,,,,
1,Dmitriy Shabalin #1,M,B,Multi-ply,140+,Open,1969-01-19,38,140.75,Russia,,,,,,310,320,-330,,320,,,,,,320
2,Oleg Budey,M,B,Multi-ply,140+,Open,1971-07-06,36,149,Russia,,,,,,-285,-285,285,,285,,,,,,285
3,Alexey Brazhkin,M,B,Multi-ply,140+,Open,1971-02-18,36,140.05,Russia,,,,,,-270,270,-300,,270,,,,,,270
4,Vadim Korkin,M,B,Multi-ply,140+,Open,1975-04-12,32,154.35,Russia,,,,,,240,252.5,-260,,252.5,,,,,,252.5
DQ,Vladimir Grad,M,B,Multi-ply,140+,Open,1976-04-25,31,149.55,Russia,,,,,,-315,-320,-322.5,,,,,,,,
DQ,Sergey Tsvetkov,M,B,Multi-ply,140+,Open,1968-08-26,39,150,Russia,,,,,,-270,-270,-270,,,,,,,,
