Tested,Equipment,Place,Name,Division,BirthYear,Country,BodyweightKg,Bench1Kg,Bench2Kg,Bench3Kg,Best3BenchKg,Bench4Kg,WeightClassKg,Sex,CyrillicName,BirthDate,Deadlift1Kg,Deadlift2Kg,Deadlift3Kg,Best3DeadliftKg,Event,TotalKg
Yes,Raw,1,Karina Bakhtadze,Juniors 20-23,1997,Ukraine,46.1,37.5,42.5,-45,42.5,,52,F,Каріна Бахтадзе,1997-06-11,,,,,B,42.5
Yes,Raw,1,Olga Negodyuk,Open,1968,Ukraine,49,57.5,-62.5,-62.5,57.5,,52,F,Ольга Негодюк,1968-01-10,,,,,B,57.5
Yes,Raw,1,Oleksandra Astakhova,Open,1990,Ukraine,59,60,65,70,70,,60,F,Олександра Астахова,1990-12-16,,,,,B,70
Yes,Raw,2,Yana Tkachenko,Open,1984,Ukraine,58.7,42.5,50,-55,50,,60,F,Яна Ткаченко,1984-07-07,,,,,B,50
Yes,Raw,3,Elena Solonkina,Open,1988,Ukraine,54.5,-47.5,-47.5,47.5,47.5,,60,F,Олена Солонкіна,1988-03-23,,,,,B,47.5
Yes,Raw,1,Nadiya Tischenko,Open,1993,Ukraine,69.3,97.5,100,102.5,102.5,,60+,F,Надія Тищенко,1993-09-30,,,,,B,102.5
Yes,Raw,2,Katerina Grozova,Open,1992,Ukraine,103.8,-75,-75,75,75,,60+,F,Катерина Грозова,1992-06-06,,,,,B,75
Yes,Raw,1,Oleksandr Virodov,Teen,2002,Ukraine,59,70,-75,75,75,,60,M,Олександр Виродов,2002-03-23,,,,,B,75
Yes,Raw,2,Anton Tereschenko,Teen,2003,Ukraine,55,50,-60,60,60,,60,M,Антон Терещенко,2003-01-30,,,,,B,60
Yes,Raw,1,Rostyslav Borovskyy,Open,1986,Ukraine,56.6,100,110,-112.5,110,,60,M,Ростислав Боровський,1986-05-15,,,,,B,110
Yes,Raw,1,Rostislav Zheleznyak,Teen,2001,Ukraine,67.1,75,85,90,90,,67.5,M,Ростислав Железняк,2001-03-22,,,,,B,90
Yes,Raw,1,Roman Brovkov,Open,1988,Ukraine,65.1,-82.5,-82.5,82.5,82.5,,67.5,M,Роман Бровков,1988-10-13,,,,,B,82.5
Yes,Raw,1,Vasiliy Vodnik,Teen,2004,Ukraine,72.2,65,70,-72.5,70,,75,M,Василій Воднік,2004-01-14,,,,,B,70
Yes,Raw,1,Sergiy Goncharuk,Open,1978,Ukraine,72.6,125,130,132.5,132.5,,75,M,Сергій Гончарук,1978-05-09,,,,,B,132.5
Yes,Raw,2,Aleksandr Vernigora,Open,1993,Ukraine,75,110,-115,-120,110,,75,M,Олександр Вернигора,1993-05-29,,,,,B,110
Yes,Raw,1,Vadim Pisartsov,Juniors 20-23,1997,Ukraine,80.5,120,125,-130,125,,82.5,M,Вадим Пісарцов,1997-02-22,,,,,B,125
Yes,Raw,1,Oleksandr Volkov,Open,1985,Ukraine,78.5,177.5,-182.5,-182.5,177.5,,82.5,M,Олександр Волков,1985-06-14,,,,,B,177.5
Yes,Raw,2,Oleksandr Sharvey,Open,1985,Ukraine,81.3,150,155,160,160,,82.5,M,Олександр Шарвей,1985-02-03,,,,,B,160
Yes,Raw,3,Sergiy Oleynichuk,Open,1993,Ukraine,78.7,140,145,-150,145,,82.5,M,Сергій Олейничук,1993-12-14,,,,,B,145
Yes,Raw,4,Artem Alekseenko,Open,1990,Ukraine,79.4,137.5,145,-155,145,,82.5,M,Артем Алексеєнко,1990-06-20,,,,,B,145
Yes,Raw,5,Ivan Vanin,Open,1980,Ukraine,80,135,140,-145,140,,82.5,M,Іван Ванін,1980-11-12,,,,,B,140
Yes,Raw,1,Vasil Virchenko,Teen,1999,Ukraine,85.2,100,110,-122.5,110,,90,M,Василь Вирченко,1999-06-21,,,,,B,110
Yes,Raw,1,Leonid Adrievskiy,Open,1989,Ukraine,86,170,175,180,180,,90,M,Леонід Адрієвський,1989-02-04,,,,,B,180
Yes,Raw,2,Dmitro Garasim,Open,1985,Ukraine,87.4,145,152.5,155,155,,90,M,Дмитро Гарасим,1985-10-28,,,,,B,155
Yes,Raw,1,Rinat Zaripov,Masters,1970,Ukraine,87,150,160,,160,,90,M,Рінат Заріпов,1970-08-10,,,,,B,160
Yes,Raw,2,Mikhaylo Kondratyev,Masters,1953,Ukraine,81.8,130,-135,135,135,,90,M,Михайло Кондратєв,1953-11-07,,,,,B,135
Yes,Raw,3,Kostyatin V'yazovskiy,Masters,1968,Ukraine,89.5,120,125,130,130,,90,M,Костятин В'язовський,1968-03-28,,,,,B,130
Yes,Raw,1,Aleksey Tischenko #2,Juniors 20-23,1997,Ukraine,96,140,150,155,155,-160,100,M,Олексій Тіщенко,1997-09-17,,,,,B,155
Yes,Raw,1,Kostyantin Gerasimenko,Open,1991,Ukraine,93.4,130,140,-150,140,,100,M,Костянтин Герасименко,1991-12-26,,,,,B,140
Yes,Raw,2,Evgen Yatsina,Open,1983,Ukraine,98,-140,140,-155,140,,100,M,Євген Яцина,1983-03-01,,,,,B,140
Yes,Raw,1,Sergiy Yakovenko,Masters,1966,Ukraine,90.6,130,-142.5,-145,130,,100,M,Сергій Яковенко,1966-12-06,,,,,B,130
Yes,Raw,1,Viktor Vatagin,Open,1982,Ukraine,119,140,160,-170,160,,110+,M,Віктор Ватагін,1982-05-29,,,,,B,160
Yes,Raw,2,Anatoliy Sinitskiy,Open,1985,Ukraine,143.3,155,165,-175,165,,110+,M,Анатолій Синицький,1985-08-18,,,,,B,165
Yes,Raw,3,Oleksandr Sinitskiy,Open,1988,Ukraine,114.6,125,132.5,140,140,,110+,M,Олександр Синицький,1988-10-21,,,,,B,140
No,Raw,1,Anton Gaydaenko,Open,1986,Ukraine,71,135,145,,145,,75,M,Антон Гайдаєнко,1986-08-12,,,,,B,145
No,Raw,1,Oleksandr Statnik,Open,1988,Ukraine,82.5,170,180,185,185,,82.5,M,Олександр Статник,1988-06-05,,,,,B,185
No,Raw,2,Vadim Marinich,Open,1981,Ukraine,82.5,175,180,-185,180,,82.5,M,Вадим Маринич,1981-08-31,,,,,B,180
No,Raw,3,Petro Chumak,Open,1980,Ukraine,81.2,130,-140,140,140,,82.5,M,Петро Чумак,1980-09-22,,,,,B,140
No,Raw,1,Oleksandr Kozachenko,Open,1985,Ukraine,86,200,210,-215,210,,90,M,Олександр Козаченко,1985-02-07,,,,,B,210
No,Raw,2,Yuriy Kondrat'ev,Open,1981,Ukraine,86.8,190,195,-197.5,195,,90,M,Юрій Кондрат'єв,1981-07-08,,,,,B,195
No,Raw,1,Viktor Kuznetsov #4,Open,1988,Ukraine,99.6,190,205,210,210,,100,M,Віктор Кузнєцов,1988-12-13,,,,,B,210
No,Raw,2,Roman Zakharenkov,Open,1982,Ukraine,95,160,170,175,175,,100,M,Роман Захаренков,1982-01-02,,,,,B,175
No,Raw,3,Igor Ivanov,Open,1985,Ukraine,90.5,155,160,170,170,,100,M,Ігор Іванов,1985-07-24,,,,,B,170
No,Raw,4,Andriy Bidashku,Open,1992,Ukraine,94.4,150,155,160,160,,100,M,Андрій Бідашку,1992-09-24,,,,,B,160
No,Raw,5,Andriy Regak,Open,1982,Ukraine,97,145,150,-155,150,,100,M,Андрій Регак,1982-08-14,,,,,B,150
No,Raw,1,Volodimir Semenchuk,Open,1993,Ukraine,103.9,170,175,180,180,,110,M,Володимир Семенчук,1993-02-27,,,,,B,180
No,Raw,2,Denis Tikhankov,Open,1988,Ukraine,107.5,130,140,-145,140,,110,M,Денис Тиханков,1988-01-30,,,,,B,140
No,Raw,1,Oleksandr Tkachuk,Masters,1972,Ukraine,100.1,180,-190,190,190,,110,M,Олександр Ткачук,1972-07-10,,,,,B,190
No,Raw,1,Dmytro Golovynskyy,Open,1988,Ukraine,138,270,285,,285,,110+,M,Дмитро Головинський,1988-07-29,,,,,B,285
No,Raw,2,Genadiy Kravchenko,Open,1991,Ukraine,123,195,202.5,-210,202.5,,110+,M,Генадій Кравченко,1991-09-06,,,,,B,202.5
No,Raw,3,Dmitro Brinzov,Open,1975,Ukraine,113,185,195,-200,195,,110+,M,Дмитро Бринзов,1975-10-16,,,,,B,195
No,Raw,1,Yevgen Shuturminskyy,Masters,1967,Ukraine,128.2,190,200,-210,200,,110+,M,Євген Шутурмінський,1967-02-05,,,,,B,200
No,Raw,2,Dmitro Dashkovskiy,Masters,1972,Ukraine,106,-150,150,155,155,,110,M,Дмитро Дашковський,1972-10-29,,,,,B,155
Yes,Raw,1,Olga Negodyuk,Open,1968,Ukraine,49,,,,,,52,F,Ольга Негодюк,1968-01-10,125,130,135,135,D,135
Yes,Raw,1,Oleksandra Bila,Juniors 20-23,1995,Ukraine,52.5,,,,,,60,F,Олександра Біла,1995-03-01,100,110,-115,110,D,110
Yes,Raw,1,Tetyana Sherstyuk,Open,,Ukraine,59.9,,,,,,60,F,Тетяна Шерстюк,1973-05-31,135,145,150,150,D,150
Yes,Raw,2,Oleksandra Astakhova,Open,1990,Ukraine,59,,,,,,60,F,Олександра Астахова,1990-12-16,120,130,140,140,D,140
Yes,Raw,3,Kapitolina Guschina,Open,1982,Ukraine,60,,,,,,60,F,Капітоліна Гущина,1982-10-23,110,117.5,125,125,D,125
Yes,Raw,4,Yana Tkachenko,Open,1984,Ukraine,58.7,,,,,,60,F,Яна Ткаченко,1984-07-07,90,95,-100,95,D,95
Yes,Raw,DQ,Yanina Saveleva,Open,1983,Ukraine,53.5,,,,,,60,F,Яніна Савєльєва,1983-05-27,-125,-125,-125,,D,
Yes,Raw,1,Tetyana Sherstyuk,Masters,,Ukraine,59.9,,,,,,60,F,Тетяна Шерстюк,1973-05-31,135,145,150,150,D,150
Yes,Raw,1,Mariya Sukhikh,Teen,2001,Ukraine,75,,,,,,60+,F,Марія Сухих,2001-06-07,105,110,-115,110,D,110
Yes,Raw,1,Olena Garanenko,Masters,1971,Ukraine,63.1,,,,,,60+,F,Олена Гараненко,1971-10-25,100,105,-110,105,D,105
Yes,Raw,1,Anton Tereschenko,Teen,2003,Ukraine,55,,,,,,60,M,Антон Терещенко,2003-01-30,120,140,152.5,152.5,D,152.5
Yes,Raw,2,Oleksandr Virodov,Teen,2002,Ukraine,59,,,,,,60,M,Олександр Виродов,2002-03-23,130,140,150,150,D,150
Yes,Raw,1,Bogdan Franchuk,Teen,2001,Ukraine,64,,,,,,67.5,M,Богдан Франчук,2001-06-21,120,135,140,140,D,140
Yes,Raw,2,Rostislav Zheleznyak,Teen,2001,Ukraine,67.1,,,,,,67.5,M,Ростислав Железняк,2001-09-22,85,95,105,105,D,105
Yes,Raw,1,Egor Bugaenko,Open,1994,Ukraine,64.4,,,,,,67.5,M,Єгор Бугаєнко,1994-07-24,-170,170,-185,170,D,170
Yes,Raw,2,Volodymyr Malyk,Open,1987,Ukraine,61.5,,,,,,67.5,M,Володимир Малик,1987-08-01,130,150,-165,150,D,150
Yes,Raw,3,Roman Brovkov,Open,1988,Ukraine,65.1,,,,,,67.5,M,Роман Бровков,1988-10-13,130,145,155,155,D,155
Yes,Raw,1,Vasiliy Vodnik,Teen,2004,Ukraine,72.2,,,,,,75,M,Василій Воднік,2004-01-14,90,100,-110,100,D,100
Yes,Raw,1,Volodimir Romanishin,Juniors 20-23,1997,Ukraine,64.4,,,,,,75,M,Володимир Романишин,1997-01-11,-150,160,170,170,D,170
Yes,Raw,1,Mikhaylo Yurchenko,Open,1999,Ukraine,73,,,,,,75,M,Михайло Юрченко,1999-01-02,245,265,-272.5,265,D,265
Yes,Raw,2,Eduard Karaush,Open,1993,Ukraine,71.3,,,,,,75,M,Едуард Карауш,1993-03-16,170,185,,185,D,185
Yes,Raw,1,Valeriy Spatar,Open,1992,Ukraine,82.2,,,,,,82.5,M,Валерій Спатарь,1992-10-10,225,235,245,245,D,245
Yes,Raw,1,Leonid Andrievskyy,Open,1989,Ukraine,86,,,,,,90,M,Леонід Андрієвський,1989-02-04,240,255,270,270,D,270
Yes,Raw,2,Dmitro Garasim,Open,1985,Ukraine,87.4,,,,,,90,M,Дмитро Гарасим,1985-10-28,230,-245,245,245,D,245
Yes,Raw,3,Sergiy Todosenko,Open,1987,Ukraine,84.5,,,,,,90,M,Сергій Тодосенко,1987-07-11,210,230,-245,230,D,230
Yes,Raw,1,Rinat Zaripov,Masters,1970,Ukraine,87,,,,,,90,M,Рінат Заріпов,1970-08-10,242.5,257.5,262.5,262.5,D,262.5
Yes,Raw,1,Kostyantin Gerasimenko,Open,1991,Ukraine,93.4,,,,,,100,M,Костянтин Герасименко,1991-12-26,220,-250,-260,220,D,220
Yes,Raw,1,Volodymyr Ogloblin,Open,,Ukraine,104.5,,,,,,110,M,Володимир Оглоблін,1985-08-15,270,277.5,282.5,282.5,D,282.5
Yes,Raw,1,Viktor Vatagin,Open,1982,Ukraine,119,,,,,,110+,M,Віктор Ватагін,1982-05-29,230,-250,-260,230,D,230
Yes,Raw,2,Oleksandr Sinitskiy,Open,1988,Ukraine,114.6,,,,,,110+,M,Олександр Синицький,1988-10-21,175,200,-210,200,D,200
No,Raw,1,Gennadiy Guz,Juniors 20-23,1997,Ukraine,74.5,,,,,,75,M,Геннадій Гуз,1997-08-09,200,210,-225,210,D,210
No,Raw,1,Ivan Kapelyukh,Open,1985,Ukraine,74.8,,,,,,75,M,Іван Капелюх,1985-06-26,220,230,240,240,D,240
No,Raw,1,Dmitro Pavlenko,Open,1978,Ukraine,89.9,,,,,,90,M,Дмитро Павленко,1978-08-20,250,270,280,280,D,280
No,Raw,2,Yuriy Kondrat'ev,Open,1981,Ukraine,86.8,,,,,,90,M,Юрій Кондрат'єв,1981-07-08,250,260,-265,260,D,260
No,Raw,1,Evgeniy Ivanets,Juniors 20-23,1995,Ukraine,96.9,,,,,,100,M,Євгеній Іванець,1995-10-02,280,300,-310,300,D,300
No,Raw,1,Evgeniy Ivanets,Open,1995,Ukraine,96.9,,,,,,100,M,Євгеній Іванець,1995-10-02,280,300,-310,300,D,300
No,Raw,2,Sergiy Stashenko,Open,1988,Ukraine,100,,,,,,100,M,Сергій Сташенко,1988-06-20,260,280,-290,280,D,280
No,Raw,3,Andriy Bidashku,Open,1992,Ukraine,94.4,,,,,,100,M,Андрій Бідашку,1992-09-24,220,235,240,240,D,240
No,Raw,4,Andriy Regak,Open,1982,Ukraine,97,,,,,,100,M,Андрій Регак,1982-08-14,220,230,-235,230,D,230
No,Raw,DQ,Maksim Mosinov,Open,1991,Ukraine,97,,,,,,100,M,Максим Мосінов,1991-02-06,-300,-300,-300,,D,
No,Single-ply,1,Evgeniy Ivanets,Open,1995,Ukraine,96.9,,,,,,100,M,Євгеній Іванець,1995-10-02,320,340,-350,340,D,340
