WeightClassKg,Name,CyrillicName,Event,Equipment,Tested,Sex,Team,BirthDate,Division,BodyweightKg,Squat1Kg,Squat2Kg,Squat3Kg,Squat4Kg,Best3SquatKg,Bench1Kg,Bench2Kg,Bench3Kg,Bench4Kg,Best3BenchKg,Deadlift1Kg,Deadlift2Kg,Deadlift3Kg,Deadlift4Kg,Best3DeadliftKg,TotalKg,Place
60,Pavel Volchkov,Павел Волчков,SBD,Wraps,Yes,M,Олимпия,2004-08-03,Amateur Teen 13,57.74,90,100,110,,110,55,62.5,-70,,62.5,100,115,127.5,,127.5,300,1
56,Aleksandr Mikheev,Александр Михеев,SBD,Wraps,Yes,M,Барабинск,2001-02-19,Amateur Teen 14-16,54.32,120,130,135,,135,82.5,90,92.5,,92.5,155,170,-180,,170,397.5,1
56,Denis Seleznev,Денис Селезнев,SBD,Wraps,Yes,M,Новоспорт,2002-04-15,Amateur Teen 14-16,55.58,90,100,-105,,100,50,-55,-55,,50,125,130,135,,135,285,3
60,Aleksandr Vostrikov,Александр Востриков,SBD,Wraps,Yes,M,Новоспорт,2001-08-03,Amateur Teen 14-16,58.76,75,82.5,90,,90,47.5,52.5,55,,55,90,100,110,,110,255,1
60,Dmitriy Severinov,Дмитрий Северинов,SBD,Wraps,Yes,M,Новоспорт,2001-10-03,Amateur Teen 14-16,59.58,50,60,70,,70,50,60,62.5,,62.5,90,100,112.5,,112.5,245,2
67.5,Ilya Spektoruk,Илья Спекторук,SBD,Wraps,Yes,M,СС,2003-07-10,Amateur Teen 14-16,66.8,120,130,-140,,130,70,-77.5,77.5,,77.5,160,175,-185,,175,382.5,1
67.5,Artem Prozorov,Артем Прозоров,SBD,Wraps,Yes,M,Новоспорт,2002-06-07,Amateur Teen 14-16,65.7,-80,80,-95,,80,45,52.5,55,,55,100,110,125,,125,260,3
67.5,Danil Misyukov,Данил Мисюков,SBD,Wraps,Yes,M,Здоровье,2002-05-21,Amateur Teen 14-16,66.9,,,,,,,,,,,120,130,140,,140,,DQ
75,Nikita Nikitin,Никита Никитин,SBD,Wraps,Yes,M,Атлант,2001-04-25,Amateur Teen 14-16,69.85,120,130,,,130,100,-105,,,100,150,170,-177.5,,170,400,1
75,Aleksandr Voznesenskiy,Александр Вознесенский,SBD,Wraps,Yes,M,Новоспорт,2002-06-04,Amateur Teen 14-16,74.15,100,110,-115,,110,60,65,72.5,,72.5,150,160,170,,170,352.5,2
75,Valeriy Parfyonov,Валерий Парфёнов,SBD,Wraps,Yes,M,,2003-02-05,Amateur Teen 14-16,70.05,100,-115,-115,,100,55,60,65,,65,100,120,135,,135,300,3
90,Aleksey Kovalchuk,Алексей Ковальчук,SBD,Wraps,Yes,M,Новоспорт,2003-07-16,Amateur Teen 14-16,84.55,52.5,-60,67.5,,67.5,35,40,-45,,40,80,90,-100,,90,197.5,1
125,Yuriy Komarov,Юрий Комаров,SBD,Wraps,Yes,M,Новоспорт,2002-06-11,Amateur Teen 14-16,110.35,95,107.5,120,,120,65,75,-80,,75,115,125,130,,130,325,1
52,Aleksandr Chuporshnev,Александр Чупоршнев,SBD,Wraps,Yes,M,Рельеф,1999-05-20,Amateur Teen 17-19,51.86,95,102.5,110,,110,95,97.5,-101,,97.5,142.5,155,-162.5,,155,362.5,1
75,Ruslan Tsvetkovskiy,Руслан Цветковский,SBD,Wraps,Yes,M,Новоспорт,1998-05-28,Amateur Teen 17-19,74.85,170,190,-200,,190,110,120,-125,,120,210,230,240,,240,550,2
75,Egor Chuykov,Егор Чуйков,SBD,Wraps,Yes,M,Кольцово,1998-10-01,Amateur Teen 17-19,70.7,155,165,175,,175,105,-112.5,112.5,,112.5,205,215,225,,225,512.5,3
75,Nikolay Baev,Николай Баев,SBD,Wraps,Yes,M,Томская Сила,1999-12-22,Amateur Teen 17-19,74.95,162.5,170,175,,175,110,-115,-115,,110,185,200,205,,205,490,4
75,Danil Yakovlev,Данил Яковлев,SBD,Wraps,Yes,M,Kachetebrothers,1999-11-01,Amateur Teen 17-19,73.25,140,150,160,,160,115,-122.5,-122.5,,115,140,150,160,,160,435,5
75,Kirill Filippov,Кирилл Филиппов,SBD,Wraps,Yes,M,Новоспорт,2000-12-02,Amateur Teen 17-19,70.65,90,100,107.5,,107.5,50,60,-65,,60,105,115,125,,125,292.5,6
75,Artyom Basarab,Артём Басараб,SBD,Wraps,Yes,M,СС,1999-07-29,Amateur Teen 17-19,73.25,,,,,,,,,,,180,195,-205,,195,,DQ
90,Artur Dudko,Артур Дудко,SBD,Wraps,Yes,M,Kachetebrothers,2000-03-26,Amateur Teen 17-19,85.2,130,140,145,,145,110,112.5,115,,115,150,160,170,,170,430,1
67.5,Evgeniy Odintsov,Евгений Одинцов,SBD,Wraps,Yes,M,Новоспорт,1994-03-08,Amateur Juniors 20-23,64.6,130,140,145,,145,95,100,105,,105,195,205,215,,215,465,1
67.5,Igor Samoylov,Игорь Самойлов,SBD,Wraps,Yes,M,СС,1996-03-10,Amateur Juniors 20-23,66.5,145,152.5,-157.5,,152.5,100,110,-115,,110,-195,-195,195,,195,457.5,2
67.5,Aleksandr Kiktev,Александр Киктев,SBD,Wraps,Yes,M,фоц кольцово,1997-08-13,Amateur Juniors 20-23,66.8,,,,,,,,,,,150,160,167.5,,167.5,,DQ
75,Artem Milinchuk,Артем Милинчук,SBD,Wraps,Yes,M,Новоспорт,1994-02-02,Amateur Juniors 20-23,73.65,180,190,200,,200,120,127.5,-137.5,,127.5,200,215,220,,220,547.5,1
75,Roman Zaikin,Роман Заикин,SBD,Wraps,Yes,M,СС,1997-04-14,Amateur Juniors 20-23,72.45,170,180,185,,185,-132.5,-132.5,-132.5,,,205,225,-235,,225,,DQ
82.5,Nikolay Kozyulin,Николай Козюлин,SBD,Wraps,Yes,M,НГУ,1997-03-12,Amateur Juniors 20-23,82.25,185,-195,200,,200,135,140,145,,145,240,250,-261,,250,595,3
82.5,Vladislav Berezov,Владислав Березов,SBD,Wraps,Yes,M,Новоспорт,1997-06-24,Amateur Juniors 20-23,78.8,160,180,190,,190,105,-115,-115,,105,200,220,-232.5,,220,515,6
82.5,Vladislav Mukhomedyarov,Владислав Мухомедьяров,SBD,Wraps,Yes,M,Новоспорт,1996-07-04,Amateur Juniors 20-23,79.5,150,162.5,-175,,162.5,-110,117.5,125,,125,180,200,210,,210,497.5,7
82.5,Dmitriy Butyrskikh,Дмитрий Бутырских,SBD,Wraps,Yes,M,СС,1996-04-16,Amateur Juniors 20-23,81.45,170,-177.5,-177.5,,170,110,115,120,,120,160,170,-180,,170,460,8
82.5,Vitaliy Cheremnykh,Виталий Черемных,SBD,Wraps,Yes,M,СС,1997-01-31,Amateur Juniors 20-23,81.25,,,,,,,,,,,217.5,220,-225,,220,,DQ
90,Dmitriy Kolomov,Дмитрий Коломов,SBD,Wraps,Yes,M,Рельеф,1996-07-02,Amateur Juniors 20-23,90,,,,,,,,,,,250,-260,-260,,250,,DQ
110,Andrey Mozhaev,Андрей Можаев,SBD,Wraps,Yes,M,СС,1997-09-02,Amateur Juniors 20-23,110,185,195,205,,205,-150,150,-155,,150,200,210,235,,235,590,1
56,Aleksandr Mikheev,Александр Михеев,SBD,Wraps,Yes,M,Барабинск,2001-02-19,Amateur Open,54.32,,,,,,,,,,,155,170,-180,,170,,DQ
67.5,Maksim Kovalyov,Максим Ковалёв,SBD,Wraps,Yes,M,Стальной Медведь,1987-01-28,Amateur Open,66.95,,,,,,,,,,,170,180,190,,190,,DQ
75,Aleksandr Tanzinchan,Александр Танзинчан,SBD,Wraps,Yes,M,Новоспорт,1987-03-17,Amateur Open,74.35,-185,205,-210,,205,115,125,132.5,,132.5,200,220,227.5,,227.5,565,2
75,Valeriy Kuznetsov #5,Валерій Кузнєцов,SBD,Wraps,Yes,M,Рельеф,1974-01-23,Amateur Open,74.45,175,185,-190,,185,130,137.5,142.5,,142.5,235,-250,-250,,235,562.5,3
75,Konstantin Protskiy,Константин Процкий,SBD,Wraps,Yes,M,"ПАО ""Совкомбанк""",1992-12-09,Amateur Open,74.95,160,172.5,-180,,172.5,125,132.5,135,,135,215,230,-235,,230,537.5,5
75,Anton Donik,Антон Доник,SBD,Wraps,Yes,M,,1984-01-26,Amateur Open,73.4,-130,-140,150,,150,-100,105,-107.5,,105,150,160,175,,175,430,6
75,Konstantin Rodionov,Константин Родионов,SBD,Wraps,Yes,M,Кубер,1981-07-17,Amateur Open,72.45,,,,,,,,,,,165,180,-182.5,,180,,DQ
82.5,Sergey Polosin,Сергей Полосин,SBD,Wraps,Yes,M,Рельеф,1983-09-27,Amateur Open,81.6,207.5,215,-222.5,,215,112.5,117.5,-122.5,,117.5,240,250,-262.5,,250,582.5,3
82.5,Aleksey Voytkov,Алексей Войтков,SBD,Wraps,Yes,M,,1981-08-31,Amateur Open,82.5,200,-207.5,207.5,,207.5,120,130,135,,135,220,-230,-230,,220,562.5,4
82.5,Vyacheslav Golubin,Вячеслав Голубин,SBD,Wraps,Yes,M,,1992-03-27,Amateur Open,81.4,170,180,,,180,115,-120,120,,120,240,250,-257.5,,250,550,5
82.5,Anton Konstantinov,Антон Константинов,SBD,Wraps,Yes,M,,1988-08-26,Amateur Open,79.05,95,105,115,,115,85,-95,-95,,85,120,130,140,,140,340,6
82.5,Nikolay Efanov,Николай Ефанов,SBD,Wraps,Yes,M,Стальной Медведь,1958-07-10,Amateur Open,81.35,,,,,,,,,,,170,185,-200,,185,,DQ
82.5,Mikhail Telembovskiy,Михаил Телембовский,SBD,Wraps,Yes,M,СС,1987-08-06,Amateur Open,81.7,,,,,,,,,,,230,240,247.5,,247.5,,DQ
90,Evgeniy Kholzakov,Евгений Холзаков,SBD,Wraps,Yes,M,,1992-11-27,Amateur Open,89.55,-235,245,-255,,245,130,140,-145,,140,260,270,-280,,270,655,3
90,Igor Koshcheev,Игорь Кощеев,SBD,Wraps,Yes,M,,1979-07-23,Amateur Open,90,210,-215,-215,,210,130,135,140,,140,230,240,245,,245,595,4
90,Andrey Zhuravlyov,Андрей Журавлёв,SBD,Wraps,Yes,M,,1993-10-06,Amateur Open,88,180,190,200,,200,120,125,-130,,125,185,-197.5,197.5,,197.5,522.5,5
90,Dmitriy Kolpashnikov,Дмитрий Колпашников,SBD,Wraps,Yes,M,,1981-08-01,Amateur Open,87.05,190,-195,-195,,190,-110,110,-120,,110,200,-225,-225,,200,500,6
90,Evgeniy Tsibulin,Евгений Цибулин,SBD,Wraps,Yes,M,Томская Сила,1988-02-11,Amateur Open,89.1,135,147.5,152.5,,152.5,85,-92.5,-92.5,,85,165,-175,175,,175,412.5,7
90,Daniil Taskarakov,Даниил Таскараков,SBD,Wraps,Yes,M,Томская Сила,1988-07-16,Amateur Open,86.45,,,,,,,,,,,215,-225,225,,225,,DQ
90,Nikolay Baev,Николай Баев,SBD,Wraps,Yes,M,Томская Сила,1999-12-22,Amateur Open,86.85,,,,,,,,,,,200,-210,-210,,200,,DQ
100,Sergey Osipov,Сергей Осипов,SBD,Wraps,Yes,M,ярость тигра,1989-10-02,Amateur Open,100,175,185,195,,195,135,142.5,-147.5,,142.5,220,230,-240,,230,567.5,4
100,Andrey Fradkin,Андрей Фрадкин,SBD,Wraps,Yes,M,,1982-02-02,Amateur Open,99.6,-165,165,175,,175,155,157.5,-162.5,,157.5,185,205,212.5,,212.5,545,6
100,Nikita Rtishchev,Никита Ртищев,SBD,Wraps,Yes,M,,1992-10-17,Amateur Open,92.8,,,,,,,,,,,220,235,250,,250,,DQ
100,Vyacheslav Nikolaev,Вячеслав Николаев,SBD,Wraps,Yes,M,Стальной Медведь,1956-07-10,Amateur Open,96.05,,,,,,,,,,,210,230,-250,,230,,DQ
100,Aleksandr Chernov,Александр Чернов,SBD,Wraps,Yes,M,,1989-08-15,Amateur Open,96.55,,,,,,,,,,,210,235,260,,260,,DQ
100,Roman Utkin,Роман Уткин,SBD,Wraps,Yes,M,Хаммер-жим,1992-08-04,Amateur Open,98.45,,,,,,,,,,,205,-215,-215,,205,,DQ
100,Grigoriy Agarkov,Григорий Агарков,SBD,Wraps,Yes,M,,1978-10-31,Amateur Open,99.2,,,,,,,,,,,225,235,-242.5,,235,,DQ
100,Roman Muravev,Роман Муравьев,SBD,Wraps,Yes,M,,1978-08-20,Amateur Open,100,,,,,,,,,,,220,235,240,,240,,DQ
110,Anton Zenkov,Антон Зенков,SBD,Wraps,Yes,M,Братск,1992-03-10,Amateur Open,102.75,-210,210,225,,225,155,160,-165,,160,250,-275,-277.5,,250,635,3
110,Aleksandr Zaplatkin,Александр Заплаткин,SBD,Wraps,Yes,M,Атлант,1974-12-11,Amateur Open,109.65,150,170,190,,190,125,137.5,140,,140,200,230,-245,,230,560,4
110,Anton Zenkov,Антон Зенков,SBD,Wraps,Yes,M,Братск,1992-03-10,Amateur Open,102.75,,,,,,,,,,,250,-275,-277.5,,250,,DQ
110,Sergey Gladkov,Сергей Гладков,SBD,Wraps,Yes,M,территория силы,1981-08-06,Amateur Open,106.4,,,,,,,,,,,210,220,230,,230,,DQ
82.5,Yuriy Labzin,Юрий Лабзин,SBD,Wraps,Yes,M,Европа,1969-11-15,Amateur Masters 40-49,80.25,155,160,-165,,160,110,-117.5,117.5,,117.5,170,-192.5,-192.5,,170,447.5,1
100,Vasiliy Mandzyuk,Василий Мандзюк,SBD,Wraps,Yes,M,Автовокзал,1971-08-08,Amateur Masters 40-49,99.05,170,180,190,,190,-145,145,-150,,145,180,200,205,,205,540,1
100,Vyacheslav Safonov,Вячеслав Сафонов,SBD,Wraps,Yes,M,СК Здоровье,1975-11-07,Amateur Masters 40-49,96.2,,,,,,,,,,,185,195,200,,200,,DQ
110,Oleg Rybalkin,Олег Рыбалкин,SBD,Wraps,Yes,M,,1971-10-07,Amateur Masters 40-49,109.5,200,220,230,,230,170,180,185,,185,210,230,-250,,230,645,1
125,Andrey Rodkin,Андрей Родькин,SBD,Wraps,Yes,M,Новоспорт,1970-11-13,Amateur Masters 40-49,115,145,160,175,,175,105,115,120,,120,165,175,185,,185,480,1
82.5,Nikolay Efanov,Николай Ефанов,SBD,Wraps,Yes,M,Стальной Медведь,1958-07-10,Amateur Masters 50-59,81.35,,,,,,,,,,,170,185,-200,,185,,DQ
90,Oleg Lagunov,Олег Лагунов,SBD,Wraps,Yes,M,Новоспорт,1967-03-05,Amateur Masters 50-59,89.9,,,,,,,,,,,205,225,246,,246,,DQ
100,Artur Kobets,Артур Кобец,SBD,Wraps,Yes,M,Здоровье,1967-06-10,Amateur Masters 50-59,99.5,,,,,,,,,,,150,165,175,,175,,DQ
110,Sergey Laryagin,Сергей Ларягин,SBD,Wraps,Yes,M,Томская Сила,1962-03-14,Amateur Masters 50-59,108.7,,,,,,,,,,,205,,,,205,,DQ
140,Andrey Galin,Андрей Галин,SBD,Wraps,Yes,M,Автовокзал,1967-03-29,Amateur Masters 50-59,131.2,,,,,,,,,,,230,252.5,,,252.5,,DQ
75,Viktor Safimov,Виктор Сафимов,SBD,Wraps,Yes,M,ачинск,1949-08-15,Amateur Masters 60-69,74.1,145,160,,,160,-85,85,-95,,85,145,160,170,,170,415,1
75,Nikolay Zakharov,Николай Захаров,SBD,Wraps,Yes,M,Новоспорт,1951-12-21,Amateur Masters 60-69,68.05,120,130,,,130,60,65,,,65,150,160,,,160,355,2
100,Vyacheslav Nikolaev,Вячеслав Николаев,SBD,Wraps,Yes,M,Стальной Медведь,1956-07-10,Amateur Masters 60-69,96.05,,,,,,,,,,,210,230,-250,,230,,DQ
44,Sofiya Sviridova,София Свиридова,SBD,Wraps,Yes,F,СС,2007-04-26,Amateur Teen 13,33.58,35,40,-45,,40,25,27.5,30,,30,40,45,50,,50,120,1
44,Natalya Odintsova,Наталья Одинцова,SBD,Wraps,Yes,F,Новоспорт,2002-08-14,Amateur Teen 14-16,41.9,60,67.5,-72.5,,67.5,30,37.5,40,,40,80,97.5,100,,100,207.5,1
48,Vladislava Khoda,Владислава Хода,SBD,Wraps,Yes,F,Барабинск,2002-05-26,Amateur Teen 14-16,45.42,50,57.5,62.5,,62.5,30,35,-37.5,,35,80,90,95,,95,192.5,1
60,Anastasiya Andreeva,Анастасия Андреева,SBD,Wraps,Yes,F,СС,2001-01-26,Amateur Teen 14-16,60,95,100,105,,105,55,57.5,-60,,57.5,115,122.5,125,,125,287.5,1
60,Anastasiya Fradkina,Анастасия Фрадкина,SBD,Wraps,Yes,F,территория силы,2003-10-07,Amateur Teen 14-16,59.9,65,67.5,70,,70,47.5,50,-52.5,,50,80,82.5,85,,85,205,2
60,Anastasiya Sharamet,Анастасия Шарамет,SBD,Wraps,Yes,F,Новоспорт,2002-06-17,Amateur Teen 14-16,56.9,40,50,-55,,50,25,30,32.5,,32.5,55,60,67.5,,67.5,150,3
44,Mariya Yadryshnikova,Мария Ядрышникова,SBD,Wraps,Yes,F,Новоспорт,2000-02-25,Amateur Teen 17-19,43.12,55,62.5,65,,65,30,35,-37.5,,35,57.5,67.5,72.5,,72.5,172.5,1
60,Yuliya Guseva,Юлия Гусева,SBD,Wraps,Yes,F,Новоспорт,2000-11-15,Amateur Teen 17-19,59.05,95,105,-112.5,,105,50,55,-60,,55,117.5,-125,-125,,117.5,277.5,1
60,Viktoriya Nefedova,Виктория Нефедова,SBD,Wraps,Yes,F,,2000-12-08,Amateur Teen 17-19,59.6,65,72.5,80,,80,35,37.5,-40,,37.5,67.5,77.5,-80,,77.5,195,2
60,Sofya Klykova,Софья Клыкова,SBD,Wraps,Yes,F,Новоспорт,2000-06-24,Amateur Teen 17-19,58.35,60,72.5,-77.5,,72.5,30,35,40,,40,62.5,70,77.5,,77.5,190,3
67.5,Mariya Sukhova,Мария Сухова,SBD,Wraps,Yes,F,СС,1999-09-29,Amateur Teen 17-19,61.9,90,97.5,-102.5,,97.5,47.5,50,-52.5,,50,125,135,-155,,135,282.5,1
48,Svetlana Leshchinskaya,Светлана Лещинская,SBD,Wraps,Yes,F,,1994-08-05,Amateur Juniors 20-23,47.08,55,-62.5,65,,65,30,37.5,-40,,37.5,80,90,97.5,,97.5,200,1
48,Lyudmila Barva,Людмила Барва,SBD,Wraps,Yes,F,СС,1994-07-10,Amateur Juniors 20-23,44.34,60,65,-70,,65,30,-32.5,-32.5,,30,85,95,-100,,95,190,2
52,Nadezhda Komarova,Надежда Комарова,SBD,Wraps,Yes,F,,1994-10-06,Amateur Juniors 20-23,49.66,,,,,,,,,,,-90,-90,,,,,DQ
56,Darya Kozhukhar,Дарья Кожухарь,SBD,Wraps,Yes,F,Томская Сила,1995-04-23,Amateur Juniors 20-23,56,,,,,,,,,,,95,-102.5,-102.5,,95,,DQ
60,Aleksandra Baklanova,Александра Бакланова,SBD,Wraps,Yes,F,Новоспорт,1995-03-24,Amateur Juniors 20-23,56.8,85,92.5,-95,,92.5,45,50,55,,55,100,115,120,,120,267.5,1
60,Ella Kuzmenko,Элла Кузьменко,SBD,Wraps,Yes,F,,1993-12-19,Amateur Juniors 20-23,57.65,,,,,,,,,,,-112.5,122.5,-130,,122.5,,DQ
60,Aleksandra Bespalova,Александра Беспалова,SBD,Wraps,Yes,F,Томская Сила,1995-09-15,Amateur Juniors 20-23,59.1,,,,,,,,,,,-95,102.5,-107.5,,102.5,,DQ
60,Tatyana Barabanova,Татьяна Барабанова,SBD,Wraps,Yes,F,Томская Сила,1996-01-21,Amateur Juniors 20-23,60,,,,,,,,,,,100,-105,-105,,100,,DQ
67.5,Valeriya Vinogradova,Валерия Виноградова,SBD,Wraps,Yes,F,Тигр,1992-11-14,Amateur Open,67.3,95,100,105,,105,55,-60,-60,,55,120,130,-142.5,,130,290,1
75,Ekaterina Sokolovich,Екатерина Соколович,SBD,Wraps,Yes,F,,1997-08-15,Amateur Juniors 20-23,72.3,92.5,100,105,,105,55,60,62.5,,62.5,105,115,-120,,115,282.5,1
82.5,Olga Gerasimyuk,Ольга Герасимюк,SBD,Wraps,Yes,F,Колыванец,1996-03-01,Amateur Juniors 20-23,82.15,157.5,162.5,-167.5,,162.5,100,-105,105,,105,200,-212.5,-212.5,,200,467.5,1
82.5,Mariya Rusakova,Мария Русакова,SBD,Wraps,Yes,F,ачинск,1995-01-30,Amateur Juniors 20-23,79.65,-115,-115,115,,115,-65,65,-72.5,,65,110,-130,-130,,110,290,2
56,Oksana Mikheeva,Оксана Михеева,SBD,Wraps,Yes,F,Барабинск,1988-10-02,Amateur Open,53.94,60,70,77.5,,77.5,-50,50,55,,55,105,115,-122.5,,115,247.5,1
56,Mariya Tarasova,Мария Тарасова,SBD,Wraps,Yes,F,,1989-08-18,Amateur Open,54.05,,,,,,,,,,,100,107.5,-112.5,,107.5,,DQ
56,Valeriya Nesvetaylo,Валерия Несветайло,SBD,Wraps,Yes,F,СС,1986-12-20,Amateur Open,55.1,,,,,,,,,,,100,112.5,-115,,112.5,,DQ
60,Anna Radyuk,Анна Радюк,SBD,Wraps,Yes,F,,1993-01-22,Amateur Open,60,130,140,145,,145,90,95,100,,100,160,170,177.5,,177.5,422.5,1
60,Tatyana Klimchuk,Татьяна Климчук,SBD,Wraps,Yes,F,Славяне,1983-04-14,Amateur Open,58.78,120,125,-130,,125,55,57.5,-60,,57.5,125,-135,-135,,125,307.5,2
60,Aleksandra Baklanova,Александра Бакланова,SBD,Wraps,Yes,F,Новоспорт,1995-03-24,Amateur Open,56.8,85,92.5,-95,,92.5,45,50,55,,55,100,115,120,,120,267.5,3
67.5,Elmira Akhmadeeva,Эльмира Ахмадеева,SBD,Wraps,Yes,F,,1989-09-03,Amateur Open,67.5,115,125,132.5,,132.5,75,82.5,85,,85,150,160,170,,170,387.5,1
67.5,Kseniya Melnik,Ксения Мельник,SBD,Wraps,Yes,F,,1986-11-25,Amateur Open,66.1,122.5,130,-135,,130,75,80,82.5,,82.5,130,140,145,,145,357.5,2
67.5,Anastasiya Tsubulina,Анастасия Цубулина,SBD,Wraps,Yes,F,Томская Сила,1986-09-15,Amateur Open,65,70,77.5,85,,85,52.5,57.5,-62.5,,57.5,-110,115,120,,120,262.5,3
75,Irina Makasher,Ирина Макашер,SBD,Wraps,Yes,F,СС,1990-02-24,Amateur Open,74.65,110,117.5,-125,,117.5,70,72.5,-77.5,,72.5,140,150,-155,,150,340,1
75,Kseniya Modestova,Ксения Модестова,SBD,Wraps,Yes,F,Диалог,1993-03-23,Amateur Open,73.35,-70,70,80,,80,40,-47.5,-47.5,,40,110,120,127.5,,127.5,247.5,2
75,Nina Lebedintseva,Нина Лебединцева,SBD,Wraps,Yes,F,территория силы,1985-05-24,Amateur Open,73.05,,,,,,,,,,,120,127.5,132.5,,132.5,,DQ
82.5,Olga Gerasimyuk,Ольга Герасимюк,SBD,Wraps,Yes,F,Колыванец,1996-03-01,Amateur Open,82.15,157.5,162.5,-167.5,,162.5,100,-105,105,,105,200,-212.5,-212.5,,200,467.5,1
82.5,Natalya Krasotka,Наталья Красотка,SBD,Wraps,Yes,F,Новоспорт,1978-09-27,Amateur Open,80.7,115,-120,120,,120,67.5,72.5,77.5,,77.5,130,140,-150,,140,337.5,2
82.5,Kristina Fominskaya,Кристина Фоминская,SBD,Wraps,Yes,F,СС,1993-01-27,Amateur Open,82.05,-115,115,-125,,115,47.5,-50,50,,50,125,130,-135,,130,295,3
67.5,Danil Misyukov,Данил Мисюков,D,Raw,Yes,M,Здоровье,2002-05-21,Amateur Teen 14-16,66.9,,,,,,,,,,,120,130,140,,140,140,1
75,Valeriy Parfyonov,Валерий Парфёнов,D,Raw,Yes,M,,2003-02-05,Amateur Teen 14-16,70.05,,,,,,,,,,,100,120,135,,135,135,1
75,Egor Chuykov,Егор Чуйков,D,Raw,Yes,M,Кольцово,1998-10-01,Amateur Teen 17-19,70.7,,,,,,,,,,,205,215,225,,225,225,1
75,Artyom Basarab,Артём Басараб,D,Raw,Yes,M,СС,1999-07-29,Amateur Teen 17-19,73.25,,,,,,,,,,,180,195,-205,,195,195,2
67.5,Evgeniy Odintsov,Евгений Одинцов,D,Raw,Yes,M,Новоспорт,1994-03-08,Amateur Juniors 20-23,64.6,,,,,,,,,,,195,205,215,,215,215,1
67.5,Igor Samoylov,Игорь Самойлов,D,Raw,Yes,M,СС,1996-03-10,Amateur Juniors 20-23,66.5,,,,,,,,,,,-195,-195,195,,195,195,2
67.5,Aleksandr Kiktev,Александр Киктев,D,Raw,Yes,M,фоц кольцово,1997-08-13,Amateur Juniors 20-23,66.8,,,,,,,,,,,150,160,167.5,,167.5,167.5,3
75,Roman Zaikin,Роман Заикин,D,Raw,Yes,M,СС,1997-04-14,Amateur Juniors 20-23,72.45,,,,,,,,,,,205,225,-235,,225,225,1
82.5,Nikolay Kozyulin,Николай Козюлин,D,Raw,Yes,M,НГУ,1997-03-12,Amateur Juniors 20-23,82.25,,,,,,,,,,,240,250,-261,,250,250,1
82.5,Vitaliy Cheremnykh,Виталий Черемных,D,Raw,Yes,M,СС,1997-01-31,Amateur Juniors 20-23,81.25,,,,,,,,,,,217.5,220,-225,,220,220,2
90,Dmitriy Kolomov,Дмитрий Коломов,D,Raw,Yes,M,Рельеф,1996-07-02,Amateur Juniors 20-23,90,,,,,,,,,,,250,-260,-260,,250,250,1
56,Aleksandr Mikheev,Александр Михеев,D,Raw,Yes,M,Барабинск,2001-02-19,Amateur Open,54.32,,,,,,,,,,,155,170,-180,,170,170,1
67.5,Maksim Kovalyov,Максим Ковалёв,D,Raw,Yes,M,Стальной Медведь,1987-01-28,Amateur Open,66.95,,,,,,,,,,,170,180,190,,190,190,1
75,Konstantin Rodionov,Константин Родионов,D,Raw,Yes,M,Кубер,1981-07-17,Amateur Open,72.45,,,,,,,,,,,165,180,-182.5,,180,180,1
82.5,Vyacheslav Golubin,Вячеслав Голубин,D,Raw,Yes,M,,1992-03-27,Amateur Open,81.4,,,,,,,,,,,240,250,-257.5,,250,250,1
82.5,Sergey Polosin,Сергей Полосин,D,Raw,Yes,M,Рельеф,1983-09-27,Amateur Open,81.6,,,,,,,,,,,240,250,-262.5,,250,250,2
82.5,Mikhail Telembovskiy,Михаил Телембовский,D,Raw,Yes,M,СС,1987-08-06,Amateur Open,81.7,,,,,,,,,,,230,240,247.5,,247.5,247.5,3
82.5,Aleksey Voytkov,Алексей Войтков,D,Raw,Yes,M,,1981-08-31,Amateur Open,82.5,,,,,,,,,,,220,-230,-230,,220,220,4
82.5,Nikolay Efanov,Николай Ефанов,D,Raw,Yes,M,Стальной Медведь,1958-07-10,Amateur Open,81.35,,,,,,,,,,,170,185,-200,,185,185,5
90,Igor Koshcheev,Игорь Кощеев,D,Raw,Yes,M,,1979-07-23,Amateur Open,90,,,,,,,,,,,230,240,245,,245,245,1
90,Daniil Taskarakov,Даниил Таскараков,D,Raw,Yes,M,Томская Сила,1988-07-16,Amateur Open,86.45,,,,,,,,,,,215,-225,225,,225,225,2
90,Nikolay Baev,Николай Баев,D,Raw,Yes,M,Томская Сила,1999-12-22,Amateur Open,86.85,,,,,,,,,,,200,-210,-210,,200,200,3
90,Dmitriy Kolpashnikov,Дмитрий Колпашников,D,Raw,Yes,M,,1981-08-01,Amateur Open,87.05,,,,,,,,,,,200,-225,-225,,200,200,4
100,Aleksandr Chernov,Александр Чернов,D,Raw,Yes,M,,1989-08-15,Amateur Open,96.55,,,,,,,,,,,210,235,260,,260,260,1
100,Nikita Rtishchev,Никита Ртищев,D,Raw,Yes,M,,1992-10-17,Amateur Open,92.8,,,,,,,,,,,220,235,250,,250,250,2
100,Roman Muravev,Роман Муравьев,D,Raw,Yes,M,,1978-08-20,Amateur Open,100,,,,,,,,,,,220,235,240,,240,240,3
100,Grigoriy Agarkov,Григорий Агарков,D,Raw,Yes,M,,1978-10-31,Amateur Open,99.2,,,,,,,,,,,225,235,-242.5,,235,235,4
100,Vyacheslav Nikolaev,Вячеслав Николаев,D,Raw,Yes,M,Стальной Медведь,1956-07-10,Amateur Open,96.05,,,,,,,,,,,210,230,-250,,230,230,5
100,Sergey Osipov,Сергей Осипов,D,Raw,Yes,M,ярость тигра,1989-10-02,Amateur Open,100,,,,,,,,,,,220,230,-240,,230,230,6
100,Andrey Fradkin,Андрей Фрадкин,D,Raw,Yes,M,,1982-02-02,Amateur Open,99.6,,,,,,,,,,,185,205,212.5,,212.5,212.5,7
100,Roman Utkin,Роман Уткин,D,Raw,Yes,M,Хаммер-жим,1992-08-04,Amateur Open,98.45,,,,,,,,,,,205,-215,-215,,205,205,8
110,Anton Zenkov,Антон Зенков,D,Raw,Yes,M,Братск,1992-03-10,Amateur Open,102.75,,,,,,,,,,,250,-275,-277.5,,250,250,2
110,Sergey Gladkov,Сергей Гладков,D,Raw,Yes,M,территория силы,1981-08-06,Amateur Open,106.4,,,,,,,,,,,210,220,230,,230,230,3
100,Vasiliy Mandzyuk,Василий Мандзюк,D,Raw,Yes,M,Автовокзал,1971-08-08,Amateur Masters 40-49,99.05,,,,,,,,,,,180,200,205,,205,205,1
100,Vyacheslav Safonov,Вячеслав Сафонов,D,Raw,Yes,M,СК Здоровье,1975-11-07,Amateur Masters 40-49,96.2,,,,,,,,,,,185,195,200,,200,200,2
82.5,Nikolay Efanov,Николай Ефанов,D,Raw,Yes,M,Стальной Медведь,1958-07-10,Amateur Masters 50-59,81.35,,,,,,,,,,,170,185,-200,,185,185,1
90,Oleg Lagunov,Олег Лагунов,D,Raw,Yes,M,Новоспорт,1967-03-05,Amateur Masters 50-59,89.9,,,,,,,,,,,205,225,246,,246,246,1
100,Artur Kobets,Артур Кобец,D,Raw,Yes,M,Здоровье,1967-06-10,Amateur Masters 50-59,99.5,,,,,,,,,,,150,165,175,,175,175,1
110,Sergey Laryagin,Сергей Ларягин,D,Raw,Yes,M,Томская Сила,1962-03-14,Amateur Masters 50-59,108.7,,,,,,,,,,,205,,,,205,205,1
140,Andrey Galin,Андрей Галин,D,Raw,Yes,M,Автовокзал,1967-03-29,Amateur Masters 50-59,131.2,,,,,,,,,,,230,252.5,,,252.5,252.5,1
100,Vyacheslav Nikolaev,Вячеслав Николаев,D,Raw,Yes,M,Стальной Медведь,1956-07-10,Amateur Masters 60-69,96.05,,,,,,,,,,,210,230,-250,,230,230,1
48,Vladislava Khoda,Владислава Хода,D,Raw,Yes,F,Барабинск,2002-05-26,Amateur Teen 14-16,45.42,,,,,,,,,,,80,90,95,,95,95,1
60,Anastasiya Fradkina,Анастасия Фрадкина,D,Raw,Yes,F,территория силы,2003-10-07,Amateur Teen 14-16,59.9,,,,,,,,,,,80,82.5,85,,85,85,1
60,Yuliya Guseva,Юлия Гусева,D,Raw,Yes,F,Новоспорт,2000-11-15,Amateur Teen 17-19,59.05,,,,,,,,,,,117.5,-125,-125,,117.5,117.5,1
48,Lyudmila Barva,Людмила Барва,D,Raw,Yes,F,СС,1994-07-10,Amateur Juniors 20-23,44.34,,,,,,,,,,,85,95,-100,,95,95,1
52,Nadezhda Komarova,Надежда Комарова,D,Raw,Yes,F,,1994-10-06,Amateur Juniors 20-23,49.66,,,,,,,,,,,-90,-90,,,,,DQ
56,Darya Kozhukhar,Дарья Кожухарь,D,Raw,Yes,F,Томская Сила,1995-04-23,Amateur Juniors 20-23,56,,,,,,,,,,,95,-102.5,-102.5,,95,95,1
60,Ella Kuzmenko,Элла Кузьменко,D,Raw,Yes,F,,1993-12-19,Amateur Juniors 20-23,57.65,,,,,,,,,,,-112.5,122.5,-130,,122.5,122.5,1
60,Aleksandra Bespalova,Александра Беспалова,D,Raw,Yes,F,Томская Сила,1995-09-15,Amateur Juniors 20-23,59.1,,,,,,,,,,,-95,102.5,-107.5,,102.5,102.5,2
60,Tatyana Barabanova,Татьяна Барабанова,D,Raw,Yes,F,Томская Сила,1996-01-21,Amateur Juniors 20-23,60,,,,,,,,,,,100,-105,-105,,100,100,3
56,Oksana Mikheeva,Оксана Михеева,D,Raw,Yes,F,Барабинск,1988-10-02,Amateur Open,53.94,,,,,,,,,,,105,115,-122.5,,115,115,1
56,Valeriya Nesvetaylo,Валерия Несветайло,D,Raw,Yes,F,СС,1986-12-20,Amateur Open,55.1,,,,,,,,,,,100,112.5,-115,,112.5,112.5,2
56,Mariya Tarasova,Мария Тарасова,D,Raw,Yes,F,,1989-08-18,Amateur Open,54.05,,,,,,,,,,,100,107.5,-112.5,,107.5,107.5,3
75,Nina Lebedintseva,Нина Лебединцева,D,Raw,Yes,F,территория силы,1985-05-24,Amateur Open,73.05,,,,,,,,,,,120,127.5,132.5,,132.5,132.5,1
82.5,Sergey Polosin,Сергей Полосин,S,Wraps,Yes,M,Рельеф,1983-09-27,Amateur Open,81.6,207.5,215,-222.5,,215,,,,,,,,,,,215,1
82.5,Aleksey Voytkov,Алексей Войтков,S,Wraps,Yes,M,,1981-08-31,Amateur Open,82.5,200,-207.5,207.5,,207.5,,,,,,,,,,,207.5,2
60,Gleb Tuzov,Глеб Тузов,B,Raw,Yes,M,Профлига,2006-01-10,Amateur Teen 13,58.25,,,,,,-50,-50,52.5,,52.5,,,,,,52.5,1
52,Artemiy Aleksandrov,Артемий Александров,B,Raw,Yes,M,Рельеф,2002-09-04,Amateur Teen 14-16,50.9,,,,,,65,70,-75,,70,,,,,,70,1
52,Yakov Mishin,Яков Мишин,B,Raw,Yes,M,Профлига,2001-12-11,Amateur Teen 14-16,47.5,,,,,,-50,-50,50,,50,,,,,,50,2
67.5,Ilya Gaak,Илья Гаак,B,Raw,Yes,M,,2001-10-09,Amateur Teen 14-16,64.65,,,,,,90,95,100,,100,,,,,,100,1
60,Andrey Karelin,Андрей Карелин,B,Raw,Yes,M,Профлига,1998-06-30,Amateur Teen 17-19,59.6,,,,,,90,95,100,,100,,,,,,100,1
67.5,Dmitriy Kvinchia,Дмитрий Квинчиа,B,Raw,Yes,M,,1999-09-15,Amateur Teen 17-19,62.45,,,,,,100,-105,-110,,100,,,,,,100,1
75,Mikhail Galimon,Михаил Галимон,B,Raw,Yes,M,,1999-07-21,Amateur Teen 17-19,74.4,,,,,,115,120,125,,125,,,,,,125,1
75,Bakir Tagirov,Бакир Тагиров,B,Raw,Yes,M,Импульс,1998-10-21,Amateur Teen 17-19,72.2,,,,,,-110,115,-120,,115,,,,,,115,2
67.5,Ravshan Turdibaev,Равшан Турдибаев,B,Raw,Yes,M,Европа,1994-07-02,Amateur Juniors 20-23,66.6,,,,,,-115,115,-120,,115,,,,,,115,1
75,Yakhyokhozhi Egamberdiev,Яхёхожи Эгамбердиев,B,Raw,Yes,M,Новоспорт,1994-06-17,Amateur Juniors 20-23,75,,,,,,130,137.5,-145,,137.5,,,,,,137.5,1
75,Andrey Solovev,Андрей Соловьев,B,Raw,Yes,M,НВИ ВВ МВД,1997-03-23,Amateur Juniors 20-23,72.25,,,,,,132.5,-137.5,-137.5,,132.5,,,,,,132.5,2
75,Danil Nazarov,Данил Назаров,B,Raw,Yes,M,НВИ ВВ МВД,1997-10-17,Amateur Juniors 20-23,74.75,,,,,,120,-125,-125,,120,,,,,,120,3
75,Roman Zaikin,Роман Заикин,B,Raw,Yes,M,СС,1997-04-14,Amateur Juniors 20-23,72.45,,,,,,-132.5,-132.5,-132.5,,,,,,,,,DQ
82.5,Dmitriy Komarov,Дмитрий Комаров,B,Raw,Yes,M,НВИ ВВ МВД,1996-11-08,Amateur Juniors 20-23,81.25,,,,,,-170,-170,170,,170,,,,,,170,1
82.5,Roman Stolyar,Роман Столяр,B,Raw,Yes,M,Новоспорт,1994-08-17,Amateur Juniors 20-23,78.2,,,,,,120,130,-135,,130,,,,,,130,2
90,Aslanbek Tedeev,Асланбек Тедеев,B,Raw,Yes,M,НВИ ВВ МВД,1997-01-24,Amateur Juniors 20-23,82.8,,,,,,130,135,-140,,135,,,,,,135,1
90,Maksim Ivanov #15,Максим Иванов,B,Raw,Yes,M,,1995-04-23,Amateur Juniors 20-23,87.4,,,,,,110,-120,-120,,110,,,,,,110,2
100,Ilya Savchuk,Илья Савчук,B,Raw,Yes,M,НВИ ВВ МВД,1996-11-28,Amateur Juniors 20-23,98.05,,,,,,160,-162.5,162.5,,162.5,,,,,,162.5,3
100,Sergey Patrakov,Сергей Патраков,B,Raw,Yes,M,,1994-06-24,Amateur Juniors 20-23,98.65,,,,,,145,155,-162.5,,155,,,,,,155,4
100,Ilya Zakharov,Илья Захаров,B,Raw,Yes,M,Олимпия джим,1994-01-19,Amateur Juniors 20-23,99.25,,,,,,-142.5,142.5,-152.5,,142.5,,,,,,142.5,5
67.5,Yuriy Zhmaev,Юрий Жмаев,B,Raw,Yes,M,,1979-08-27,Amateur Open,67.3,,,,,,130,135,-137.5,,135,,,,,,135,1
67.5,Nikolay Aleksandrov,Николай Александров,B,Raw,Yes,M,СС,1991-09-23,Amateur Open,65.55,,,,,,110,115,-120,,115,,,,,,115,2
67.5,Vladislav Yushin,Владислав Юшин,B,Raw,Yes,M,территория силы,1989-05-04,Amateur Open,66.15,,,,,,-110,-110,-110,,,,,,,,,DQ
75,Yuriy Nogay,Юрий Ногай,B,Raw,Yes,M,Стальной Медведь,1983-05-26,Amateur Open,74.5,,,,,,160,-167.5,-167.5,,160,,,,,,160,1
75,Sergey Nikonov,Сергей Никонов,B,Raw,Yes,M,Спарта,1986-06-17,Amateur Open,71.4,,,,,,140,150,-157.5,,150,,,,,,150,2
75,Maksim Goryuchko,Максим Горючко,B,Raw,Yes,M,СС,1989-09-17,Amateur Open,71.95,,,,,,100,110,120,,120,,,,,,120,3
75,Nikita Trubitsyn,Никита Трубицын,B,Raw,Yes,M,,1988-07-05,Amateur Open,73,,,,,,110,120,-130,,120,,,,,,120,4
75,Kirill Rybakov,Кирилл Рыбаков,B,Raw,Yes,M,,1989-07-17,Amateur Open,74.6,,,,,,110,-120,-120,,110,,,,,,110,5
75,Andrey Matyushev,Андрей Матюшев,B,Raw,Yes,M,,1975-10-18,Amateur Open,72.15,,,,,,100,-105,-105,,100,,,,,,100,6
75,Remir Karimov,Ремир Каримов,B,Raw,Yes,M,Беловалтим,1988-08-08,Amateur Open,70.05,,,,,,-90,-95,97.5,,97.5,,,,,,97.5,7
82.5,Dmitriy Komarov,Дмитрий Комаров,B,Raw,Yes,M,НВИ ВВ МВД,1996-11-08,Amateur Open,81.25,,,,,,-170,-170,170,,170,,,,,,170,1
82.5,Vladislav Vidergold,Владислав Видергольд,B,Raw,Yes,M,,1993-08-04,Amateur Open,78.3,,,,,,-140,140,-147.5,,140,,,,,,140,4
82.5,Dmitriy Lyapin,Дмитрий Ляпин,B,Raw,Yes,M,,1988-11-01,Amateur Open,80.6,,,,,,130,-135,135,,135,,,,,,135,5
82.5,Vadim Babushkin,Вадим Бабушкин,B,Raw,Yes,M,территория силы,1988-05-01,Amateur Open,79.95,,,,,,127.5,-130,132.5,,132.5,,,,,,132.5,6
82.5,Aleksandr Chagin,Александр Чагин,B,Raw,Yes,M,Профлига,1984-09-05,Amateur Open,80.3,,,,,,125,-130,130,,130,,,,,,130,7
82.5,Yuriy Kutulaev,Юрий Кутулаев,B,Raw,Yes,M,сталинград,1991-06-03,Amateur Open,81.7,,,,,,-125,-130,-130,,,,,,,,,DQ
90,Artem Gomolko,Артем Гомолко,B,Raw,Yes,M,Профлига,1987-12-24,Amateur Open,89.85,,,,,,175,180,185,,185,,,,,,185,2
90,Mikhail Shpagin,Михаил Шпагин,B,Raw,Yes,M,Обь,1988-10-25,Amateur Open,85.25,,,,,,160,165,-170,,165,,,,,,165,4
90,Aleksey Pugachev,Алексей Пугачев,B,Raw,Yes,M,Профлига,1979-05-23,Amateur Open,88.7,,,,,,147.5,155,160,,160,,,,,,160,5
90,Evgeniy Myshkin,Евгений Мышкин,B,Raw,Yes,M,Новоспорт,1985-05-15,Amateur Open,89.9,,,,,,135,145,-150,,145,,,,,,145,6
90,Igor Gorshenin,Игорь Горшенин,B,Raw,Yes,M,Профлига,1990-01-24,Amateur Open,89.05,,,,,,130,135,140,,140,,,,,,140,7
90,Ruslan Samarskiy,Руслан Самарский,B,Raw,Yes,M,Новоспорт,1990-10-06,Amateur Open,88,,,,,,120,130,-140,,130,,,,,,130,8
90,Andrey Fufaev,Андрей Фуфаев,B,Raw,Yes,M,,1981-05-01,Amateur Open,89.2,,,,,,-170,-170,-177.5,,,,,,,,,DQ
100,Andrey Gerasimenko,Андрей Герасименко,B,Raw,Yes,M,,1990-09-06,Amateur Open,98.95,,,,,,162.5,175,185,,185,,,,,,185,5
100,Oleg Prytkov,Олег Прытков,B,Raw,Yes,M,,1984-02-19,Amateur Open,97.55,,,,,,-170,170,172.5,,172.5,,,,,,172.5,8
100,Aleksandr Leonenko,Александр Леоненко,B,Raw,Yes,M,Профлига,1992-02-25,Amateur Open,96.5,,,,,,160,165,-170,,165,,,,,,165,11
100,Andrey Fradkin,Андрей Фрадкин,B,Raw,Yes,M,,1982-02-02,Amateur Open,99.6,,,,,,155,157.5,-162.5,,157.5,,,,,,157.5,12
100,Sergey Patrakov,Сергей Патраков,B,Raw,Yes,M,,1994-06-24,Amateur Open,98.65,,,,,,145,155,-162.5,,155,,,,,,155,13
100,Andrey Rovenskiy,Андрей Ровенский,B,Raw,Yes,M,СС,1992-09-12,Amateur Open,99.15,,,,,,142.5,-152.5,152.5,,152.5,,,,,,152.5,15
100,Aleksandr Chernov,Александр Чернов,B,Raw,Yes,M,,1989-08-15,Amateur Open,95.2,,,,,,130,145,150,,150,,,,,,150,16
100,Mikhail Gozhenko,Михаил Гоженко,B,Raw,Yes,M,,1990-11-03,Amateur Open,94.5,,,,,,137.5,142.5,147.5,,147.5,,,,,,147.5,18
100,Andrey Fufaev,Андрей Фуфаев,B,Raw,Yes,M,,1981-05-01,Amateur Open,98.35,,,,,,125,130,142.5,,142.5,,,,,,142.5,19
100,Kirill Belikov,Кирилл Беликов,B,Raw,Yes,M,,1985-11-02,Amateur Open,99.45,,,,,,-135,142.5,-150,,142.5,,,,,,142.5,20
100,Dzhamshed Rakhmonov,Джамшед Рахмонов,B,Raw,Yes,M,,1987-01-18,Amateur Open,97.75,,,,,,-142.5,-142.5,-142.5,,,,,,,,,DQ
110,Vadim Smirnov,Вадим Смирнов,B,Raw,Yes,M,,1982-10-13,Amateur Open,106.7,,,,,,200,207.5,-212.5,,207.5,,,,,,207.5,2
110,Ikromzhon Atakhonov,Икромжон Атахонов,B,Raw,Yes,M,,1989-06-18,Amateur Open,107.5,,,,,,207.5,-215,-215,,207.5,,,,,,207.5,3
110,Sergey Shamovskiy,Сергей Шамовский,B,Raw,Yes,M,,1993-10-23,Amateur Open,105.65,,,,,,195,200,205,,205,,,,,,205,5
110,Aleksey Dovbnya,Алексей Довбня,B,Raw,Yes,M,Профлига,1983-06-12,Amateur Open,110,,,,,,190,200,-207.5,,200,,,,,,200,7
110,Spartak Svyatchenko,Спартак Святченко,B,Raw,Yes,M,,1977-09-17,Amateur Open,103.8,,,,,,167.5,177.5,-182.5,,177.5,,,,,,177.5,8
110,Pavel Tumanov,Павел Туманов,B,Raw,Yes,M,Новоспорт,1992-09-02,Amateur Open,107.55,,,,,,160,-167.5,167.5,,167.5,,,,,,167.5,10
110,Ravil Duseev,Равиль Дусеев,B,Raw,Yes,M,,1963-12-29,Amateur Open,102.7,,,,,,-150,150,-155,,150,,,,,,150,12
110,Vladimir Pleshakov,Владимир Плешаков,B,Raw,Yes,M,,1975-12-22,Amateur Open,107.6,,,,,,-150,150,-165,,150,,,,,,150,13
110,Dmitriy Iksar,Дмитрий Иксар,B,Raw,Yes,M,Новоспорт,1991-08-17,Amateur Open,110,,,,,,137.5,147.5,150,,150,,,,,,150,14
110,Aleksandr Salikov,Александр Саликов,B,Raw,Yes,M,,1989-03-28,Amateur Open,107.5,,,,,,-155,-155,-155,,,,,,,,,DQ
125,Sergey Grebenkin,Сергей Гребенкин,B,Raw,Yes,M,Профлига,1973-12-04,Amateur Open,123.9,,,,,,195,205,-210,,205,,,,,,205,2
125,Roman Nikishin,Роман Никишин,B,Raw,Yes,M,Профлига,1982-01-19,Amateur Open,124.7,,,,,,192.5,-202.5,-202.5,,192.5,,,,,,192.5,4
125,Sergey Fayler,Сергей Файлер,B,Raw,Yes,M,,1984-04-02,Amateur Open,113.3,,,,,,160,170,182.5,,182.5,,,,,,182.5,5
125,Kirill Sitalov,Кирилл Ситалов,B,Raw,Yes,M,,1983-07-22,Amateur Open,111,,,,,,180,-200,-205,,180,,,,,,180,6
125,Sergey Seliverstov,Сергей Селиверстов,B,Raw,Yes,M,Новоспорт,1978-03-02,Amateur Open,113.95,,,,,,130,140,147.5,,147.5,,,,,,147.5,7
140,Ilya Bekkerman,Илья Беккерман,B,Raw,Yes,M,,1974-08-16,Amateur Open,127.95,,,,,,160,170,180,,180,,,,,,180,1
75,Yuriy Ageev,Юрий Агеев,B,Raw,Yes,M,,1975-05-22,Amateur Masters 40-49,72.55,,,,,,137.5,-142.5,-142.5,,137.5,,,,,,137.5,1
75,Andrey Matyushev,Андрей Матюшев,B,Raw,Yes,M,,1975-10-18,Amateur Masters 40-49,72.15,,,,,,100,-105,-105,,100,,,,,,100,2
82.5,Leonid Aleksandrov,Леонид Александров,B,Raw,Yes,M,Стальной Медведь,1971-07-15,Amateur Masters 40-49,81.7,,,,,,155,-160,-160,,155,,,,,,155,1
82.5,Anton Kucherevskiy,Антон Кучеревский,B,Raw,Yes,M,Здоровье,1975-05-22,Amateur Masters 40-49,81.25,,,,,,105,110,115,,115,,,,,,115,2
82.5,Sergey Grishin,Сергей Гришин,B,Raw,Yes,M,СС,1972-07-16,Amateur Masters 40-49,82.05,,,,,,115,-125,-125,,115,,,,,,115,3
82.5,Aleksandr Frolov,Александр Фролов,B,Raw,Yes,M,Братск,1976-05-07,Amateur Masters 40-49,79.65,,,,,,-150,-150,-150,,,,,,,,,DQ
82.5,Oleg Zarutskiy,Олег Заруцкий,B,Raw,Yes,M,Профлига,1973-01-03,Amateur Masters 40-49,81.15,,,,,,-130,-130,-130,,,,,,,,,DQ
90,Aleksandr Fedosov,Александр Федосов,B,Raw,Yes,M,,1974-02-27,Amateur Masters 40-49,89.5,,,,,,140,-147.5,147.5,,147.5,,,,,,147.5,1
90,Sergey Boldin,Сергей Болдин,B,Raw,Yes,M,Барабинск,1971-05-31,Amateur Masters 40-49,87.65,,,,,,135,140,-147.5,,140,,,,,,140,2
90,Valeriy Kuznetsov #2,Валерій Кузнєцов,B,Raw,Yes,M,Рельеф,1974-01-23,Amateur Masters 40-49,89,,,,,,120,130,-135,,130,,,,,,130,3
100,Vyacheslav Safonov,Вячеслав Сафонов,B,Raw,Yes,M,СК Здоровье,1975-11-07,Amateur Masters 40-49,96.55,,,,,,150,155,-160,,155,,,,,,155,1
100,Vyacheslav Churakov,Вячеслав Чураков,B,Raw,Yes,M,,1977-05-16,Amateur Masters 40-49,97.9,,,,,,-150,-150,,,,,,,,,,DQ
110,Pavel Timofeev,Павел Тимофеев,B,Raw,Yes,M,,1977-03-08,Amateur Masters 40-49,108.3,,,,,,170,-180,-180,,170,,,,,,170,1
110,Aleksey Pronin,Алексей Пронин,B,Raw,Yes,M,,1975-04-29,Amateur Masters 40-49,108.7,,,,,,162.5,170,-180,,170,,,,,,170,2
110,Aleksandr Kuznetsov #26,Александр Кузнецов,B,Raw,Yes,M,,1971-01-04,Amateur Masters 40-49,103.95,,,,,,142.5,152.5,155,,155,,,,,,155,3
125,Sergey Grebenkin,Сергей Гребенкин,B,Raw,Yes,M,Профлига,1973-12-04,Amateur Masters 40-49,123.9,,,,,,195,205,-210,,205,,,,,,205,1
125,Dmitriy Melkov,Дмитрий Мельков,B,Raw,Yes,M,Кристалл,1971-03-18,Amateur Masters 40-49,114.1,,,,,,157.5,162.5,165,,165,,,,,,165,2
125,Yuriy Zherebtsov,Юрий Жеребцов,B,Raw,Yes,M,Хакимото,1974-04-06,Amateur Masters 40-49,118.95,,,,,,150,-160,165,,165,,,,,,165,3
140,Ilya Bekkerman,Илья Беккерман,B,Raw,Yes,M,,1974-08-16,Amateur Masters 40-49,127.95,,,,,,160,170,180,,180,,,,,,180,1
75,Sergey Khoda,Сергей Хода,B,Raw,Yes,M,Барабинск,1967-08-10,Amateur Masters 50-59,72.95,,,,,,82.5,87.5,-92.5,,87.5,,,,,,87.5,1
100,Mikhail Ishchechkin,Михаил Ищечкин,B,Raw,Yes,M,Томская Сила,1962-01-22,Amateur Masters 50-59,98.95,,,,,,130,135,137.5,,137.5,,,,,,137.5,1
100,Artur Kobets,Артур Кобец,B,Raw,Yes,M,Здоровье,1967-06-10,Amateur Masters 50-59,97.75,,,,,,120,-130,,,120,,,,,,120,2
110,Ravil Duseev,Равиль Дусеев,B,Raw,Yes,M,,1963-12-29,Amateur Masters 50-59,102.7,,,,,,-150,150,-155,,150,,,,,,150,1
110,Aleksandr Aniskin,Александр Анискин,B,Raw,Yes,M,СК Здоровье,1963-01-02,Amateur Masters 50-59,107.7,,,,,,140,145,-150,,145,,,,,,145,2
125,Andrey Mazepa,Андрей Мазепа,B,Raw,Yes,M,,1964-04-09,Amateur Masters 50-59,111.6,,,,,,125,-130,-135,,125,,,,,,125,1
75,Aleksandr Yarygin,Александр Ярыгин,B,Raw,Yes,M,Здоровье,1951-07-30,Amateur Masters 60-69,72.85,,,,,,90,95,-100,,95,,,,,,95,1
90,Valeriy Sorokov,Валерий Сороков,B,Raw,Yes,M,,1954-06-01,Amateur Masters 60-69,89.2,,,,,,140,147.5,-152.5,,147.5,,,,,,147.5,2
90,Aleksandr Razmakhnin,Александр Размахнин,B,Raw,Yes,M,Новоспорт,1951-08-08,Amateur Masters 60-69,88.35,,,,,,112.5,122.5,-130,,122.5,,,,,,122.5,3
100,Grigoriy Kalinin,Григорий Калинин,B,Raw,Yes,M,,1950-11-19,Amateur Masters 60-69,98.95,,,,,,130,135,140,,140,,,,,,140,1
100,Dmitriy Kruglov,Дмитрий Круглов,B,Raw,Yes,M,Европа,1955-05-09,Amateur Masters 60-69,97.85,,,,,,110,-115,117.5,,117.5,,,,,,117.5,2
60,Anastasiya Fradkina,Анастасия Фрадкина,B,Raw,Yes,F,территория силы,2003-10-07,Amateur Teen 14-16,59.9,,,,,,47.5,50,-52.5,,50,,,,,,50,1
56,Ekaterina Neftis,Екатерина Нефтис,B,Raw,Yes,F,Профлига,1998-08-22,Amateur Teen 17-19,54.4,,,,,,52.5,57.5,-60,,57.5,,,,,,57.5,1
60,Anna Goretskaya,Анна Горецкая,B,Raw,Yes,F,экстрим Фитнесс,1998-05-11,Amateur Teen 17-19,59.25,,,,,,55,-60,-60,,55,,,,,,55,1
67.5,Anna Kolesnikova,Анна Колесникова,B,Raw,Yes,F,СВС,1998-03-03,Amateur Teen 17-19,64.55,,,,,,-75,-75,75,,75,,,,,,75,1
67.5,Angelina Tararaeva,Ангелина Тарараева,B,Raw,Yes,F,,2000-04-08,Amateur Teen 17-19,67.5,,,,,,52.5,57.5,60,,60,,,,,,60,2
48,Mariya Okhramenko,Мария Охраменко,B,Raw,Yes,F,,1990-10-27,Amateur Open,46.36,,,,,,50,-52.5,-52.5,,50,,,,,,50,1
52,Irina Faryanova,Ирина Фарьянова,B,Raw,Yes,F,Введите команду,1989-07-30,Amateur Open,51,,,,,,60,-65,-65,,60,,,,,,60,1
52,Valentina Chizhova,Валентина Чижова,B,Raw,Yes,F,,1985-11-05,Amateur Open,51.58,,,,,,52.5,55,-60,,55,,,,,,55,2
56,Inna Boykova,Инна Бойкова,B,Raw,Yes,F,Вертикаль,1968-02-06,Amateur Open,55.85,,,,,,65,70,72.5,,72.5,,,,,,72.5,1
56,Elena Vorozhishcheva,Елена Ворожищева,B,Raw,Yes,F,Братск,1976-06-18,Amateur Open,55.15,,,,,,60,65,-67.5,,65,,,,,,65,2
56,Mariya Bardakova,Мария Бардакова,B,Raw,Yes,F,,1993-07-16,Amateur Open,52.85,,,,,,-47.5,-50,50,,50,,,,,,50,3
67.5,Anna Kolesnikova,Анна Колесникова,B,Raw,Yes,F,СВС,1998-03-03,Amateur Open,64.55,,,,,,-75,-75,75,,75,,,,,,75,1
67.5,Tatyana Borisova,Татьяна Борисова,B,Raw,Yes,F,,1973-06-04,Amateur Open,65.45,,,,,,65,-70,-70,,65,,,,,,65,2
67.5,Elena Muracheva,Елена Мурачева,B,Raw,Yes,F,Новоспорт,1993-03-15,Amateur Open,64.3,,,,,,40,47.5,50,,50,,,,,,50,3
75,Irina Makasher,Ирина Макашер,B,Raw,Yes,F,СС,1990-02-24,Amateur Open,74.65,,,,,,70,72.5,-77.5,,72.5,,,,,,72.5,1
82.5,Natalya Krasotka,Наталья Красотка,B,Raw,Yes,F,Новоспорт,1978-09-27,Amateur Open,80.7,,,,,,67.5,72.5,77.5,,77.5,,,,,,77.5,1
52,Tatyana Kuznetsova,Татьяна Кузнецова,B,Raw,Yes,F,Томск,1977-06-12,Amateur Masters 40-49,50.9,,,,,,-55,-55,55,,55,,,,,,55,1
56,Irina Kiseleva,Ирина Киселева,B,Raw,Yes,F,,1974-08-18,Amateur Masters 40-49,54.7,,,,,,62.5,67.5,-70,,67.5,,,,,,67.5,1
67.5,Tatyana Borisova,Татьяна Борисова,B,Raw,Yes,F,,1973-06-04,Amateur Masters 40-49,65.45,,,,,,65,-70,-70,,65,,,,,,65,1
75,Olga Glebova,Ольга Глебова,B,Raw,Yes,F,,1974-05-17,Amateur Masters 40-49,72.25,,,,,,-77.5,77.5,-82.5,,77.5,,,,,,77.5,1
48,Irina Gerasimova,Ирина Герасимова,B,Raw,Yes,F,,1964-06-29,Amateur Masters 50-59,47.74,,,,,,42.5,45,-50,,45,,,,,,45,1
90,Vladimir Ermola,Владимир Ермола,SBD,Single-ply,Yes,M,СС,1996-09-03,Amateur Juniors 20-23,87.85,230,240,250,,250,160,170,180,,180,230,242.5,-250,,242.5,672.5,1
67.5,Andrey Kolbin,Андрей Колбин,SBD,Single-ply,Yes,M,Стальной Медведь,1984-07-22,Amateur Open,66.3,,,,,,,,,,,-225,-232.5,-232.5,,,,DQ
75,Vyacheslav Dementev,Вячеслав Дементьев,SBD,Single-ply,Yes,M,Стальной Медведь,1983-02-17,Amateur Open,72.75,100,107.5,-115,,107.5,-110,-110,110,,110,135,145,160,,160,377.5,1
82.5,Evgeniy Raspopin,Евгений Распопин,SBD,Single-ply,Yes,M,СС,1998-02-17,Amateur Open,82.35,200,-210,-210,,200,-170,-170,170,,170,200,-210,-210,,200,570,1
82.5,Anatoliy Strizhkov,Анатолий Стрижков,SBD,Single-ply,Yes,M,СС,1993-10-21,Amateur Open,81.05,170,-180,180,,180,-165,-165,-175,,,210,-217.5,-217.5,,210,,DQ
82.5,Ivan Volozhanin,Иван Воложанин,SBD,Single-ply,Yes,M,Стальной Медведь,1991-06-08,Amateur Open,81.9,,,,,,,,,,,-140,150,170,,170,,DQ
90,Bakhtiyor Rakhimov,Бахтиёр Рахимов,SBD,Single-ply,Yes,M,,1981-12-28,Amateur Open,88.6,190,210,-220,,210,140,-150,150,,150,230,-245,252.5,,252.5,612.5,1
90,Artem Bazaykin,Артем Базайкин,SBD,Single-ply,Yes,M,Импульс,1992-02-04,Amateur Open,83.85,-235,240,-255,,240,120,-127.5,127.5,,127.5,220,242.5,-277.5,,242.5,610,2
90,Bakhtiyor Rakhimov,Бахтиёр Рахимов,SBD,Single-ply,Yes,M,,1981-12-28,Amateur Open,88.6,-180,180,-200,,180,150,-160,160,,160,200,220,230,,230,570,3
52,Angelina Klasina,Ангелина Класина,SBD,Single-ply,Yes,F,СС,1999-10-08,Amateur Teen 17-19,50.55,115,125,130,,130,75,-82.5,-82.5,,75,100,-110,-110,,100,305,1
52,Irina Kaplunova,Ирина Каплунова,SBD,Single-ply,Yes,F,Рельеф,1995-08-09,Amateur Juniors 20-23,51.76,105,-115,115,,115,50,55,57.5,,57.5,100,110,117.5,,117.5,290,1
82.5,Elena Nikolenko,Елена Николенко,SBD,Single-ply,Yes,F,Стальной Медведь,1978-06-15,Amateur Open,81.4,,,,,,,,,,,135,145,150,,150,,DQ
67.5,Marianna Efremova-Otchenash,Марианна Ефремова-Отченаш,SBD,Single-ply,Yes,F,СС,1977-04-09,Amateur Masters 40-49,66.4,80,90,100,,100,70,75,80,,80,110,120,125,,125,305,1
90,Vladimir Ermola,Владимир Ермола,D,Single-ply,Yes,M,СС,1996-09-03,Amateur Juniors 20-23,87.85,,,,,,,,,,,230,242.5,-250,,242.5,242.5,1
67.5,Andrey Kolbin,Андрей Колбин,D,Single-ply,Yes,M,Стальной Медведь,1984-07-22,Amateur Open,66.3,,,,,,,,,,,-225,-232.5,-232.5,,,,DQ
75,Vyacheslav Dementev,Вячеслав Дементьев,D,Single-ply,Yes,M,Стальной Медведь,1983-02-17,Amateur Open,72.75,,,,,,,,,,,135,145,160,,160,160,1
82.5,Anatoliy Strizhkov,Анатолий Стрижков,D,Single-ply,Yes,M,СС,1993-10-21,Amateur Open,81.05,,,,,,,,,,,210,-217.5,-217.5,,210,210,1
82.5,Ivan Volozhanin,Иван Воложанин,D,Single-ply,Yes,M,Стальной Медведь,1991-06-08,Amateur Open,81.9,,,,,,,,,,,-140,150,170,,170,170,2
90,Bakhtiyor Rakhimov,Бахтиёр Рахимов,D,Single-ply,Yes,M,,1981-12-28,Amateur Open,88.6,,,,,,,,,,,230,-245,252.5,,252.5,252.5,1
90,Bakhtiyor Rakhimov,Бахтиёр Рахимов,D,Single-ply,Yes,M,,1981-12-28,Amateur Open,88.6,,,,,,,,,,,200,220,230,,230,230,2
82.5,Elena Nikolenko,Елена Николенко,D,Single-ply,Yes,F,Стальной Медведь,1978-06-15,Amateur Open,81.4,,,,,,,,,,,135,145,150,,150,150,1
90,Bakhtiyor Rakhimov,Бахтиёр Рахимов,S,Single-ply,Yes,M,,1981-12-28,Amateur Open,88.6,190,210,-220,,210,,,,,,,,,,,210,1
90,Bakhtiyor Rakhimov,Бахтиёр Рахимов,S,Single-ply,Yes,M,,1981-12-28,Amateur Open,88.6,-180,180,-200,,180,,,,,,,,,,,180,2
82.5,Evgeniy Raspopin,Евгений Распопин,B,Single-ply,Yes,M,СС,1998-02-17,Amateur Teen 17-19,82.35,,,,,,-170,-170,170,,170,,,,,,170,1
67.5,Aleksey Petrov,Алексей Петров,B,Single-ply,Yes,M,,1994-08-25,Amateur Juniors 20-23,66.95,,,,,,167.5,177.5,-180,,177.5,,,,,,177.5,1
67.5,Mikhail Lazutkin,Михаил Лазуткин,B,Single-ply,Yes,M,Стальной Медведь,1995-05-02,Amateur Juniors 20-23,65.9,,,,,,-150,150,152.5,-181,152.5,,,,,,152.5,2
67.5,Aleksandr Ignatov,Александр Игнатов,B,Single-ply,Yes,M,СС,1996-06-14,Amateur Juniors 20-23,64.3,,,,,,-135,135,145,,145,,,,,,145,3
67.5,Demur Khorava,Демур Хорава,B,Single-ply,Yes,M,СС,1995-06-06,Amateur Juniors 20-23,60.8,,,,,,-130,-130,130,,130,,,,,,130,4
82.5,Pavel Kaluzhin,Павел Калужин,B,Single-ply,Yes,M,СС,1996-01-10,Amateur Juniors 20-23,81.95,,,,,,165,175,-185,,175,,,,,,175,1
82.5,Vitaliy Cheremnykh,Виталий Черемных,B,Single-ply,Yes,M,СС,1997-01-31,Amateur Juniors 20-23,81.25,,,,,,-175,-175,-175,,,,,,,,,DQ
90,Vladimir Ermola,Владимир Ермола,B,Single-ply,Yes,M,СС,1996-09-03,Amateur Juniors 20-23,87.85,,,,,,160,170,180,,180,,,,,,180,1
67.5,Aleksey Petrov,Алексей Петров,B,Single-ply,Yes,M,,1994-08-25,Amateur Open,66.95,,,,,,167.5,177.5,-180,,177.5,,,,,,177.5,1
67.5,Mikhail Lazutkin,Михаил Лазуткин,B,Single-ply,Yes,M,Стальной Медведь,1995-05-02,Amateur Open,65.9,,,,,,-150,150,152.5,-181,152.5,,,,,,152.5,2
67.5,Nikolay Aleksandrov,Николай Александров,B,Single-ply,Yes,M,СС,1991-09-23,Amateur Open,65.55,,,,,,140,-150,150,,150,,,,,,150,3
75,Yuriy Nogay,Юрий Ногай,B,Single-ply,Yes,M,Стальной Медведь,1983-05-26,Amateur Open,74.5,,,,,,250,-260,260,,260,,,,,,260,1
75,Aleksand Rogov,Александ Рогов,B,Single-ply,Yes,M,СС,1973-01-24,Amateur Open,73.65,,,,,,175,185,190,,190,,,,,,190,2
75,Vyacheslav Dementev,Вячеслав Дементьев,B,Single-ply,Yes,M,Стальной Медведь,1983-02-17,Amateur Open,72.75,,,,,,-110,-110,110,,110,,,,,,110,3
75,Sergey Fedoseev,Сергей Федосеев,B,Single-ply,Yes,M,Стальной Медведь,1982-01-18,Amateur Open,74.3,,,,,,-170,-170,-170,,,,,,,,,DQ
82.5,Pavel Kostyurin,Павел Костюрин,B,Single-ply,Yes,M,,1989-12-29,Amateur Open,82.5,,,,,,185,202.5,207.5,,207.5,,,,,,207.5,1
82.5,Anatoliy Strizhkov,Анатолий Стрижков,B,Single-ply,Yes,M,СС,1993-10-21,Amateur Open,81.9,,,,,,165,175,-185,,175,,,,,,175,2
82.5,Ivan Volozhanin,Иван Воложанин,B,Single-ply,Yes,M,Стальной Медведь,1991-06-08,Amateur Open,81.9,,,,,,160,-175,-175,,160,,,,,,160,3
90,Yuriy Mikhaylov,Юрий Михайлов,B,Single-ply,Yes,M,СС,1987-07-22,Amateur Open,89.7,,,,,,210,217.5,225,,225,,,,,,225,1
90,Kirill Kovalenko,Кирилл Коваленко,B,Single-ply,Yes,M,Новоспорт,1990-05-03,Amateur Open,89.6,,,,,,155,165,172.5,,172.5,,,,,,172.5,2
90,Artem Urodov,Артем Уродов,B,Single-ply,Yes,M,Новоспорт,1991-09-29,Amateur Open,83.95,,,,,,145,155,-165,,155,,,,,,155,3
100,Vyacheslav Nikolaev,Вячеслав Николаев,B,Single-ply,Yes,M,Стальной Медведь,1956-07-10,Amateur Open,96.05,,,,,,-217.5,-217.5,-217.5,,,,,,,,,DQ
125,Sergey Fefler,Сергей Фефлер,B,Single-ply,Yes,M,СС,1977-09-12,Amateur Open,113.3,,,,,,180,-190,190,,190,,,,,,190,1
90,Dmitriy Zavarzin,Дмитрий Заварзин,B,Single-ply,Yes,M,СС,1973-11-07,Amateur Masters 40-49,84.35,,,,,,152.5,157.5,165,,165,,,,,,165,1
100,Evgeniy Yudin,Евгений Юдин,B,Single-ply,Yes,M,авто вокзал,1970-07-07,Amateur Masters 40-49,99.2,,,,,,150,155,-157.5,,155,,,,,,155,1
125,Andrey Terekhin,Андрей Терехин,B,Single-ply,Yes,M,,1973-10-22,Amateur Masters 40-49,116.15,,,,,,182.5,190,200,,200,,,,,,200,1
125,Sergey Fefler,Сергей Фефлер,B,Single-ply,Yes,M,СС,1977-09-12,Amateur Masters 40-49,113.3,,,,,,180,-190,190,,190,,,,,,190,2
110,Evgeniy Rusakov,Евгений Русаков,B,Single-ply,Yes,M,Стальной Медведь,1959-10-14,Amateur Masters 50-59,109.5,,,,,,225,-245,245,,245,,,,,,245,1
100,Vyacheslav Nikolaev,Вячеслав Николаев,B,Single-ply,Yes,M,Стальной Медведь,1956-07-10,Amateur Masters 60-69,96.05,,,,,,-217.5,-217.5,-217.5,,,,,,,,,DQ
52,Angelina Klasina,Ангелина Класина,B,Single-ply,Yes,F,СС,1999-10-08,Amateur Teen 17-19,50.55,,,,,,75,-82.5,-82.5,,75,,,,,,75,1
60,Olga Stoyanova,Ольга Стоянова,B,Single-ply,Yes,F,СС,2000-08-26,Amateur Teen 17-19,60,,,,,,-80,82.5,-87.5,,82.5,,,,,,82.5,1
67.5,Angelina Tararaeva,Ангелина Тарараева,B,Single-ply,Yes,F,,2000-04-08,Amateur Teen 17-19,67.25,,,,,,90,100,-107.5,,100,,,,,,100,1
67.5,Irina Kochina,Ирина Кочина,B,Single-ply,Yes,F,СС,1999-05-12,Amateur Teen 17-19,61.5,,,,,,75,-82.5,85,,85,,,,,,85,2
48,Galina Elchina,Галина Ельчина,B,Single-ply,Yes,F,Стальной Медведь,1968-06-08,Amateur Open,47.6,,,,,,-80,-80,80,-92.5,80,,,,,,80,1
52,Oksana Levenets,Оксана Левенец,B,Single-ply,Yes,F,Стальной Медведь,1975-10-16,Amateur Open,50.96,,,,,,-60,60,-72.5,,60,,,,,,60,1
56,Mariya Prikhodko,Мария Приходько,B,Single-ply,Yes,F,Стальной Медведь,1992-09-14,Amateur Open,55.06,,,,,,-77.5,77.5,-82.5,,77.5,,,,,,77.5,1
60,Anna Novoselova,Анна Новоселова,B,Single-ply,Yes,F,Стальной Медведь,1992-10-06,Amateur Open,59.9,,,,,,-107.5,107.5,-115,,107.5,,,,,,107.5,1
67.5,Anna Kolesnikova,Анна Колесникова,B,Single-ply,Yes,F,СВС,1998-03-03,Amateur Open,64.55,,,,,,105,110,115,,115,,,,,,115,1
67.5,Natalya Plugatyr,Наталья Плугатырь,B,Single-ply,Yes,F,СС,1979-07-14,Amateur Open,64.6,,,,,,100,-107.5,-107.5,,100,,,,,,100,2
82.5,Elena Nikolenko,Елена Николенко,B,Single-ply,Yes,F,Стальной Медведь,1978-06-15,Amateur Open,81.4,,,,,,115,120,-125,,120,,,,,,120,1
48,Galina Elchina,Галина Ельчина,B,Single-ply,Yes,F,Стальной Медведь,1968-06-08,Amateur Masters 40-49,47.6,,,,,,-80,-80,80,-92.5,80,,,,,,80,1
52,Oksana Levenets,Оксана Левенец,B,Single-ply,Yes,F,Стальной Медведь,1975-10-16,Amateur Masters 40-49,50.96,,,,,,-60,60,-72.5,,60,,,,,,60,1
67.5,Marianna Efremova-Otchenash,Марианна Ефремова-Отченаш,B,Single-ply,Yes,F,СС,1977-04-09,Amateur Masters 40-49,66.4,,,,,,70,75,80,,80,,,,,,80,1
67.5,Aleksandr Zhizhkin,Александр Жижкин,B,Raw,Yes,M,СС,2001-07-04,Disabled Teen 14-16,62,,,,,,50,55,60,,60,,,,,,60,1
60,Kirill Larionov,Кирилл Ларионов,B,Raw,Yes,M,Здоровье,2000-09-07,Disabled Teen 17-19,58.8,,,,,,82.5,-90,-90,,82.5,,,,,,82.5,1
82.5,Egor Kazakov,Егор Казаков,B,Raw,Yes,M,Обь,1999-02-19,Disabled Teen 17-19,79.3,,,,,,45,55,60,,60,,,,,,60,1
67.5,Rustam Baytulov,Рустам Байтулов,B,Raw,Yes,M,Обь,1983-08-20,Disabled Open,64.95,,,,,,90,95,-97.5,,95,,,,,,95,1
75,Aleksandr Rogov,Александр Рогов,B,Raw,Yes,M,СС,1973-01-24,Disabled Open,73.65,,,,,,130,135,140,,140,,,,,,140,1
75,Andrey Solodkin,Андрей Солодкин,B,Raw,Yes,M,Обь,1989-08-25,Disabled Open,69.96,,,,,,95,100,105,,105,,,,,,105,2
75,Sergey Chernikov,Сергей Черников,B,Raw,Yes,M,Обь,1983-03-29,Disabled Open,73.2,,,,,,95,100,-102.5,,100,,,,,,100,3
75,Konstantin Karpov,Константин Карпов,B,Raw,Yes,M,Обь,1988-04-26,Disabled Open,67.65,,,,,,-52.5,57.5,-60,,57.5,,,,,,57.5,4
82.5,Mikhail Nalivanskiy,Михаил Наливанский,B,Raw,Yes,M,Обь,1990-04-04,Disabled Open,77.05,,,,,,105,110,-117.5,,110,,,,,,110,1
90,Dmitriy Ivanushkin,Дмитрий Иванушкин,B,Raw,Yes,M,Обь,1990-05-23,Disabled Open,86.15,,,,,,80,-85,-85,,80,,,,,,80,1
90,Maksim Chistyakov,Максим Чистяков,B,Raw,Yes,M,Обь,1989-08-09,Disabled Open,84.35,,,,,,65,-70,70,,70,,,,,,70,2
100,Vladimir Vizgin,Владимир Визгин,B,Raw,Yes,M,Обь,1952-04-25,Disabled Open,97,,,,,,130,140,142.5,,142.5,,,,,,142.5,1
100,Dmitriy Golyshev,Дмитрий Голышев,B,Raw,Yes,M,,1979-04-13,Disabled Open,91.8,,,,,,95,102.5,-110,,102.5,,,,,,102.5,2
67.5,Yuriy Vikhorev,Юрий Вихорев,B,Raw,Yes,M,,1950-06-28,Disabled Masters 65-69,66.2,,,,,,70,75,80,,80,,,,,,80,1
67.5,Rustam Baytulov,Рустам Байтулов,SBD,Wraps,Yes,M,Обь,1983-08-20,Disabled Open,64.95,85,90,95,,95,90,95,-97.5,,95,115,130,140,,140,330,1
67.5,Evgeniy Sinko,Евгений Синько,B,Multi-ply,No,M,Профлига,1981-10-07,Pro Open,67.2,,,,,,-195,-195,195,-211,195,,,,,,195,1
82.5,Artem Bykhovets,Артем Быховец,B,Multi-ply,No,M,Стальной Медведь,1983-07-19,Pro Open,81.55,,,,,,270,-302.5,-302.5,,270,,,,,,270,1
82.5,Mikhail Gutikov,Михаил Гутиков,B,Multi-ply,No,M,Силуэт,1987-05-30,Pro Open,80.45,,,,,,207.5,215,220,,220,,,,,,220,2
82.5,Aleksey Usmanov,Алексей Усманов,B,Multi-ply,No,M,СС,1973-02-27,Pro Open,80.5,,,,,,-180,180,,,180,,,,,,180,3
90,Dmitriy Savchenko,Дмитрий Савченко,B,Multi-ply,No,M,Обь,1981-08-03,Pro Open,88.85,,,,,,220,-240,242.5,,242.5,,,,,,242.5,1
90,Aleksandr Ivanov,Александр Иванов,B,Multi-ply,No,M,Новоспорт,1987-01-18,Pro Open,85.55,,,,,,190,210,230,,230,,,,,,230,2
90,Timofey Zuban,Тимофей Зубан,B,Multi-ply,No,M,Олимпия,1992-02-25,Pro Open,89.7,,,,,,200,222.5,-245,,222.5,,,,,,222.5,3
90,Aleksandr Yakovlev,Александр Яковлев,B,Multi-ply,No,M,Олимпия,1983-06-21,Pro Open,85.7,,,,,,200,212.5,-225,,212.5,,,,,,212.5,4
90,Aleksandr Belov,Александр Белов,B,Multi-ply,No,M,Новоспорт,1992-09-20,Pro Open,90,,,,,,205,-215,-230,,205,,,,,,205,5
100,Yakov Zuban,Яков Зубан,B,Multi-ply,No,M,Олимпия,1990-04-24,Pro Open,99.75,,,,,,270,-285,285,,285,,,,,,285,1
100,Aleksandr Bagaev,Александр Багаев,B,Multi-ply,No,M,,1986-04-18,Pro Open,98.4,,,,,,260,280,-282.5,,280,,,,,,280,2
100,Igor Kiryukhin,Игорь Кирюхин,B,Multi-ply,No,M,СС,1970-03-22,Pro Open,99,,,,,,280,-300,-300,,280,,,,,,280,3
100,Aleksandr Kurmashov,Александр Курмашов,B,Multi-ply,No,M,Новоспорт,1993-07-13,Pro Open,98.9,,,,,,240,255,265,,265,,,,,,265,4
100,Aleksandr Taynikov,Александр Тайников,B,Multi-ply,No,M,СС,1979-04-10,Pro Open,95.85,,,,,,-252.5,252.5,260,,260,,,,,,260,5
100,Aleksandr Shelepov,Александр Шелепов,B,Multi-ply,No,M,Томская Сила,1990-07-01,Pro Open,98.45,,,,,,-220,220,-232.5,,220,,,,,,220,6
100,Pavel Bryndin,Павел Брындин,B,Multi-ply,No,M,,1981-12-11,Pro Open,95.75,,,,,,215,-220,-220,,215,,,,,,215,7
110,Aleksandr Elshin,Александр Ельшин,B,Multi-ply,No,M,Олимпия,1992-08-17,Pro Open,108.35,,,,,,300,310,320,,320,,,,,,320,1
110,Maksim Medvedev,Максим Медведев,B,Multi-ply,No,M,,1981-05-16,Pro Open,105.55,,,,,,280,295,307.5,,307.5,,,,,,307.5,2
110,Anton Epikhin,Антон Епихин,B,Multi-ply,No,M,Томская Сила,1988-10-11,Pro Open,102.7,,,,,,285,300,305,,305,,,,,,305,3
125,Konstantin Elshin,Константин Ельшин,B,Multi-ply,No,M,Олимпия,1986-07-19,Pro Open,122.4,,,,,,350,365,382.5,,382.5,,,,,,382.5,1
125,Vladimir Samoylov,Владимир Самойлов,B,Multi-ply,No,M,Стил Хертс,1991-05-09,Pro Open,122.2,,,,,,315,327.5,-335,,327.5,,,,,,327.5,2
125,Andrey Bashkov,Андрей Башков,B,Multi-ply,No,M,Мистратов Тим,1981-09-23,Pro Open,114.45,,,,,,-300,300,-310,,300,,,,,,300,3
82.5,Aleksey Usmanov,Алексей Усманов,B,Multi-ply,No,M,СС,1973-02-27,Pro Masters 40-49,80.5,,,,,,-180,180,,,180,,,,,,180,1
100,Igor Kiryukhin,Игорь Кирюхин,B,Multi-ply,No,M,СС,1970-03-22,Pro Masters 40-49,99,,,,,,280,-300,-300,,280,,,,,,280,1
110,Oleg Efremov-Otchenash,Олег Ефремов-Отченаш,B,Multi-ply,No,M,СС,1969-12-31,Pro Masters 40-49,105.95,,,,,,220,230,-240,,230,,,,,,230,1
125,Viktor Prisyazhnyuk,Виктор Присяжнюк,B,Multi-ply,No,M,Олимпия,1976-03-15,Pro Masters 40-49,111.8,,,,,,280,300,-310,,300,,,,,,300,1
90,Nikolay Kuznetsov,Николай Кузнецов,B,Multi-ply,No,M,СС,1960-12-28,Pro Masters 50-59,89.7,,,,,,215,225,-237.5,,225,,,,,,225,1
60,Anastasiya Loginova,Анастасия Логинова,B,Multi-ply,No,F,СС,1998-02-26,Pro Teen 17-19,59.95,,,,,,90,-95,-95,,90,,,,,,90,1
82.5,Anastasiya Ostapenko,Анастасия Остапенко,B,Multi-ply,No,F,Новоспорт,1998-04-19,Pro Open,82,,,,,,-150,-150,,,,,,,,,,DQ
90,Viktor Tikhonov,Виктор Тихонов,B,Raw,No,M,СС,2001-04-21,Pro Teen 14-16,88.7,,,,,,95,100,-105,,100,,,,,,100,1
82.5,Maksim Chichin,Максим Чичин,B,Raw,No,M,Новоспорт,1999-07-12,Pro Teen 17-19,81.2,,,,,,150,-160,-160,,150,,,,,,150,1
75,Andrey Elkin,Андрей Елькин,B,Raw,No,M,Новоспорт,1995-01-14,Pro Juniors 20-23,74.8,,,,,,-162.5,,,,,,,,,,,DQ
100,Denis Romanov,Денис Романов,B,Raw,No,M,,1994-04-24,Pro Juniors 20-23,99.6,,,,,,222.5,225,-230,,225,,,,,,225,1
100,Evgeniy Egorov,Евгений Егоров,B,Raw,No,M,Профлига,1996-08-15,Pro Juniors 20-23,92,,,,,,167.5,177.5,185,,185,,,,,,185,2
67.5,Andrey Chugaevskiy,Андрей Чугаевский,B,Raw,No,M,,1981-02-26,Pro Open,66.7,,,,,,100,105,-112.5,,105,,,,,,105,3
67.5,Evgeniy Sinko,Евгений Синько,B,Raw,No,M,Профлига,1981-10-07,Pro Open,67.2,,,,,,-195,-195,,,,,,,,,,DQ
75,Nikolay Mikhasyonok,Николай Михасёнок,B,Raw,No,M,СС,1987-06-08,Pro Open,70.3,,,,,,70,75,80,,80,,,,,,80,8
82.5,Daniil Lamanov,Даниил Ламанов,B,Raw,No,M,Новоспорт,1987-08-17,Pro Open,81.4,,,,,,145,157.5,-162.5,,157.5,,,,,,157.5,2
82.5,Nikolay Gudkov,Николай Гудков,B,Raw,No,M,Беловалтим,1988-11-07,Pro Open,82.5,,,,,,-155,-157.5,157.5,,157.5,,,,,,157.5,3
90,Evgeniy Beloval,Евгений Беловал,B,Raw,No,M,хаммер,1991-12-06,Pro Open,88.7,,,,,,240,250,-252.5,,250,,,,,,250,1
90,Maksim Sagaydak,Максим Сагайдак,B,Raw,No,M,,1988-07-29,Pro Open,87.45,,,,,,-175,177.5,-185,,177.5,,,,,,177.5,3
90,Artem Tarasov,Артем Тарасов,B,Raw,No,M,Новоспорт,1994-06-01,Pro Open,89.75,,,,,,-185,-185,,,,,,,,,,DQ
100,Denis Romanov,Денис Романов,B,Raw,No,M,,1994-04-24,Pro Open,99.6,,,,,,222.5,225,-230,,225,,,,,,225,1
100,Konstantin Kovazhenko,Константин Коваженко,B,Raw,No,M,Томская Сила,1978-04-17,Pro Open,99.65,,,,,,205,217.5,222.5,,222.5,,,,,,222.5,2
100,Evgeniy Novikov,Евгений Новиков,B,Raw,No,M,,1983-01-05,Pro Open,100,,,,,,205,212.5,-220,,212.5,,,,,,212.5,3
100,Denis Simakhin,Денис Симахин,B,Raw,No,M,Новоспорт,1982-01-19,Pro Open,98.4,,,,,,170,180,187.5,,187.5,,,,,,187.5,4
100,Sergey Zinchenko,Сергей Зинченко,B,Raw,No,M,,1988-03-28,Pro Open,96.95,,,,,,170,180,-192.5,,180,,,,,,180,6
100,Maksim Volonchuk,Максим Волончук,B,Raw,No,M,,1992-02-08,Pro Open,93.6,,,,,,165,175,-177.5,,175,,,,,,175,7
100,Sergey Galkin,Сергей Галкин,B,Raw,No,M,,1981-10-31,Pro Open,98.95,,,,,,160,167.5,172.5,,172.5,,,,,,172.5,9
100,Maksim Burov,Максим Буров,B,Raw,No,M,,1989-05-17,Pro Open,95.9,,,,,,167.5,-172.5,-172.5,,167.5,,,,,,167.5,10
100,Aleksandr Khramtsov,Александр Храмцов,B,Raw,No,M,Новоспорт,1989-10-07,Pro Open,99.1,,,,,,140,150,155,,155,,,,,,155,14
100,Evgeniy Vdovin,Евгений Вдовин,B,Raw,No,M,экстрим Фитнесс,1992-03-26,Pro Open,99.2,,,,,,150,-157.5,-157.5,,150,,,,,,150,17
100,Nikita Chebakov,Никита Чебаков,B,Raw,No,M,,1992-05-26,Pro Open,98.5,,,,,,-192.5,-192.5,-192.5,,,,,,,,,DQ
110,Evgeniy Zenin,Евгений Зенин,B,Raw,No,M,,1991-02-02,Pro Open,104.45,,,,,,200,210,-215,,210,,,,,,210,1
110,Konstantin Shesler,Константин Шеслер,B,Raw,No,M,Фитнес будущего,1986-09-04,Pro Open,103.15,,,,,,205,-210,-210,-210,205,,,,,,205,4
110,Maksim Medvedev,Максим Медведев,B,Raw,No,M,,1981-05-16,Pro Open,105.55,,,,,,190,200,-202.5,,200,,,,,,200,6
110,Aleksandr Khlupin,Александр Хлупин,B,Raw,No,M,,1985-04-12,Pro Open,104.5,,,,,,155,-170,170,,170,,,,,,170,9
110,Pavel Chelyaev,Павел Челяев,B,Raw,No,M,Новоспорт,1980-04-03,Pro Open,107.4,,,,,,155,-167.5,-167.5,,155,,,,,,155,11
125,Konstantin Elshin,Константин Ельшин,B,Raw,No,M,Олимпия,1986-07-19,Pro Open,122.4,,,,,,220,237.5,-250,,237.5,,,,,,237.5,1
125,Dmitriy Andreev,Дмитрий Андреев,B,Raw,No,M,,1986-06-29,Pro Open,121.7,,,,,,190,-200,200,,200,,,,,,200,3
110,Aleksandr Gryaznov,Александр Грязнов,B,Raw,No,M,,1975-06-08,Pro Masters 40-49,104.55,,,,,,150,-155,-160,,150,,,,,,150,4
90,Valeriy Sorokov,Валерий Сороков,B,Raw,No,M,,1954-06-01,Pro Masters 60-69,88.2,,,,,,147.5,150,-155,,150,,,,,,150,1
60,Natalya Morozova,Наталья Морозова,B,Raw,No,F,,1991-11-28,Pro Open,58.86,,,,,,70,72.5,-75,,72.5,,,,,,72.5,1
100,Evgeniy Sapov,Евгений Сапов,SBD,Multi-ply,No,M,,1994-06-02,Pro Juniors 20-23,99.95,270,280,-290,,280,-220,-235,-235,,,-300,,,,,,DQ
90,Viktor Mikhaylov,Виктор Михайлов,SBD,Multi-ply,No,M,Томская Сила,1997-01-31,Pro Juniors 20-23,88.85,235,-247.5,247.5,,247.5,-225,-225,-225,,,300,-310,-320,,300,,DQ
67.5,Evgeniy Gansh,Евгений Ганш,SBD,Multi-ply,No,M,Рельеф,1992-04-10,Pro Open,67.5,-290,-302.5,302.5,,302.5,-195,-202.5,-202.5,,,-265,,,,,,DQ
90,Viktor Mikhaylov,Виктор Михайлов,SBD,Multi-ply,No,M,Томская Сила,1997-01-31,Pro Open,88.85,,,,,,,,,,,300,-310,-320,,300,,DQ
100,Dmitriy Sherin,Дмитрий Шерин,SBD,Multi-ply,No,M,Стальной Медведь,1991-02-17,Pro Open,98.4,180,-215,215,,215,-300,300,-315,,300,200,210,,,210,725,1
110,Aleksandr Sedykh,Александр Седых,SBD,Multi-ply,No,M,,1990-05-24,Pro Open,109.2,335,-355,355,,355,250,275,290,,290,250,265,275,,275,920,1
90,Viktor Mikhaylov,Виктор Михайлов,SBD,Multi-ply,No,M,Томская Сила,1997-01-31,Pro Open,88.85,235,-247.5,247.5,,247.5,-225,-225,-225,,,300,-310,-320,,300,,DQ
60,Mariya Prikhodko,Мария Приходько,SBD,Multi-ply,No,F,Стальной Медведь,1992-09-14,Pro Open,58.45,,,,,,,,,,,-95,95,-105,,95,,DQ
67.5,Evgeniy Gansh,Евгений Ганш,S,Multi-ply,No,M,Рельеф,1992-04-10,Pro Open,67.5,-290,-302.5,302.5,,302.5,,,,,,,,,,,302.5,1
90,Vyacheslav Alekseev,Вячеслав Алексеев,S,Multi-ply,No,M,Новоспорт,1990-03-07,Pro Open,89.8,350,368,,,368,,,,,,,,,,,368,1
60,Mariya Prikhodko,Мария Приходько,D,Multi-ply,No,F,Стальной Медведь,1992-09-14,Pro Open,58.45,,,,,,,,,,,-95,95,-105,,95,95,1
90,Viktor Mikhaylov,Виктор Михайлов,D,Multi-ply,No,M,Томская Сила,1997-01-31,Pro Open,88.85,,,,,,,,,,,300,-310,-320,,300,300,1
56,Timofey Sukhov,Тимофей Сухов,SBD,Wraps,No,M,СС,2004-08-19,Pro Teen 13,55.6,-90,90,-95,,90,50,-52.5,52.5,,52.5,90,95,100,,100,242.5,1
52,Andrey Filipenko,Андрей Филипенко,SBD,Wraps,No,M,СС,2001-09-26,Pro Teen 14-16,50.9,80,85,90,,90,65,67.5,70,,70,90,95,100,,100,260,1
56,Semen Bodyukov,Семен Бодюков,SBD,Wraps,No,M,Рельеф,2002-12-25,Pro Teen 14-16,55.22,90,100,105,,105,60,67.5,72.5,,72.5,100,-112.5,112.5,,112.5,290,2
67.5,Nikita Sabelfeld,Никита Сабельфельд,SBD,Wraps,No,M,СС,2002-07-17,Pro Teen 14-16,64.95,90,97.5,102.5,,102.5,60,65,67.5,,67.5,140,150,160,,160,330,2
75,Evgeniy Tolmachev,Евгений Толмачев,SBD,Wraps,No,M,Колыванец,1998-04-19,Pro Teen 17-19,72.34,190,197.5,-205,,197.5,130,137.5,142.5,,142.5,220,-230,,,220,560,1
82.5,Maksim Chichin,Максим Чичин,SBD,Wraps,No,M,Новоспорт,1999-07-12,Pro Teen 17-19,81.25,200,210,-215,,210,150,157.5,-160,,157.5,220,230,235,,235,602.5,1
82.5,Roman Korotkikh,Роман Коротких,SBD,Wraps,No,M,СС,1994-08-21,Pro Juniors 20-23,82.4,230,240,-245,,240,170,180,-190,,180,240,252.5,260,,260,680,1
82.5,Vitaliy Afanasev,Виталий Афанасьев,SBD,Wraps,No,M,Рельеф,1996-01-22,Pro Juniors 20-23,80.1,-200,210,-220,,210,145,152.5,160,,160,220,240,265,,265,635,2
82.5,Sergey Popov,Сергей Попов,SBD,Wraps,No,M,Рельеф,1995-05-30,Pro Juniors 20-23,81.75,200,215,-230,,215,120,130,-137.5,,130,-230,230,-255,,230,575,4
82.5,Vladislav Dolgopolov,Владислав Долгополов,SBD,Wraps,No,M,Новоспорт,1995-07-04,Pro Juniors 20-23,80,175,-185,-185,,175,140,-145,-145,,140,-220,220,-225,,220,535,5
100,Nikita Ushkalenko,Никита Ушкаленко,SBD,Wraps,No,M,ярость тигра,1996-04-05,Pro Juniors 20-23,99.65,-210,210,220,,220,150,157.5,-165,,157.5,230,240,-245,,240,617.5,1
110,Ivan Yuzhakov,Иван Южаков,SBD,Wraps,No,M,,1995-06-09,Pro Juniors 20-23,107,-210,-210,-220,,,-150,,,,,-250,-260,-265,,,,DQ
75,Mikhail Suslov,Михаил Суслов,SBD,Wraps,No,M,,1994-08-24,Pro Open,73.2,210,230,242.5,,242.5,140,-155,155,,155,240,250,260,,260,657.5,1
75,Evgeniy Tolmachev,Евгений Толмачев,SBD,Wraps,No,M,Колыванец,1998-04-19,Pro Open,72.34,190,197.5,-205,,197.5,130,137.5,142.5,,142.5,220,-230,,,220,560,4
82.5,Denis Osintsev,Денис Осинцев,SBD,Wraps,No,M,Рельеф,1996-09-11,Pro Open,82.5,240,252.5,-260,,252.5,160,170,-175,,170,270,-287.5,287.5,,287.5,710,1
82.5,Roman Korotkikh,Роман Коротких,SBD,Wraps,No,M,СС,1994-08-21,Pro Open,82.4,230,240,-245,,240,170,180,-190,,180,240,252.5,260,,260,680,2
90,Vyacheslav Alekseev,Вячеслав Алексеев,SBD,Wraps,No,M,Новоспорт,1990-03-07,Pro Open,89.8,300,320,,,320,155,167.5,172.5,,172.5,300,-320,322.5,,322.5,815,1
90,Andrey Kuznetsov,Андрей Кузнецов,SBD,Wraps,No,M,,1983-04-17,Pro Open,89.95,205,215,225,,225,150,157.5,160,,160,-250,265,275,,275,660,2
100,Anton Katsyuk,Антон Кацюк,SBD,Wraps,No,M,Новоспорт,1989-04-20,Pro Open,100,200,-217.5,230,,230,145,155,-162.5,,155,245,265,-272.5,,265,650,1
100,Arseniy Aliev,Арсений Алиев,SBD,Wraps,No,M,Колыванец,1993-06-05,Pro Open,99.35,220,-237.5,-237.5,,220,150,157.5,165,,165,240,255,-272.5,,255,640,2
100,Nikita Ushkalenko,Никита Ушкаленко,SBD,Wraps,No,M,ярость тигра,1996-04-05,Pro Open,99.65,-210,210,220,,220,150,157.5,-165,,157.5,230,240,-245,,240,617.5,3
100,Sergey Bogachuk,Сергей Богачук,SBD,Wraps,No,M,СС,1989-05-30,Pro Open,91.2,180,190,200,,200,120,125,130,,130,220,230,235,,235,565,5
110,Denis Smailov,Денис Смаилов,SBD,Wraps,No,M,Новоспорт,1991-05-09,Pro Open,109.9,200,220,-235,,220,120,130,-140,,130,250,280,295,,295,645,1
110,Anton Zotov,Антон Зотов,SBD,Wraps,No,M,СС,1990-07-13,Pro Open,109.6,225,230,-235,,230,120,125,-130,,125,260,287.5,,,287.5,642.5,2
110,Aleksandr Khlupin,Александр Хлупин,SBD,Wraps,No,M,,1985-04-12,Pro Open,105.5,,,,,,,,,,,240,260,270,,270,,DQ
125,Sergey Semakin,Сергей Семакин,SBD,Wraps,No,M,Эльбрус,1978-08-29,Pro Open,119.55,285,-305,305,,305,185,-192.5,195,,195,305,330,-355.5,,330,830,1
125,Aleksandr Bakhman,Александр Бахман,SBD,Wraps,No,M,Новоспорт,1989-07-29,Pro Open,117.85,210,220,-230,,220,180,185,190,,190,220,-230,-230,,220,630,2
125,Pavel Pakhtanov,Павел Пахтанов,SBD,Wraps,No,M,Колыванец,1993-07-25,Pro Open,110.55,165,175,-180,,175,150,160,165,,165,210,225,-232.5,,225,565,3
90,Vyacheslav Gubarev,Вячеслав Губарев,SBD,Wraps,No,M,Новоспорт,1976-04-23,Pro Masters 40-49,87.65,190,200,205,,205,140,147.5,150,,150,240,-245,245,,245,600,1
52,Nadezhda Komarova,Надежда Комарова,D,Raw,No,F,,1994-10-06,Pro Juniors 20-23,50.35,,,,,,,,,,,90,95,-100,,95,,DQ
52,Galina Elchina,Галина Ельчина,D,Raw,No,F,Стальной Медведь,1968-06-08,Pro Open,49.85,,,,,,,,,,,100,-110,-110,,100,,DQ
52,Galina Elchina,Галина Ельчина,D,Raw,No,F,Стальной Медведь,1968-06-08,Pro Masters 40-49,49.85,,,,,,,,,,,100,-110,-110,,100,,DQ
67.5,Yuliya Korovina,Юлия Коровина,SBD,Wraps,No,F,Рельеф,1976-07-12,Pro Masters 40-49,66.5,80,-90,-90,,80,45,-50,-50,,45,120,130,135,,135,260,1
90,Irina Zotova,Ирина Зотова,SBD,Wraps,No,F,Рельеф,1973-11-29,Pro Masters 40-49,84.6,-110,-110,110,,110,70,75,77.5,,77.5,130,137.5,142.5,,142.5,330,1
60,Vera Volobueva,Вера Волобуева,SBD,Wraps,No,F,Рельеф,1957-03-23,Pro Masters 60-69,59.2,-90,90,95,,95,57.5,-60,-62.5,,57.5,110,-115,115,,115,267.5,1
110,Ivan Yuzhakov,Иван Южаков,D,Raw,No,M,,1995-06-09,Pro Juniors 20-23,107,,,,,,,,,,,-250,-260,-265,,,,DQ
110,Aleksandr Khlupin,Александр Хлупин,D,Raw,No,M,,1985-04-12,Pro Open,105.5,,,,,,,,,,,240,260,270,,270,270,1
